// EVENT 0901
Name "Chaos Labyrinth Movement"

221()
ChangeVariable(121,121,1,0,1)
If(1,151,0,0,0)
 If(1,121,0,100,2)
  ChangeVariable(149,149,1,0,17)
  0()
 EndIf()
 If(1,121,0,101,1)
  If(1,121,0,200,2)
   ChangeVariable(149,149,1,0,50)
   0()
  EndIf()
  0()
 EndIf()
 If(1,121,0,201,1)
  If(1,121,0,300,2)
   ChangeVariable(149,149,1,0,230)
   0()
  EndIf()
  0()
 EndIf()
 If(1,121,0,301,1)
  ChangeVariable(149,149,1,0,500)
  0()
 EndIf()
 ChangeVariable(150,150,1,0,10)
 RunCommonEvent(918)
 0()
EndIf()
If(1,151,0,1,0)
 ChangeVariable(149,149,1,0,30)
 ChangeVariable(150,150,1,0,50)
 RunCommonEvent(918)
 0()
EndIf()
If(1,151,0,2,0)
 ChangeVariable(149,149,1,0,50)
 ChangeVariable(150,150,1,0,50)
 RunCommonEvent(918)
 0()
EndIf()
If(1,151,0,3,0)
 ChangeVariable(149,149,1,0,200)
 ChangeVariable(150,150,1,0,50)
 RunCommonEvent(918)
 0()
EndIf()
If(1,151,0,4,0)
 ChangeVariable(149,149,1,0,500)
 ChangeVariable(150,150,1,0,50)
 RunCommonEvent(918)
 0()
EndIf()
If(1,151,0,5,0)
 ChangeVariable(149,149,1,0,3000)
 ChangeVariable(150,150,1,0,50)
 RunCommonEvent(918)
 0()
EndIf()
RunCommonEvent(900)
ChangeSwitch(31,31,1)
ChangeSwitch(32,32,1)
ChangeSwitch(33,33,1)
ChangeSwitch(34,34,1)
ChangeSwitch(35,35,1)
ChangeSwitch(36,36,1)
ChangeVariable(125,125,0,2,1,3)
ChangeSwitch(42,47,1)
ChangeSwitch(50,51,1)
ChangeSwitch(57,60,1)
ChangeSwitch(74,80,1)
ChangeSwitch(421,426,1)
ChangeSwitch(55,55,1)
ChangeVariable(11,11,0,2,1,3)
If(1,11,0,1,0)
 ChangeSwitch(42,42,0)
 0()
EndIf()
If(1,11,0,2,0)
 ChangeSwitch(43,43,0)
 0()
EndIf()
If(1,11,0,3,0)
 ChangeSwitch(44,44,0)
 0()
EndIf()
ChangeVariable(140,145,0,2,1,30)
If(1,150,0,0,1)
 If(1,150,0,2000,2)
  If(1,140,0,27,1)
   ChangeVariable(140,140,0,0,26)
   0()
  EndIf()
  If(1,141,0,20,1)
   ChangeVariable(141,141,0,0,19)
   0()
  EndIf()
  If(1,142,0,20,1)
   ChangeVariable(142,142,0,0,19)
   0()
  EndIf()
  If(1,143,0,20,1)
   ChangeVariable(143,143,0,0,19)
   0()
  EndIf()
  If(1,144,0,20,1)
   ChangeVariable(144,144,0,0,19)
   0()
  EndIf()
  If(1,145,0,20,1)
   ChangeVariable(145,145,0,0,19)
   0()
  EndIf()
  0()
 EndIf()
 0()
EndIf()
If(1,150,0,2001,1)
 If(1,150,0,6000,2)
  If(1,140,0,30,1)
   ChangeVariable(140,140,0,0,29)
   0()
  EndIf()
  If(1,141,0,27,1)
   ChangeVariable(141,141,0,0,26)
   0()
  EndIf()
  If(1,142,0,27,1)
   ChangeVariable(142,142,0,0,26)
   0()
  EndIf()
  If(1,143,0,27,1)
   ChangeVariable(143,143,0,0,26)
   0()
  EndIf()
  If(1,144,0,27,1)
   ChangeVariable(144,144,0,0,26)
   0()
  EndIf()
  If(1,145,0,27,1)
   ChangeVariable(145,145,0,0,26)
   0()
  EndIf()
  0()
 EndIf()
 0()
EndIf()
ChangeVariable(126,126,0,0,0)
ChangeVariable(17,17,0,2,1,10)
If(1,17,0,4,2)
 ChangeVariable(126,126,0,2,1,62)
 If(1,123,0,9,0)
  ChangeVariable(126,126,0,2,1,70)
  0()
 EndIf()
 0()
EndIf()
ChangeVariable(129,129,0,0,0)
ChangeVariable(128,128,0,2,1,3)
ChangeVariable(130,130,0,2,1,2)
If(1,131,0,1,1)
 If(1,121,1,131,1)
  If(0,66,0)
   ShowMessageFace("",0,0,2,1)
   ShowMessage("You reached floor \\V[131] like Black Alice requested!")
   ShowMessage("You were given some items as reward!")
   250(bytes(0x04,0x08,0x6f,0x3a,0x0c,0x52,0x50,0x47,0x3a,0x3a,0x53,0x45,0x08,0x3a,0x0a,0x40,0x6e,0x61,0x6d,0x65,0x49,0x22,0x0a,0x49,0x74,0x65,0x6d,0x31,0x06,0x3a,0x06,0x45,0x54,0x3a,0x0b,0x40,0x70,0x69,0x74,0x63,0x68,0x69,0x69,0x3a,0x0c,0x40,0x76,0x6f,0x6c,0x75,0x6d,0x65,0x69,0x55))
   ChangeVariable(15,15,0,2,1,4)
   If(1,15,0,1,0)
    ChangeInventoryWeapon(118,0,0,1,false)
    ChangeInventoryArmor(3559,0,0,1,false)
    0()
   EndIf()
   If(1,15,0,2,0)
    ChangeInventoryWeapon(172,0,0,1,false)
    ChangeInventoryArmor(2708,0,0,1,false)
    0()
   EndIf()
   If(1,15,0,3,0)
    ChangeInventoryWeapon(329,0,0,1,false)
    ChangeInventoryWeapon(1359,0,0,1,false)
    0()
   EndIf()
   If(1,15,0,4,0)
    ChangeInventoryWeapon(721,0,0,1,false)
    ChangeInventoryWeapon(1209,0,0,1,false)
    0()
   EndIf()
   ChangeInventory_Item(26,0,0,1)
   ChangeInventory_Item(27,0,0,1)
   ChangeSwitch(66,66,1)
   ChangeVariable(131,131,0,0,0)
   0()
  EndIf()
  If(0,67,0)
   ShowMessageFace("",0,0,2,2)
   ShowMessage("You reached floor \\V[131] like Black Alice requested!")
   ShowMessage("You were given some items as reward!")
   250(bytes(0x04,0x08,0x6f,0x3a,0x0c,0x52,0x50,0x47,0x3a,0x3a,0x53,0x45,0x08,0x3a,0x0a,0x40,0x6e,0x61,0x6d,0x65,0x49,0x22,0x0a,0x49,0x74,0x65,0x6d,0x31,0x06,0x3a,0x06,0x45,0x54,0x3a,0x0b,0x40,0x70,0x69,0x74,0x63,0x68,0x69,0x69,0x3a,0x0c,0x40,0x76,0x6f,0x6c,0x75,0x6d,0x65,0x69,0x55))
   ChangeVariable(15,15,0,2,1,3)
   If(1,15,0,1,0)
    ChangeInventoryWeapon(886,0,0,1,false)
    ChangeInventoryArmor(2859,0,0,1,false)
    0()
   EndIf()
   If(1,15,0,2,0)
    ChangeInventoryWeapon(583,0,0,1,false)
    ChangeInventoryArmor(2860,0,0,1,false)
    0()
   EndIf()
   If(1,15,0,3,0)
    ChangeInventoryWeapon(616,0,0,1,false)
    ChangeInventoryWeapon(2458,0,0,1,false)
    0()
   EndIf()
   ChangeInventory_Item(28,0,0,1)
   ChangeInventory_Item(29,0,0,1)
   ChangeSwitch(67,67,1)
   ChangeVariable(131,131,0,0,0)
   0()
  EndIf()
  If(0,68,0)
   ShowMessageFace("",0,0,2,3)
   ShowMessage("You reached floor \\V[131] like Black Alice requested!")
   ShowMessage("You were given some items as reward!")
   250(bytes(0x04,0x08,0x6f,0x3a,0x0c,0x52,0x50,0x47,0x3a,0x3a,0x53,0x45,0x08,0x3a,0x0a,0x40,0x6e,0x61,0x6d,0x65,0x49,0x22,0x0a,0x49,0x74,0x65,0x6d,0x31,0x06,0x3a,0x06,0x45,0x54,0x3a,0x0b,0x40,0x70,0x69,0x74,0x63,0x68,0x69,0x69,0x3a,0x0c,0x40,0x76,0x6f,0x6c,0x75,0x6d,0x65,0x69,0x55))
   ChangeVariable(15,15,0,2,1,3)
   If(1,15,0,1,0)
    ChangeInventoryArmor(98,0,0,1,false)
    ChangeInventoryWeapon(3158,0,0,1,false)
    0()
   EndIf()
   If(1,15,0,2,0)
    ChangeInventoryArmor(227,0,0,1,false)
    ChangeInventoryWeapon(3260,0,0,1,false)
    0()
   EndIf()
   If(1,15,0,3,0)
    ChangeInventoryArmor(322,0,0,1,false)
    ChangeInventoryWeapon(3358,0,0,1,false)
    0()
   EndIf()
   ChangeInventory_Item(30,0,0,1)
   ChangeInventory_Item(31,0,0,1)
   ChangeSwitch(68,68,1)
   ChangeVariable(131,131,0,0,0)
   0()
  EndIf()
  0()
 EndIf()
 0()
EndIf()
If(1,121,0,1,1)
 ChangeVariable(127,127,0,1,121)
 ChangeVariable(127,127,5,0,100)
 If(1,127,0,0,0)
  250(bytes(0x04,0x08,0x6f,0x3a,0x0c,0x52,0x50,0x47,0x3a,0x3a,0x53,0x45,0x08,0x3a,0x0a,0x40,0x6e,0x61,0x6d,0x65,0x49,0x22,0x09,0x4d,0x6f,0x76,0x65,0x06,0x3a,0x06,0x45,0x54,0x3a,0x0b,0x40,0x70,0x69,0x74,0x63,0x68,0x69,0x69,0x3a,0x0c,0x40,0x76,0x6f,0x6c,0x75,0x6d,0x65,0x69,0x55))
  TeleportPlayer(0,665,18,29,8,0)
  ChangeSwitch(61,61,1)
  ChangeSwitch(62,62,1)
  ChangeSwitch(63,63,1)
  ChangeSwitch(64,64,1)
  ChangeSwitch(65,65,1)
  ChangeSwitch(69,69,1)
  ChangeSwitch(70,70,1)
  ChangeSwitch(71,71,1)
  ChangeSwitch(72,72,1)
  ChangeSwitch(427,441,1)
  222()
  ShowMessageFace("",0,0,2,4)
  ShowMessage("Labyrinth of Chaos: Layer \\V[121]")
  ShowMessage("Rare points：\\V[150]")
  RunCommonEvent(929)
  ChangeSwitch(73,73,1)
  EndEventProcessing()
  0()
 EndIf()
 ChangeVariable(127,127,0,1,121)
 ChangeVariable(127,127,5,0,10)
 If(1,127,0,0,0)
  250(bytes(0x04,0x08,0x6f,0x3a,0x0c,0x52,0x50,0x47,0x3a,0x3a,0x53,0x45,0x08,0x3a,0x0a,0x40,0x6e,0x61,0x6d,0x65,0x49,0x22,0x09,0x4d,0x6f,0x76,0x65,0x06,0x3a,0x06,0x45,0x54,0x3a,0x0b,0x40,0x70,0x69,0x74,0x63,0x68,0x69,0x69,0x3a,0x0c,0x40,0x76,0x6f,0x6c,0x75,0x6d,0x65,0x69,0x55))
  TeleportPlayer(0,705,13,24,8,0)
  ChangeSwitch(61,61,1)
  ChangeSwitch(62,62,1)
  ChangeSwitch(63,63,1)
  ChangeSwitch(64,64,1)
  ChangeSwitch(65,65,1)
  ChangeSwitch(69,69,1)
  ChangeSwitch(70,70,1)
  ChangeSwitch(71,71,1)
  ChangeSwitch(72,72,1)
  ChangeSwitch(427,441,1)
  222()
  ShowMessageFace("",0,0,2,5)
  ShowMessage("Labyrinth of Chaos: Layer \\V[121]")
  ShowMessage("Rare points：\\V[150]")
  RunCommonEvent(929)
  ChangeSwitch(73,73,1)
  EndEventProcessing()
  0()
 EndIf()
 0()
EndIf()
If(0,48,1)
 If(1,127,0,2,1)
  If(1,127,0,9,2)
   ChangeVariable(11,11,0,2,1,7)
   If(1,11,0,1,0)
    RunCommonEvent(899)
    EndEventProcessing()
    0()
   EndIf()
   0()
  EndIf()
  0()
 EndIf()
 0()
EndIf()
ChangeSwitch(48,48,1)
ChangeSwitch(73,73,0)
If(1,123,0,1,0)
 RunCommonEvent(891)
 ShowMessageFace("",0,0,2,6)
 ShowMessage("Eternal Forest: Layer \\V[121]")
 ShowMessage("Rare points：\\V[150]")
 RunCommonEvent(921)
 ChangeSwitch(73,73,1)
 EndEventProcessing()
 0()
EndIf()
If(1,123,0,2,0)
 RunCommonEvent(892)
 ShowMessageFace("",0,0,2,7)
 ShowMessage("Carnage Hill: Layer \\V[121]")
 ShowMessage("Rare points：\\V[150]")
 RunCommonEvent(922)
 ChangeSwitch(73,73,1)
 EndEventProcessing()
 0()
EndIf()
If(1,123,0,3,0)
 RunCommonEvent(893)
 ShowMessageFace("",0,0,2,8)
 ShowMessage("Sea of Truth: Layer \\V[121]")
 ShowMessage("Rare points：\\V[150]")
 RunCommonEvent(923)
 ChangeSwitch(73,73,1)
 EndEventProcessing()
 0()
EndIf()
If(1,123,0,4,0)
 RunCommonEvent(894)
 ShowMessageFace("",0,0,2,9)
 ShowMessage("Oblivion Desert: Layer\\V[121]")
 ShowMessage("Rare points：\\V[150]")
 RunCommonEvent(924)
 ChangeSwitch(73,73,1)
 EndEventProcessing()
 0()
EndIf()
If(1,123,0,5,0)
 RunCommonEvent(895)
 ShowMessageFace("",0,0,2,10)
 ShowMessage("Recursion Caverns: Layer \\V[121]")
 ShowMessage("Rare points：\\V[150]")
 RunCommonEvent(925)
 ChangeSwitch(73,73,1)
 EndEventProcessing()
 0()
EndIf()
If(1,123,0,6,0)
 RunCommonEvent(896)
 ShowMessageFace("",0,0,2,11)
 ShowMessage("Phase Tower: Layer \\V[121]")
 ShowMessage("Rare points：\\V[150]")
 RunCommonEvent(928)
 ChangeSwitch(73,73,1)
 EndEventProcessing()
 0()
EndIf()
If(1,123,0,7,0)
 RunCommonEvent(897)
 ShowMessageFace("",0,0,2,12)
 ShowMessage("Town of Demise: Layer \\V[121]")
 ShowMessage("Rare points：\\V[150]")
 RunCommonEvent(926)
 ChangeSwitch(73,73,1)
 EndEventProcessing()
 0()
EndIf()
If(1,123,0,8,0)
 RunCommonEvent(898)
 ShowMessageFace("",0,0,2,13)
 ShowMessage("Infinite Chaos: Layer \\V[121]")
 ShowMessage("Rare points：\\V[150]")
 RunCommonEvent(927)
 ChangeSwitch(73,73,1)
 EndEventProcessing()
 0()
EndIf()
If(1,123,0,9,0)
 ChangeVariable(11,11,0,2,1,8)
 If(1,11,0,1,0)
  RunCommonEvent(891)
  ShowMessageFace("",0,0,2,14)
  ShowMessage("Labyrinth of Chaos: Layer \\V[121]")
  ShowMessage("Rare points：\\V[150]")
  RunCommonEvent(921)
  ChangeSwitch(73,73,1)
  EndEventProcessing()
  0()
 EndIf()
 If(1,11,0,2,0)
  RunCommonEvent(892)
  ShowMessageFace("",0,0,2,15)
  ShowMessage("Labyrinth of Chaos: Layer \\V[121]")
  ShowMessage("Rare points：\\V[150]")
  RunCommonEvent(922)
  ChangeSwitch(73,73,1)
  EndEventProcessing()
  0()
 EndIf()
 If(1,11,0,3,0)
  RunCommonEvent(893)
  ShowMessageFace("",0,0,2,16)
  ShowMessage("Labyrinth of Chaos: Layer \\V[121]")
  ShowMessage("Rare points：\\V[150]")
  RunCommonEvent(923)
  ChangeSwitch(73,73,1)
  EndEventProcessing()
  0()
 EndIf()
 If(1,11,0,4,0)
  RunCommonEvent(894)
  ShowMessageFace("",0,0,2,17)
  ShowMessage("Labyrinth of Chaos: Layer \\V[121]")
  ShowMessage("Rare points：\\V[150]")
  RunCommonEvent(924)
  ChangeSwitch(73,73,1)
  EndEventProcessing()
  0()
 EndIf()
 If(1,11,0,5,0)
  RunCommonEvent(895)
  ShowMessageFace("",0,0,2,18)
  ShowMessage("Labyrinth of Chaos: Layer \\V[121]")
  ShowMessage("Rare points：\\V[150]")
  RunCommonEvent(925)
  ChangeSwitch(73,73,1)
  EndEventProcessing()
  0()
 EndIf()
 If(1,11,0,6,0)
  RunCommonEvent(896)
  ShowMessageFace("",0,0,2,19)
  ShowMessage("Labyrinth of Chaos: Layer\\V[121]")
  ShowMessage("Rare points：\\V[150]")
  RunCommonEvent(928)
  ChangeSwitch(73,73,1)
  EndEventProcessing()
  0()
 EndIf()
 If(1,11,0,7,0)
  RunCommonEvent(897)
  ShowMessageFace("",0,0,2,20)
  ShowMessage("Labyrinth of Chaos: Layer \\V[121]")
  ShowMessage("Rare points：\\V[150]")
  RunCommonEvent(926)
  ChangeSwitch(73,73,1)
  EndEventProcessing()
  0()
 EndIf()
 If(1,11,0,8,0)
  RunCommonEvent(898)
  ShowMessageFace("",0,0,2,21)
  ShowMessage("Labyrinth of Chaos: Layer \\V[121]")
  ShowMessage("Rare points：\\V[150]")
  RunCommonEvent(927)
  ChangeSwitch(73,73,1)
  EndEventProcessing()
  0()
 EndIf()
 0()
EndIf()
0()
