// EVENT 5225
Name "Maidcubus 5"

PictureDisplay(5,"80_maycubbus_st02",0,0,0,0,100,100,0,0)
PictureMove(5,null,0,0,0,0,100,100,255,0,30,true)
ShowMessageFace("maycubbus_fc1",1,0,2,1)
ShowMessage("\\n<Mei>")
ShowMessage("You're asking me to give you some pleasure service...?")
ShowMessage("Good grief, you really need to be taught discipline...")
ShowMessageFace("",0,0,2,2)
ShowMessage("\\n<Luka>")
ShowMessage("P-please...")
ShowMessageFace("maycubbus_fc1",1,0,2,3)
ShowMessage("\\n<Mei>")
ShowMessage("...I understand.")
ShowMessage("If you wish to taste pleasure so much, I'll give you the highest of pleasures.")
ShowMessageFace("maycubbus_fc1",1,0,2,4)
ShowMessage("\\n<Mei>")
ShowMessage("Well, do you wish to ride me?")
ShowMessage("Or do you want me to ride you...?")
ShowChoices(strings("I want to be ridden","I want to ride on top"),0)
IfPlayerPicksChoice(0,null)
 ShowMessageFace("",0,0,2,5)
 ShowMessage("\\n<Luka>")
 ShowMessage("I want to be ridden...")
 ShowMessageFace("maycubbus_fc1",1,0,2,6)
 ShowMessage("\\n<Mei>")
 ShowMessage("You wish to be raped by a woman?")
 ShowMessage("Good grief, how shameful...")
 ShowMessageFace("",0,0,2,7)
 ShowMessage("Showing no emotion, Mei pushes me down.")
 ShowMessage("As soon as I'm on the floor, she wastes no time and mounts me.")
 ShowMessageFace("maycubbus_fc1",1,0,2,8)
 ShowMessage("\\n<Mei>")
 ShowMessage("Well then, I'll do as you wish...")
 ShowMessageFace("",0,0,2,9)
 ShowMessage("Like that, Mei grabs my erect penis...")
 ShowMessage("And, she guides it to her secret place...")
 ShowMessageFace("",0,0,2,10)
 ShowMessage("\\n<Luka>")
 ShowMessage("Ah, aaau...!")
 241(bytes(0x04,0x08,0x6f,0x3a,0x0d,0x52,0x50,0x47,0x3a,0x3a,0x42,0x47,0x4d,0x08,0x3a,0x0a,0x40,0x6e,0x61,0x6d,0x65,0x49,0x22,0x09,0x65,0x72,0x6f,0x31,0x06,0x3a,0x06,0x45,0x54,0x3a,0x0c,0x40,0x76,0x6f,0x6c,0x75,0x6d,0x65,0x69,0x69,0x3a,0x0b,0x40,0x70,0x69,0x74,0x63,0x68,0x69,0x69))
 245(bytes(0x04,0x08,0x6f,0x3a,0x0d,0x52,0x50,0x47,0x3a,0x3a,0x42,0x47,0x53,0x08,0x3a,0x0a,0x40,0x6e,0x61,0x6d,0x65,0x49,0x22,0x1e,0x6d,0x6f,0x6e,0x5f,0x68,0x73,0x65,0x61,0x6e,0x30,0x32,0x5f,0x69,0x6e,0x6e,0x65,0x72,0x77,0x6f,0x72,0x6b,0x73,0x5f,0x61,0x32,0x06,0x3a,0x06,0x45,0x54,0x3a,0x0c,0x40,0x76,0x6f,0x6c,0x75,0x6d,0x65,0x69,0x55,0x3a,0x0b,0x40,0x70,0x69,0x74,0x63,0x68,0x69,0x69))
 PictureDisplay(5,"ev_maycubbus_he1",0,0,0,0,100,100,255,0)
 ShowMessageFace("",0,0,2,11)
 ShowMessage("And my manhood slips inside her soft vagina!")
 ShowMessageFace("",0,0,2,12)
 ShowMessage("\\n<Luka>")
 ShowMessage("Wah... Aaaaau!!")
 ShowMessageFace("",0,0,2,13)
 ShowMessage("I moan involuntarily as Mei starts raping me.")
 ShowMessage("My penis, wrapped in her soft meat, is subjected to incredible pleasure...")
 ShowMessageFace("",0,0,2,14)
 ShowMessage("\\n<Luka>")
 ShowMessage("Amazing... It feels so good...")
 ShowMessageFace("maycubbus_fc1",1,0,2,15)
 ShowMessage("\\n<Mei>")
 ShowMessage("Does it feel good to be raped?")
 ShowMessage("Does it feel good to be punished while having your penis inside a succubus' vagina?")
 ShowMessageFace("maycubbus_fc1",1,0,2,16)
 ShowMessage("\\n<Mei>")
 ShowMessage("If that's so...")
 ShowMessage("You don't even realize, do you?")
 ShowMessageFace("",0,0,2,17)
 ShowMessage("\\n<Luka>")
 ShowMessage("N-no way...")
 ShowMessageFace("",0,0,2,18)
 ShowMessage("Thoughtlessly having sex with a succubus...")
 ShowMessage("The thought, all of a sudden fills me with fear.")
 ShowMessageFace("maycubbus_fc1",1,0,2,19)
 ShowMessage("\\n<Mei>")
 ShowMessage("Well then, I'll wring you.")
 ShowMessage("Repent your choice as I squeeze you dry...")
 ShowMessageFace("",0,0,2,20)
 ShowMessage("\\n<Luka>")
 ShowMessage("S-stop... Aaaaah...!!")
 ShowMessageFace("",0,0,2,21)
 ShowMessage("The walls of her vagina narrow down, tightly squeezing my penis.")
 ShowMessage("They keep contracting, crushing my glans.")
 ShowMessageFace("",0,0,2,22)
 ShowMessage("This is a succubus' signature move, Energy Drain.")
 ShowMessage("Through sex, they suck out a man's energy...")
 ShowMessageFace("",0,0,2,23)
 ShowMessage("\\n<Luka>")
 ShowMessage("Auuu... Don't suck me dry...!")
 ShowMessageFace("",0,0,2,24)
 ShowMessage("I try my best to endure the pleasure.")
 ShowMessage("However, the pleasure that assaults my penis is unbearable.")
 ShowMessageFace("",0,0,2,25)
 ShowMessage("Having my meat rod squeezed and sucked gets me drunk with pleasure.")
 ShowMessage("As I bask in the melting feeling, my waist shoots up...")
 ShowMessageFace("",0,0,2,26)
 ShowMessage("\\n<Luka>")
 ShowMessage("D-don't... Aaaaah...!!")
 RunCommonEvent(104)
 PictureDisplay(5,"ev_maycubbus_he2",0,0,0,0,100,100,255,0)
 RunCommonEvent(105)
 ShowMessageFace("",0,0,2,27)
 ShowMessage("Just like that, I come and a steady stream of my semen shoots out inside her vagina.")
 ShowMessage("Every time my penis pulses, more and more energy is sucked out of me.")
 ShowMessageFace("",0,0,2,28)
 ShowMessage("\\n<Luka>")
 ShowMessage("Auuu...")
 ShowMessageFace("",0,0,2,29)
 ShowMessage("My energy is drained quickly from my body...")
 ShowMessage("A sweet ecstasy replaces it and spreads throughout my entire body.")
 ShowMessageFace("maycubbus_fc1",1,0,2,30)
 ShowMessage("\\n<Mei>")
 ShowMessage("I squeezed out the first shot.")
 ShowMessage("But, you can still come more, right...?")
 ShowMessageFace("",0,0,2,31)
 ShowMessage("\\n<Luka>")
 ShowMessage("Don't, stop... Aaau!!")
 ShowMessageFace("",0,0,2,32)
 ShowMessage("Mei wriggles her waist and continues absorbing my energy.")
 ShowMessage("My penis is wrapped in the soft meat and my glans is sucked on.")
 ShowMessageFace("",0,0,2,33)
 ShowMessage("At the same time, her velvety walls start wriggling and rubbing my member.")
 ShowMessage("I taste the finest of pleasures, as if being melted inside the vagina...")
 ShowMessageFace("",0,0,2,34)
 ShowMessage("\\n<Luka>")
 ShowMessage("Stop, stop...! Fuaaa...")
 ShowMessageFace("",0,0,2,35)
 ShowMessage("The pleasure that steals away a man's essence keeps assaulting me.")
 ShowMessage("If I give myself over to this pleasure, I'll be squeezed dry and killed at the end of it...")
 ShowMessageFace("maycubbus_fc1",1,0,2,36)
 ShowMessage("\\n<Mei>")
 ShowMessage("It's useless to resist...")
 ShowMessage("Come now, shoot out your energy inside my vagina.")
 ShowMessageFace("",0,0,2,37)
 ShowMessage("\\n<Luka>")
 ShowMessage("I d-don't want... Ah, auuuu...")
 ShowMessageFace("",0,0,2,38)
 ShowMessage("However, no matter how much I try to endure, it amounts to nothing.")
 ShowMessage("This is a pleasure designed to take away a man's energy regardless of his will.")
 ShowMessageFace("",0,0,2,39)
 ShowMessage("It feels as if my penis is melted down and sucked up by her vagina.")
 ShowMessage("As I'm bathed in ecstasy, my spirit is slowly drained away...")
 ShowMessageFace("",0,0,2,40)
 ShowMessage("\\n<Luka>")
 ShowMessage("Au... Auuuu...")
 ShowMessageFace("",0,0,2,41)
 ShowMessage("My waist starts shamefully trembling from the melting pleasure.")
 ShowMessage("As I taste this sweet feeling of ascension, I give myself over to the sweet feeling of release...")
 ShowMessageFace("",0,0,2,42)
 ShowMessage("\\n<Luka>")
 ShowMessage("C-coming... Fuaaaaaa...")
 RunCommonEvent(104)
 PictureDisplay(5,"ev_maycubbus_he3",0,0,0,0,100,100,255,0)
 RunCommonEvent(105)
 ShowMessageFace("",0,0,2,43)
 ShowMessage("And, a lot of my semen shoots out inside Mei's vagina.")
 ShowMessage("A large amount rushes inside her as I taste the sweet pleasure...")
 ShowMessageFace("",0,0,2,44)
 ShowMessage("Just as much power as semen is taken away from me.")
 ShowMessage("If I keep coming like this, my life really will end...")
 ShowMessageFace("",0,0,2,45)
 ShowMessage("\\n<Luka>")
 ShowMessage("S-stop... Help me...")
 ShowMessageFace("maycubbus_fc1",1,0,2,46)
 ShowMessage("\\n<Mei>")
 ShowMessage("What are you saying?")
 ShowMessage("You wanted this...")
 ShowMessageFace("",0,0,2,47)
 ShowMessage("\\n<Luka>")
 ShowMessage("I'm s-sorry... Auuuu...")
 ShowMessageFace("maycubbus_fc1",1,0,2,48)
 ShowMessage("\\n<Mei>")
 ShowMessage("You're finally repenting.")
 ShowMessage("But I'm going to continue until I'm satisfied...")
 ShowMessageFace("",0,0,2,49)
 ShowMessage("\\n<Luka>")
 ShowMessage("Th-that's... Aaaah...")
 ShowMessageFace("",0,0,2,50)
 ShowMessage("The inside of Mei's slick vagina starts wriggling...")
 ShowMessage("It sucks my energy and all I can do is taste the sweet pleasure...")
 ShowMessageFace("",0,0,2,51)
 ShowMessage("\\n<Luka>")
 ShowMessage("I'm coming again... Fuaaaa...")
 RunCommonEvent(104)
 PictureDisplay(5,"ev_maycubbus_he4",0,0,0,0,100,100,255,0)
 RunCommonEvent(105)
 ShowMessageFace("",0,0,2,52)
 ShowMessage("Like that, she drains more from me.")
 ShowMessage("My body starts spasming from the excessive pleasure...")
 ShowMessageFace("maycubbus_fc1",1,0,2,53)
 ShowMessage("\\n<Mei>")
 ShowMessage("I'm still not satisfied... Shoot out more.")
 ShowMessageFace("",0,0,2,54)
 ShowMessage("\\n<Luka>")
 ShowMessage("D-don't... Aaaaah...")
 RunCommonEvent(104)
 RunCommonEvent(105)
 ShowMessageFace("",0,0,2,55)
 ShowMessage("Despite pleading for her to stop, Mei's greedy vagina keeps sucking on me.")
 ShowMessage("Every time I come, more of my energy is drained...")
 ShowMessageFace("",0,0,2,56)
 ShowMessage("\\n<Luka>")
 ShowMessage("Auuu...")
 ShowMessageFace("maycubbus_fc1",1,0,2,57)
 ShowMessage("\\n<Mei>")
 ShowMessage("I won't allow you to rest.")
 ShowMessage("Hora, come again...")
 ShowMessageFace("",0,0,2,58)
 ShowMessage("\\n<Luka>")
 ShowMessage("Ah, aaaaah...")
 RunCommonEvent(104)
 RunCommonEvent(105)
 ShowMessageFace("",0,0,2,59)
 ShowMessage("My penis keeps pulsing and flooding Mei's vagina with semen.")
 ShowMessage("I can't even move a finger anymore, I just drown in the heavenly pleasure...")
 ShowMessageFace("maycubbus_fc1",1,0,2,60)
 ShowMessage("\\n<Mei>")
 ShowMessage("Dear oh dear, already on the verge of death.")
 ShowMessage("Are you satisfied with having your semen sucked like this...?")
 ShowMessageFace("",0,0,2,61)
 ShowMessage("\\n<Luka>")
 ShowMessage("Au... Aaah...")
 RunCommonEvent(104)
 RunCommonEvent(105)
 ShowMessageFace("",0,0,2,62)
 ShowMessage("Like that, I'm squeezed over and over many times...")
 ShowMessage("As Mei rides me, I feel like I'm one step away from death.")
 ShowMessageFace("",0,0,2,63)
 ShowMessage("\\n<Luka>")
 ShowMessage("ah... aah...")
 ShowMessageFace("maycubbus_fc1",1,0,2,64)
 ShowMessage("\\n<Mei>")
 ShowMessage("...Any more and you will really die.")
 ShowMessage("My belly is full, so let's end it here.")
 ShowMessageFace("",0,0,2,65)
 ShowMessage("Finally, Mei stops moving her hips and sucking out my energy.")
 ShowMessage("My life is spared, although quite at its limits.")
 ShowMessageFace("",0,0,2,66)
 ShowMessage("She left me with just enough energy to keep me alive...")
 ShowMessageFace("maycubbus_fc1",1,0,2,67)
 ShowMessage("\\n<Mei>")
 ShowMessage("Fufu, thank you for your hard work.")
 ShowMessage("Thank you, Master, for letting me fully enjoy sucking out your energy.")
 ShowMessageFace("",0,0,2,68)
 ShowMessage("\\n<Luka>")
 ShowMessage("........")
 ShowMessageFace("",0,0,2,69)
 ShowMessage("Looking up at Mei, I see an unusual cheerfulness...")
 ShowMessage("After that, my consciousness fades.")
 0()
IfPlayerPicksChoice(1,null)
 ShowMessageFace("",0,0,2,70)
 ShowMessage("\\n<Luka>")
 ShowMessage("O-on top...")
 ShowMessageFace("maycubbus_fc1",1,0,2,71)
 ShowMessage("\\n<Mei>")
 ShowMessage("You wish to rape me?")
 ShowMessage("It seems you don't know your place...")
 ShowMessageFace("",0,0,2,72)
 ShowMessage("Mei undresses and lays on her back.")
 ShowMessage("She holds out her hands as if inviting me...")
 ShowMessageFace("maycubbus_fc1",1,0,2,73)
 ShowMessage("\\n<Mei>")
 ShowMessage("Well then, come inside.")
 ShowMessage("Use my body to feel good to your heart's content...")
 ShowMessageFace("",0,0,2,74)
 ShowMessage("\\n<Luka>")
 ShowMessage("Auu...")
 ShowMessageFace("",0,0,2,75)
 ShowMessage("Aroused, I approach Mei...")
 ShowMessage("I push my enlarged meat rod against her sweet honeypot...")
 241(bytes(0x04,0x08,0x6f,0x3a,0x0d,0x52,0x50,0x47,0x3a,0x3a,0x42,0x47,0x4d,0x08,0x3a,0x0a,0x40,0x6e,0x61,0x6d,0x65,0x49,0x22,0x09,0x65,0x72,0x6f,0x31,0x06,0x3a,0x06,0x45,0x54,0x3a,0x0c,0x40,0x76,0x6f,0x6c,0x75,0x6d,0x65,0x69,0x69,0x3a,0x0b,0x40,0x70,0x69,0x74,0x63,0x68,0x69,0x69))
 245(bytes(0x04,0x08,0x6f,0x3a,0x0d,0x52,0x50,0x47,0x3a,0x3a,0x42,0x47,0x53,0x08,0x3a,0x0a,0x40,0x6e,0x61,0x6d,0x65,0x49,0x22,0x1e,0x6d,0x6f,0x6e,0x5f,0x68,0x73,0x65,0x61,0x6e,0x30,0x32,0x5f,0x69,0x6e,0x6e,0x65,0x72,0x77,0x6f,0x72,0x6b,0x73,0x5f,0x61,0x32,0x06,0x3a,0x06,0x45,0x54,0x3a,0x0c,0x40,0x76,0x6f,0x6c,0x75,0x6d,0x65,0x69,0x55,0x3a,0x0b,0x40,0x70,0x69,0x74,0x63,0x68,0x69,0x69))
 PictureDisplay(5,"ev_maycubbus_hf1",0,0,0,0,100,100,255,0)
 ShowMessageFace("",0,0,2,76)
 ShowMessage("I eagerly push forward and go all the way in!")
 ShowMessage("My thing invades her soft hot vagina...")
 ShowMessageFace("",0,0,2,77)
 ShowMessage("\\n<Luka>")
 ShowMessage("Wah... Aaaaau!!")
 ShowMessageFace("",0,0,2,78)
 ShowMessage("As soon as I'm inside, a moan escapes my mouth.")
 ShowMessage("The pleasure my penis feels, wrapped in her soft meat, is unbelievable...")
 ShowMessageFace("",0,0,2,79)
 ShowMessage("\\n<Luka>")
 ShowMessage("Amazing... It feels so good...")
 ShowMessageFace("maycubbus_fc1",1,0,2,80)
 ShowMessage("\\n<Mei>")
 ShowMessage("Does it feel good inside me?")
 ShowMessage("Does it feel good to be punished while having your penis inside a succubus' vagina?")
 ShowMessageFace("maycubbus_fc1",1,0,2,81)
 ShowMessage("\\n<Mei>")
 ShowMessage("If that's so...")
 ShowMessage("You don't even realize, do you?")
 ShowMessageFace("",0,0,2,82)
 ShowMessage("\\n<Luka>")
 ShowMessage("N-no way...")
 ShowMessageFace("",0,0,2,83)
 ShowMessage("Thoughtlessly having sex with a succubus...")
 ShowMessage("The thought, all of a sudden fills me with fear.")
 ShowMessageFace("maycubbus_fc1",1,0,2,84)
 ShowMessage("\\n<Mei>")
 ShowMessage("Well then, I'll wring you.")
 ShowMessage("Repent your choice as I squeeze you dry...")
 ShowMessageFace("",0,0,2,85)
 ShowMessage("\\n<Luka>")
 ShowMessage("S-stop... Aaaaah...!!")
 ShowMessageFace("",0,0,2,86)
 ShowMessage("The walls of her vagina narrow down, tightly squeezing my penis.")
 ShowMessage("They keep contracting, crushing my glans.")
 ShowMessageFace("",0,0,2,87)
 ShowMessage("This is a succubus' signature move, Energy Drain.")
 ShowMessage("Through sex, they suck out a man's energy...")
 ShowMessageFace("",0,0,2,88)
 ShowMessage("\\n<Luka>")
 ShowMessage("Auuu... Don't suck me dry...!")
 ShowMessageFace("",0,0,2,89)
 ShowMessage("I try my best to endure the pleasure.")
 ShowMessage("However, the pleasure that assaults my penis is unbearable.")
 ShowMessageFace("",0,0,2,90)
 ShowMessage("Having my meat rod squeezed and sucked gets me drunk with pleasure.")
 ShowMessage("As I soak in the melting feeling, my whole body shudders...")
 ShowMessageFace("",0,0,2,91)
 ShowMessage("\\n<Luka>")
 ShowMessage("D-don't... Aaaaah...!!")
 RunCommonEvent(104)
 PictureDisplay(5,"ev_maycubbus_hf2",0,0,0,0,100,100,255,0)
 RunCommonEvent(105)
 ShowMessageFace("",0,0,2,92)
 ShowMessage("Just like that, I come and a steady stream of my semen shoots out inside her vagina.")
 ShowMessage("Every time my penis pulses, more and more energy is sucked out of me.")
 ShowMessageFace("",0,0,2,93)
 ShowMessage("\\n<Luka>")
 ShowMessage("Auuu...")
 ShowMessageFace("",0,0,2,94)
 ShowMessage("My energy is drained quickly from my body...")
 ShowMessage("A sweet ecstasy replaces it and spreads throughout my entire body.")
 ShowMessageFace("maycubbus_fc1",1,0,2,95)
 ShowMessage("\\n<Mei>")
 ShowMessage("I squeezed out the first shot.")
 ShowMessage("But, you can still come more, right...?")
 ShowMessageFace("",0,0,2,96)
 ShowMessage("\\n<Luka>")
 ShowMessage("Don't, stop... Aaau!!")
 ShowMessageFace("",0,0,2,97)
 ShowMessage("I try to pull my hips back but it's already too late.")
 ShowMessage("Mei's meat pot sucks my penis tightly inside and doesn't let go...")
 ShowMessageFace("",0,0,2,98)
 ShowMessage("On top of that, I can't move my hips because she's draining my energy.")
 ShowMessage("I can't pull it out, all I manage to do is rock my hips back and forth...")
 ShowMessageFace("",0,0,2,99)
 ShowMessage("\\n<Luka>")
 ShowMessage("Auu... Let me go, let me go...")
 ShowMessageFace("maycubbus_fc1",1,0,2,100)
 ShowMessage("\\n<Mei>")
 ShowMessage("I cannot let you out anymore.")
 ShowMessage("Did you seriously think you could rape a succubus just because you're on top?")
 ShowMessageFace("",0,0,2,101)
 ShowMessage("Mei gives me a cold glare as she continues to absorb my energy.")
 ShowMessage("My penis is wrapped in the soft meat and my glans is sucked on.")
 ShowMessageFace("",0,0,2,102)
 ShowMessage("At the same time, her velvety walls start wriggling and rubbing my member.")
 ShowMessage("I taste the finest of pleasures, as if being melted inside her vagina...")
 ShowMessageFace("",0,0,2,103)
 ShowMessage("\\n<Luka>")
 ShowMessage("Stop, stop...! Fuaaa...")
 ShowMessageFace("",0,0,2,104)
 ShowMessage("The pleasure that steals away a man's essence keeps assaulting me.")
 ShowMessage("If I give myself over to this pleasure, I'll be squeezed dry and killed at the end of it...")
 ShowMessageFace("maycubbus_fc1",1,0,2,105)
 ShowMessage("\\n<Mei>")
 ShowMessage("It's useless to resist...")
 ShowMessage("Now please release your semen in my vagina, just like this.")
 ShowMessageFace("",0,0,2,106)
 ShowMessage("\\n<Luka>")
 ShowMessage("I d-don't want... Ah, auuuu...")
 ShowMessageFace("",0,0,2,107)
 ShowMessage("However, no matter how much I try to endure, it amounts to nothing.")
 ShowMessage("This is a pleasure designed to take away a man's energy regardless of his will.")
 ShowMessageFace("",0,0,2,108)
 ShowMessage("It feels as if my penis is melted down and sucked up by her vagina.")
 ShowMessage("My energy is slowly absorbed as my body is flooded with ecstasy...")
 ShowMessageFace("",0,0,2,109)
 ShowMessage("\\n<Luka>")
 ShowMessage("Au... Auuuu...")
 ShowMessageFace("",0,0,2,110)
 ShowMessage("My waist starts shamefully trembling from the melting pleasure.")
 ShowMessage("As I taste this sweet feeling of ascension, I give myself over to the sweet feeling of release...")
 ShowMessageFace("",0,0,2,111)
 ShowMessage("\\n<Luka>")
 ShowMessage("C-coming... Fuaaaaaa...")
 RunCommonEvent(104)
 PictureDisplay(5,"ev_maycubbus_hf3",0,0,0,0,100,100,255,0)
 RunCommonEvent(105)
 ShowMessageFace("",0,0,2,112)
 ShowMessage("And, a lot of my semen shoots out inside Mei's vagina.")
 ShowMessage("A large amount rushes inside her as I taste the sweet pleasure...")
 ShowMessageFace("",0,0,2,113)
 ShowMessage("Just as much power as semen is taken away from me.")
 ShowMessage("If I keep coming like this, my life really will end...")
 ShowMessageFace("",0,0,2,114)
 ShowMessage("\\n<Luka>")
 ShowMessage("S-stop... Help me...")
 ShowMessageFace("maycubbus_fc1",1,0,2,115)
 ShowMessage("\\n<Mei>")
 ShowMessage("What are you saying?")
 ShowMessage("You wanted this...")
 ShowMessageFace("",0,0,2,116)
 ShowMessage("\\n<Luka>")
 ShowMessage("I'm s-sorry... Auuuu...")
 ShowMessageFace("maycubbus_fc1",1,0,2,117)
 ShowMessage("\\n<Mei>")
 ShowMessage("You're finally repenting.")
 ShowMessage("But I'm going to continue until I'm satisfied...")
 ShowMessageFace("",0,0,2,118)
 ShowMessage("\\n<Luka>")
 ShowMessage("Th-that's... Aaaah...")
 ShowMessageFace("",0,0,2,119)
 ShowMessage("The inside of Mei's slick vagina starts wriggling...")
 ShowMessage("It sucks my energy and all I can do is taste the sweet pleasure...")
 ShowMessageFace("",0,0,2,120)
 ShowMessage("\\n<Luka>")
 ShowMessage("I'm coming again... Fuaaaa...")
 RunCommonEvent(104)
 PictureDisplay(5,"ev_maycubbus_hf4",0,0,0,0,100,100,255,0)
 RunCommonEvent(105)
 ShowMessageFace("",0,0,2,121)
 ShowMessage("Like that, she drains more from me.")
 ShowMessage("My body weakens from the overwhelming pleasure as I ride Mei...")
 ShowMessageFace("maycubbus_fc1",1,0,2,122)
 ShowMessage("\\n<Mei>")
 ShowMessage("I'm still not satisfied... Shoot out more.")
 ShowMessageFace("",0,0,2,123)
 ShowMessage("\\n<Luka>")
 ShowMessage("D-don't... Aaaaah...")
 RunCommonEvent(104)
 RunCommonEvent(105)
 ShowMessageFace("",0,0,2,124)
 ShowMessage("Despite pleading for her to stop, Mei's greedy vagina keeps sucking on me.")
 ShowMessage("Every time I come, more of my energy is drained...")
 ShowMessageFace("",0,0,2,125)
 ShowMessage("\\n<Luka>")
 ShowMessage("Auuu...")
 ShowMessageFace("maycubbus_fc1",1,0,2,126)
 ShowMessage("\\n<Mei>")
 ShowMessage("I won't allow you to rest.")
 ShowMessage("Hora, come again...")
 ShowMessageFace("",0,0,2,127)
 ShowMessage("\\n<Luka>")
 ShowMessage("Ah, aaaaah...")
 RunCommonEvent(104)
 RunCommonEvent(105)
 ShowMessageFace("",0,0,2,128)
 ShowMessage("My penis keeps pulsing and flooding Mei's vagina with semen.")
 ShowMessage("I can't even move a finger anymore, I'm just drowning in this blissful pleasure...")
 ShowMessageFace("maycubbus_fc1",1,0,2,129)
 ShowMessage("\\n<Mei>")
 ShowMessage("Dear oh dear, already on the verge of death.")
 ShowMessage("Are you satisfied with having your semen sucked like this...?")
 ShowMessageFace("",0,0,2,130)
 ShowMessage("\\n<Luka>")
 ShowMessage("Au... Aaah...")
 RunCommonEvent(104)
 RunCommonEvent(105)
 ShowMessageFace("",0,0,2,131)
 ShowMessage("Like that I'm squeezed over and over many times...")
 ShowMessage("Still on top of Mei, I feel as if I'm one step away from dying.")
 ShowMessageFace("",0,0,2,132)
 ShowMessage("\\n<Luka>")
 ShowMessage("ah... aah...")
 ShowMessageFace("maycubbus_fc1",1,0,2,133)
 ShowMessage("\\n<Mei>")
 ShowMessage("...Any more and you will really die.")
 ShowMessage("My belly is full, so let's end it here.")
 246(2)
 ShowMessageFace("",0,0,2,134)
 ShowMessage("Finally, Mei stops moving her hips and sucking out my energy.")
 ShowMessage("My life is spared although quite at its limits.")
 ShowMessageFace("",0,0,2,135)
 ShowMessage("She left me with just enough energy to keep me alive...")
 ShowMessageFace("maycubbus_fc1",1,0,2,136)
 ShowMessage("\\n<Mei>")
 ShowMessage("Okay, thank you for your hard work.")
 ShowMessage("Thank you, Master, for letting me fully enjoy sucking out your energy.")
 ShowMessageFace("",0,0,2,137)
 ShowMessage("\\n<Luka>")
 ShowMessage("........")
 ShowMessageFace("",0,0,2,138)
 ShowMessage("I completely relax my body on top of Mei...")
 ShowMessage("After that, my consciousness fades.")
 0()
404()
221()
PictureClear(5)
PictureClear(6)
246(2)
ShowMessageFace("",0,0,2,139)
ShowMessage("......")
RunCommonEvent(3998)
0()
