// EVENT 3018
Name "Sheep Girl"

If(0,25,1)
 JumpToLabel("反省会")
 0()
EndIf()
PictureDisplay(5,"80_hituzi_st02",0,0,0,0,100,100,0,0)
PictureMove(5,null,0,0,0,0,100,100,255,0,30,true)
241(bytes(0x04,0x08,0x6f,0x3a,0x0d,0x52,0x50,0x47,0x3a,0x3a,0x42,0x47,0x4d,0x08,0x3a,0x0a,0x40,0x6e,0x61,0x6d,0x65,0x49,0x22,0x09,0x65,0x72,0x6f,0x31,0x06,0x3a,0x06,0x45,0x54,0x3a,0x0c,0x40,0x76,0x6f,0x6c,0x75,0x6d,0x65,0x69,0x69,0x3a,0x0b,0x40,0x70,0x69,0x74,0x63,0x68,0x69,0x69))
ShowMessageFace("",0,0,2,1)
ShowMessage("\\n<Luka>Ungh...")
ShowMessageFace("hituzi_fc1",1,0,2,2)
ShowMessage("\\n<Sheep Girl>Since I beat you up, I get to guzzle your semen now. ♪")
PictureDisplay(5,"ev_hituzi_h01",0,0,0,0,100,100,0,0)
PictureMove(5,null,0,0,0,0,100,100,255,0,30,true)
ShowMessageFace("",0,0,2,3)
ShowMessage("The Sheep Girl brings her face down between my legs and nuzzles her cheeks against my penis.")
ShowMessageFace("",0,0,2,4)
ShowMessage("\\n<Luka>Hold on, what do you think you're--")
PictureDisplay(5,"ev_hituzi_h02",0,0,0,0,100,100,255,0)
ShowMessageFace("hituzi_fc1",1,0,2,5)
ShowMessage("\\n<Sheep Girl>Aaaah♪ Your dick looks so delicious.\nIt smells really good too...")
ShowMessageFace("",0,0,2,6)
ShowMessage("The Sheep Girl smiles and closes her eyes as her tongue slowly reaches out towards my penis.")
245(bytes(0x04,0x08,0x6f,0x3a,0x0d,0x52,0x50,0x47,0x3a,0x3a,0x42,0x47,0x53,0x08,0x3a,0x0a,0x40,0x6e,0x61,0x6d,0x65,0x49,0x22,0x10,0x6d,0x6f,0x6e,0x5f,0x68,0x76,0x6f,0x69,0x63,0x65,0x31,0x06,0x3a,0x06,0x45,0x54,0x3a,0x0c,0x40,0x76,0x6f,0x6c,0x75,0x6d,0x65,0x69,0x55,0x3a,0x0b,0x40,0x70,0x69,0x74,0x63,0x68,0x69,0x69))
PictureDisplay(5,"ev_hituzi_h03",0,0,0,0,100,100,255,0)
ShowMessageFace("hituzi_fc1",1,0,2,7)
ShowMessage("\\n<Sheep Girl>*lick* *lick*")
ShowMessageFace("",0,0,2,8)
ShowMessage("\\n<Luka>Aaah, don't lick me...")
ShowMessageFace("",0,0,2,9)
ShowMessage("Her wet tongue feels rough against my glans, and the tickling sensation causes my body to quiver.")
ShowMessageFace("",0,0,2,10)
ShowMessage("After getting a little taste of my penis, the Sheep Girl moves in and--")
PictureDisplay(5,"ev_hituzi_h04",0,0,0,0,100,100,255,0)
ShowMessageFace("hituzi_fc1",1,0,2,11)
ShowMessage("\\n<Sheep Girl>...aaammmngh.")
ShowMessageFace("",0,0,2,12)
ShowMessage("She opens her mouth wide and envelops my entire penis! The inside of the Sheep Girl's mouth guides my shaft to the back of her throat.")
ShowMessageFace("",0,0,2,13)
ShowMessage("\\n<Luka>Ah... Aaaaaah!")
ShowMessageFace("hituzi_fc1",1,0,2,14)
ShowMessage("\\n<Sheep Girl>Mmmngh... Sspsspt...")
ShowMessageFace("",0,0,2,15)
ShowMessage("The inside of her mouth is warm enough to make me gasp.")
ShowMessage("Her saliva quickly fills her mouth, covering my penis.")
ShowMessageFace("",0,0,2,16)
ShowMessage("This warm, sweet comforting feeling...")
ShowMessage("The incredible feeling of her mouth quickly brings me to the edge.")
ShowMessageFace("hituzi_fc1",1,0,2,17)
ShowMessage("\\n<Sheep Girl>Oh my, look at that pitiful face...♪\nDoes my mouth feel that amazing?")
ShowMessageFace("",0,0,2,18)
ShowMessage("\\n<Luka>Nnngh... So good...")
PictureDisplay(5,"ev_hituzi_h05",0,0,0,0,100,100,255,0)
ShowMessageFace("hituzi_fc1",1,0,2,19)
ShowMessage("\\n<Sheep Girl>All right, I'll make you come quick then...\n*Suck* *Suck*♪")
ShowMessageFace("",0,0,2,20)
ShowMessage("\\n<Luka>Nnngh... Ah, aaah...")
ShowMessageFace("",0,0,2,21)
ShowMessage("The sheep's tongue starts quickly moving in her mouth.")
ShowMessage("It creeps along my glans, pushing it all around.")
ShowMessageFace("hituzi_fc1",1,0,2,22)
ShowMessage("\\n<Sheep Girl>*Suck* So delicious...\n*Suck* *Suuuuck*")
ShowMessageFace("",0,0,2,23)
ShowMessage("\\n<Luka>Ah... That feels good... Ahhh...")
ShowMessageFace("",0,0,2,24)
ShowMessage("Her tongue runs slowly up and down my shaft.")
ShowMessage("Trailing it up and down, she's carefully tasting every inch of it.")
ShowMessageFace("",0,0,2,25)
ShowMessage("The tip of her tongue brushes against the back muscle.")
ShowMessage("Her warm, sticky saliva fills more and more of her mouth.")
ShowMessageFace("hituzi_fc1",1,0,2,26)
ShowMessage("\\n<Sheep Girl>Some delicious juice is coming out...\n*Lick* *Suck*")
ShowMessageFace("",0,0,2,27)
ShowMessage("The tip of her warm tongue darts to my urethral opening.")
ShowMessage("Her quick licking motions across my tip throw me into a new ecstasy.")
ShowMessageFace("",0,0,2,28)
ShowMessage("\\n<Luka>Ah, Ooooh...!")
ShowMessageFace("",0,0,2,29)
ShowMessage("My waist involuntarially bucks forward.")
ShowMessage("Her slightly rough tongue rubs along my sensitive tip.")
ShowMessageFace("hituzi_fc1",1,0,2,30)
ShowMessage("\\n<Sheep Girl>*Lick* Mmm... A lot's coming out of the tip...♪\n*Lick* *Lick*")
ShowMessageFace("hituzi_fc1",1,0,2,31)
ShowMessage("\\n<Sheep Girl>If you let out your semen, I'll lick it all up like this...♪")
ShowMessageFace("",0,0,2,32)
ShowMessage("\\n<Luka>Ah, aaah!")
ShowMessageFace("",0,0,2,33)
ShowMessage("I can't help but moan at her amazing tongue movements.")
ShowMessage("My lower body starts to get numb as the coming orgasm flows through me.")
ShowMessageFace("",0,0,2,34)
ShowMessage("Her unique blowjob never stops, despite me nearing climax.")
ShowMessage("There's no helping it, I can't withstand her tongue any longer...")
ShowMessageFace("",0,0,2,35)
ShowMessage("\\n<Luka>Can't hold back... I'm coming!")
ShowMessageFace("hituzi_fc1",1,0,2,36)
ShowMessage("\\n<Sheep Girl>Then go ahead and come~♪\n*Suck* *Suck*")
ShowMessageFace("",0,0,2,37)
ShowMessage("She sucks hard as her tongue darts all over the tip of my penis.")
ShowMessage("Succumbing to the pleasure, I bask in the sensations as I let go.")
RunCommonEvent(104)
PictureDisplay(5,"ev_hituzi_h06",0,0,0,0,100,100,255,0)
RunCommonEvent(105)
ShowMessageFace("hituzi_fc1",1,0,2,38)
ShowMessage("\\n<Sheep Girl>Nnn...Nnnnn!")
ShowMessageFace("",0,0,2,39)
ShowMessage("\\n<Luka>Ah, aaah...")
ShowMessageFace("",0,0,2,40)
ShowMessage("My semen gushes out into her warm mouth.")
ShowMessage("As it pulses, her tongue runs all over my tip.")
ShowMessageFace("",0,0,2,41)
ShowMessage("I silently moan as her tongue laps up all of my semen as I come.")
ShowMessageFace("hituzi_fc1",1,0,2,42)
ShowMessage("\\n<Sheep Girl>*Lick* *Suuuck*")
ShowMessageFace("",0,0,2,43)
ShowMessage("\\n<Luka>Ngh... Aaah!")
ShowMessageFace("",0,0,2,44)
ShowMessage("The sheep suddenly sucks hard on me.")
ShowMessage("Like a straw, she forcibly sucks it all out of me.")
ShowMessageFace("hituzi_fc1",1,0,2,45)
ShowMessage("\\n<Sheep Girl>*Suuuuck* *Gulp*")
ShowMessageFace("",0,0,2,46)
ShowMessage("\\n<Luka>Nnngh...")
ShowMessageFace("",0,0,2,47)
ShowMessage("Like a vacuum, she sucks and swallows everything.")
ShowMessage("She never stops, until every drop has been sucked out.")
ShowMessageFace("",0,0,2,48)
ShowMessage("Then...")
ShowMessageFace("hituzi_fc1",1,0,2,49)
ShowMessage("\\n<Sheep Girl>*Suck* *Suck*")
ShowMessageFace("",0,0,2,50)
ShowMessage("\\n<Luka>S...Stop... I finished coming already...")
ShowMessageFace("hituzi_fc1",1,0,2,51)
ShowMessage("\\n<Sheep Girl>*Suck* *Suuuuuuck*")
ShowMessageFace("",0,0,2,52)
ShowMessage("\\n<Luka>Hya... Aaah!")
ShowMessageFace("",0,0,2,53)
ShowMessage("Even though my ejaculation is over, she continues to suck hard.")
ShowMessage("The vacuum-like suction only increases my agonizing pleasure.")
ShowMessageFace("",0,0,2,54)
ShowMessage("\\n<Luka>S...Stop...Aaaah...!!")
ShowMessageFace("hituzi_fc1",1,0,2,55)
ShowMessage("\\n<Sheep Girl>*Lick* *Suuuuuck*")
ShowMessageFace("",0,0,2,56)
ShowMessage("This relentless suction, right after my climax...")
ShowMessage("It's going to lead me to another ejaculation, way before I'm ready.")
ShowMessageFace("",0,0,2,57)
ShowMessage("\\n<Luka>Aaaaah...!!")
ShowMessageFace("",0,0,2,58)
ShowMessage("It feels like she's forcing another ejaculation.")
ShowMessage("My penis starts to tremble in her sweet, warm mouth.")
ShowMessageFace("",0,0,2,59)
ShowMessage("\\n<Luka>Don't...I'm going to come again...!")
ShowMessageFace("hituzi_fc1",1,0,2,60)
ShowMessage("\\n<Sheep Girl>Come a lot... *Suck*\n*Suck* *Suuuuck*")
ShowMessageFace("",0,0,2,61)
ShowMessage("\\n<Luka>Ah... Hyaaaa!!")
ShowMessageFace("",0,0,2,62)
ShowMessage("She doesn't let up on her violent vacuum-like stimulation at all.")
ShowMessage("My hips shake as my body gives itself over to her again.")
RunCommonEvent(104)
PictureDisplay(5,"ev_hituzi_h07",0,0,0,0,100,100,255,0)
RunCommonEvent(105)
ShowMessageFace("",0,0,2,63)
ShowMessage("\\n<Luka>Nnngh...")
PictureDisplay(5,"ev_hituzi_h08",0,0,0,0,100,100,255,0)
ShowMessageFace("hituzi_fc1",1,0,2,64)
ShowMessage("\\n<Sheep Girl>Nnn... *Suck*")
ShowMessageFace("",0,0,2,65)
ShowMessage("Her eyes narrow as she happily drinks down the new gush of semen.")
ShowMessage("Even as I come, her tongue licks and teases my penis.")
ShowMessageFace("",0,0,2,66)
ShowMessage("Until my ejaculation is over, and she had drank everything...")
ShowMessage("I could do nothing but bask in the feeling of being sucked dry.")
246(2)
ShowMessageFace("",0,0,2,67)
ShowMessage("\\n<Luka>Ah...uh...")
ShowMessageFace("",0,0,2,68)
ShowMessage("She's completely sucking my penis dry.")
ShowMessage("Totally exhausted, I couldn't stand if I wanted to.")
ShowMessageFace("hituzi_fc1",1,0,2,69)
ShowMessage("\\n<Sheep Girl>That's it for my drunken blowjob for right now. ♪\nNow I'll take you home~♪")
ShowMessageFace("",0,0,2,70)
ShowMessage("\\n<Luka>N...no way...")
ShowMessageFace("",0,0,2,71)
ShowMessage("I have no strength to oppose her any longer.")
ShowMessage("There's no choice left to me, but to surrender to the Sheep Girl...")
221()
PictureClear(5)
ShowMessageFace("",0,0,2,72)
ShowMessage("Thus, I was taken away by her.")
ShowMessage("After that, I was nothing more than a drunken sheep's toy.")
DefineLabel("反省会")
ShowMessageFace("",0,0,2,73)
ShowMessage("......")
221()
242(1)
Wait(120)
355("memory_interruption")
ShowMessageFace("",0,0,2,74)
ShowMessage("You hear Ilias' voice calling out to you...")
ShowMessage("Receive her evaluation?")
ShowChoices(strings("Receive evaluation","Change difficulty","Reincarnate"),3)
IfPlayerPicksChoice(0,null)
 241(bytes(0x04,0x08,0x6f,0x3a,0x0d,0x52,0x50,0x47,0x3a,0x3a,0x42,0x47,0x4d,0x08,0x3a,0x0a,0x40,0x6e,0x61,0x6d,0x65,0x49,0x22,0x0a,0x69,0x72,0x69,0x61,0x73,0x06,0x3a,0x06,0x45,0x54,0x3a,0x0c,0x40,0x76,0x6f,0x6c,0x75,0x6d,0x65,0x69,0x5f,0x3a,0x0b,0x40,0x70,0x69,0x74,0x63,0x68,0x69,0x6e))
 PictureDisplay(1,"bg001",0,0,0,0,100,100,255,0)
 222()
 PictureDisplay(5,"80_iriasu_st04",0,0,0,0,100,100,0,0)
 PictureMove(5,null,0,0,0,0,100,100,255,0,30,true)
 ShowMessageFace("iriasu_fc1",3,0,2,75)
 ShowMessage("\\n<Ilias>Knocked down by a drunken sheep...\nAre you going to start \"Baa-Baaing\" too, now?")
 PictureDisplay(5,"80_iriasu_st01",0,0,0,0,100,100,255,0)
 ShowMessageFace("iriasu_fc1",0,0,2,76)
 ShowMessage("\\n<Ilias>The Sheep Girl doesn't just attack.\nShe sleeps, drinks, and goes a little wild...")
 ShowMessageFace("iriasu_fc1",0,0,2,77)
 ShowMessage("\\n<Ilias>If she does drink, her attack power rises.\nIn that state, she may be able to knock you out in one blow.")
 ShowMessageFace("iriasu_fc1",0,0,2,78)
 ShowMessage("\\n<Ilias>Use the delayed turn as she drinks to smash her to bits.\nIt may be a messy fight, but there's no other way around it...")
 PictureDisplay(5,"80_iriasu_st02",0,0,0,0,100,100,255,0)
 ShowMessageFace("iriasu_fc1",1,0,2,79)
 ShowMessage("\\n<Ilias>Now go, oh brave Luka.\nBeat her, and make yourself a new wool coat.")
 242(1)
 221()
 PictureClear(5)
 PictureClear(1)
 Wait(60)
 0()
IfPlayerPicksChoice(1,null)
 ShowMessageFace("",0,0,2,80)
 ShowMessage("Please choose a difficulty level.")
 RunCommonEvent(110)
 0()
IfPlayerPicksChoice(2,null)
 0()
404()
RunCommonEvent(3000)
0()
