// EVENT 3223
Name "Gnosis"

PictureDisplay(5,"80_gnosis_st02",0,0,0,0,100,100,0,0)
PictureMove(5,null,0,0,0,0,100,100,255,0,30,true)
241(bytes(0x04,0x08,0x6f,0x3a,0x0d,0x52,0x50,0x47,0x3a,0x3a,0x42,0x47,0x4d,0x08,0x3a,0x0a,0x40,0x6e,0x61,0x6d,0x65,0x49,0x22,0x09,0x65,0x72,0x6f,0x31,0x06,0x3a,0x06,0x45,0x54,0x3a,0x0c,0x40,0x76,0x6f,0x6c,0x75,0x6d,0x65,0x69,0x69,0x3a,0x0b,0x40,0x70,0x69,0x74,0x63,0x68,0x69,0x69))
ShowMessageFace("",0,0,2,1)
ShowMessage("\\n<Luka>Unnngh...")
ShowMessageFace("gnosis_fc1",0,0,2,2)
ShowMessage("\\n<Gnosis>So you resigned yourself... Well then, time for divine punishment.")
ShowMessageFace("",0,0,2,3)
ShowMessage("Gnosis raises one of her hands; a circle of light appears, restraining the movement of my limbs. The binding is tight, as if I was bound by the air itself.")
ShowMessageFace("",0,0,2,4)
ShowMessage("\\n<Luka>Ugh...Let me go!")
ShowMessageFace("",0,0,2,5)
ShowMessage("No matter how hard I struggle, I can't move at all.\nGnosis looks at me with her cold eyes.")
PictureDisplay(5,"ev_gnosis_ha01",0,0,0,0,100,100,0,0)
PictureMove(5,null,0,0,0,0,100,100,255,0,30,true)
ShowMessageFace("gnosis_fc1",0,0,2,6)
ShowMessage("\\n<Gnosis>Death alone will not be punishment enough...\nI am going to punish your penis.")
ShowMessageFace("",0,0,2,7)
ShowMessage("Gnosis brings her face close between my thighs.\nMy enlarged penis stands before her expressionless face.")
ShowMessageFace("",0,0,2,8)
ShowMessage("\\n<Luka>S-stop it!")
ShowMessageFace("gnosis_fc1",0,0,2,9)
ShowMessage("\\n<Gnosis>............")
ShowMessageFace("",0,0,2,10)
ShowMessage("Her emotionless eyes show no mercy.\nI shudder in horror at the thought of what she is about to do.")
PictureDisplay(5,"ev_gnosis_ha02",0,0,0,0,100,100,255,0)
ShowMessageFace("gnosis_fc1",0,0,2,11)
ShowMessage("\\n<Gnosis>Mm...*slurp*...")
ShowMessageFace("",0,0,2,12)
ShowMessage("\\n<Luka>Hauuu!")
ShowMessageFace("",0,0,2,13)
ShowMessage("Gnosis' tongue crawls over my glans all of a sudden.\nThe feeling of her tongue on my tip makes my hips shake involuntarily.")
ShowMessageFace("",0,0,2,14)
ShowMessage("In the next moment, the circle of light that bind my limbs starts emitting a strange aura. My movement is sealed even further so that I can't even move an inch.")
ShowMessageFace("gnosis_fc1",0,0,2,15)
ShowMessage("\\n<Gnosis>I'll make you cry even more than this, you will go crazy... I'll tease your penis until you wish you weren't born...")
ShowMessageFace("",0,0,2,16)
ShowMessage("\\n<Luka>Ah... Aaaaaah....!")
ShowMessageFace("",0,0,2,17)
ShowMessage("Contrary to her cruel words, her tongue crawls gently all over my glans. I'm powerless to stop these sweet sensations.")
ShowMessageFace("",0,0,2,18)
ShowMessage("Despite my efforts, I can't even struggle because of the rings binding me. Even if I wanted to, I can't bring myself to struggle anymore.")
ShowMessageFace("",0,0,2,19)
ShowMessage("\\n<Luka>Ah, hauuuuu!")
ShowMessageFace("",0,0,2,20)
ShowMessage("As I lay there helplessly, Gnosis opens her mouth in front of me. She shapes her mouth in the form of a tube and...")
245(bytes(0x04,0x08,0x6f,0x3a,0x0d,0x52,0x50,0x47,0x3a,0x3a,0x42,0x47,0x53,0x08,0x3a,0x0a,0x40,0x6e,0x61,0x6d,0x65,0x49,0x22,0x1e,0x6d,0x6f,0x6e,0x5f,0x68,0x73,0x65,0x61,0x6e,0x31,0x32,0x5f,0x69,0x6e,0x6e,0x65,0x72,0x77,0x6f,0x72,0x6b,0x73,0x5f,0x63,0x32,0x06,0x3a,0x06,0x45,0x54,0x3a,0x0c,0x40,0x76,0x6f,0x6c,0x75,0x6d,0x65,0x69,0x55,0x3a,0x0b,0x40,0x70,0x69,0x74,0x63,0x68,0x69,0x69))
PictureDisplay(5,"ev_gnosis_ha03",0,0,0,0,100,100,255,0)
ShowMessageFace("",0,0,2,21)
ShowMessage("*slurp*... My glans is sucked inside her mouth.\nHer tube-mouth wraps around my glans, stimulating it from all sides.")
ShowMessageFace("",0,0,2,22)
ShowMessage("\\n<Luka>Ah... Ahhhhhhh!")
ShowMessageFace("gnosis_fc1",0,0,2,23)
ShowMessage("\\n<Gnosis>*Suck*... *Suuuck*...")
ShowMessageFace("",0,0,2,24)
ShowMessage("Gnosis sucks on my glans delicately.\nThe sweet pleasure is much more intense than I expected.")
ShowMessageFace("",0,0,2,25)
ShowMessage("\\n<Luka>Hauuuu... Ah... Aaah...")
ShowMessageFace("",0,0,2,26)
ShowMessage("Gnosis' face looks a bit distorted with my penis in her mouth, but it looks lewd as well. Seeing her like that brings a strange sense of arousal.")
PictureDisplay(5,"ev_gnosis_ha04",0,0,0,0,100,100,255,0)
ShowMessageFace("gnosis_fc1",0,0,2,27)
ShowMessage("\\n<Gnosis>*Suck*... *Suuuck*... *Suuuuck*...")
ShowMessageFace("",0,0,2,28)
ShowMessage("Gnosis' lips slowly slide up and down my penis, stimulating me with her mouth. Her movements are slow and she sucks gently.")
ShowMessageFace("",0,0,2,29)
ShowMessage("While she sucks me off like this, I feel an orgasm slowly rising inside me.")
ShowMessageFace("gnosis_fc1",0,0,2,30)
ShowMessage("\\n<Gnosis>*Suck*... *Suuuuck*... *Suuuuuck*...")
ShowMessageFace("",0,0,2,31)
ShowMessage("\\n<Luka>Aaah, it feels good... I'll come.")
ShowMessageFace("",0,0,2,32)
ShowMessage("I moan as I feel myself nearing my orgasm.\nGnosis, on the other hand, glares daggers at me.")
ShowMessageFace("gnosis_fc1",0,0,2,33)
ShowMessage("\\n<Gnosis>You were so frightened a few moments ago and now you're about to climax? How pathetic...")
ShowMessageFace("",0,0,2,34)
ShowMessage("I turn bright red at her words, but I can't hold back any longer. My hips start shaking as I feel I'm about to come.")
ShowMessageFace("",0,0,2,35)
ShowMessage("\\n<Luka>Ah, I'm coming!")
ShowMessageFace("gnosis_fc1",0,0,2,36)
ShowMessage("\\n<Gnosis>Denied...")
PictureDisplay(5,"ev_gnosis_ha05",0,0,0,0,100,100,255,0)
ShowMessageFace("",0,0,2,37)
ShowMessage("In the next moment, I feel something latching tight to the base of my penis. On top of that, Gnosis takes my penis out of her mouth.")
ShowMessageFace("",0,0,2,38)
ShowMessage("Her mouth opens from all sides.\nIt's not a pretty sight to behold, as the inside of her mouth is coated with fleshy villi.")
ShowMessageFace("",0,0,2,39)
ShowMessage("\\n<Luka>Ahiiii!!!")
ShowMessageFace("gnosis_fc1",0,0,2,40)
ShowMessage("\\n<Gnosis>It is not my intention to make you feel pleasure during your divine punishment. You will feel an intense stimulation coupled with agony and fear...")
ShowMessageFace("",0,0,2,41)
ShowMessage("Inside her split chin I can see a swollen tongue dancing around, making mechanical noises.")
ShowMessageFace("",0,0,2,42)
ShowMessage("The villi keep undulating in her mouth, making Gnosis look absolutely grotesque.")
ShowMessageFace("",0,0,2,43)
ShowMessage("A few moments ago, I was moaning in pleasure because of that. A chill runs down my spine.")
ShowMessageFace("",0,0,2,44)
ShowMessage("\\n<Luka>H-help... Aaah!")
ShowMessageFace("",0,0,2,45)
ShowMessage("Her mouth closes in on my penis and I can feel her warm breath. I can only look at it with despair as it gets closer and closer to my penis.")
PictureDisplay(5,"ev_gnosis_ha06",0,0,0,0,100,100,255,0)
ShowMessageFace("",0,0,2,46)
ShowMessage("Her disgusting jaw closes around my penis.\nI can now feel every one of the villi inside her mouth stimulating my penis.")
ShowMessageFace("",0,0,2,47)
ShowMessage("\\n<Luka>Ah, aaaah!!!")
ShowMessageFace("",0,0,2,48)
ShowMessage("All the parts inside her mouth move individually, stimulating me, making me struggle and cry in pleasure. However, my limbs are firmly sealed by the circles of light.")
ShowMessageFace("",0,0,2,49)
ShowMessage("I can't resist this pleasure torture, all I can do is take it. Cries of pleasure and agony mixed together escape my mouth.")
PictureDisplay(5,"ev_gnosis_ha07",0,0,0,0,100,100,255,0)
ShowMessageFace("gnosis_fc1",0,0,2,50)
ShowMessage("\\n<Gnosis>*Suck*... *Suck*... *Suuuck*...")
ShowMessageFace("",0,0,2,51)
ShowMessage("\\n<Luka>Hyaaaaa!!!")
ShowMessageFace("",0,0,2,52)
ShowMessage("Unlike a while ago, her blowjob is more intense, purposely trying to make me climax. The stimulation overloads my senses as each individual part of her mouth moves like it has a mind of its own.")
ShowMessageFace("",0,0,2,53)
ShowMessage("\\n<Luka>Aah, I'm going to come... Aaaaaah!!!")
PictureDisplay(5,"ev_gnosis_ha08",0,0,0,0,100,100,255,0)
ShowMessageFace("",0,0,2,54)
ShowMessage("My penis starts trembling as I reach my climax.\nHowever, the feeling of release doesn't come with it.")
ShowMessageFace("",0,0,2,55)
ShowMessage("The base of my penis is gripped tight by the ring she put on it and I can't release. The discomfort I feel is agonizing.")
ShowMessageFace("gnosis_fc1",0,0,2,56)
ShowMessage("\\n<Gnosis>*Suuuuuuuck*... *Suuuuuuck*...")
ShowMessageFace("",0,0,2,57)
ShowMessage("\\n<Luka>Ahii! Hyaaaaa!!!")
ShowMessageFace("",0,0,2,58)
ShowMessage("With the stimulation increasing I scream and struggle.\nThe irritating feeling grinds away at my sanity as I thrash around and scream in agony.")
ShowMessageFace("",0,0,2,59)
ShowMessage("As the feeling of climaxing hits me over and over, I suddenly feel I've lost control of my lower body.")
PictureDisplay(5,"ev_gnosis_ha09",0,0,0,0,100,100,255,0)
ShowMessageFace("",0,0,2,60)
ShowMessage("Moments after, pee trickles out of my penis against my will. This hellish stimulation made me incontinent.")
ShowMessageFace("gnosis_fc1",0,0,2,61)
ShowMessage("\\n<Gnosis>............")
ShowMessageFace("",0,0,2,62)
ShowMessage("Gnosis shoots me a cruel gaze.\nAnd...")
PictureDisplay(5,"ev_gnosis_ha10",0,0,0,0,100,100,255,0)
ShowMessageFace("",0,0,2,63)
ShowMessage("\\n<Luka>Hyaaaaaaaaaaa!!!")
ShowMessageFace("",0,0,2,64)
ShowMessage("Even as my incontinence continues, the stimulation doesn't stop. She keeps using her mouth to force pleasure into my penis.")
PictureDisplay(5,"ev_gnosis_ha11",0,0,0,0,100,100,255,0)
ShowMessageFace("gnosis_fc1",0,0,2,65)
ShowMessage("\\n<Gnosis>*Suck*... *Suuuuuuuuck*...")
ShowMessageFace("",0,0,2,66)
ShowMessage("Everything I leak out she swallows.\nThe villi in her mouth stick out for me to see them.")
ShowMessageFace("",0,0,2,67)
ShowMessage("\\n<Luka>Stop, stop it!!!")
ShowMessageFace("",0,0,2,68)
ShowMessage("I shiver and struggle in fear at the sight of what's causing me all this unbearable pleasure.")
ShowMessageFace("",0,0,2,69)
ShowMessage("But she shows me no mercy.")
ShowMessageFace("",0,0,2,70)
ShowMessage("\\n<Luka>Stop, stop it, aaaaaaah!!!")
PictureDisplay(5,"ev_gnosis_ha12",0,0,0,0,100,100,255,0)
ShowMessageFace("gnosis_fc1",0,0,2,71)
ShowMessage("\\n<Gnosis>*Suuuuuuuuuuck*...")
ShowMessageFace("",0,0,2,72)
ShowMessage("\\n<Luka>Ahiii, aaaaaah!!!")
ShowMessageFace("",0,0,2,73)
ShowMessage("The villi simulate a chewing movement and it feels like they're trying to chip away at my glans. I scream and I struggle as hard as I can.")
ShowMessageFace("",0,0,2,74)
ShowMessage("The more I thrash and shake, the more my legs start dangling in the air. But, Gnosis grabs them and holds me down without any effort.")
ShowMessageFace("gnosis_fc1",0,0,2,75)
ShowMessage("\\n<Gnosis>Pathetic... Be still.\nYou're only allowed to cry in agony.")
ShowMessageFace("",0,0,2,76)
ShowMessage("With both my legs held down, I continue receiving my punishment. Strange mechanical sounds come out of Gnosis' mouth.")
PictureDisplay(5,"ev_gnosis_ha13",0,0,0,0,100,100,255,0)
ShowMessageFace("gnosis_fc1",0,0,2,77)
ShowMessage("\\n<Gnosis>*Suck*... *Suck*... *Suuuuuuck*")
ShowMessageFace("",0,0,2,78)
ShowMessage("My penis slides in and out of her mouth, making the stimulation even more intense and unbearable. It feels absolutely horrible to keep on ejaculating but not releasing anything.")
ShowMessageFace("",0,0,2,79)
ShowMessage("\\n<Luka>Hyaaaa! Let me come! Let me come!")
ShowMessageFace("",0,0,2,80)
ShowMessage("Tears stream down my face and saliva slides down the side of my mouth. I plead pathetically, driven mad by this torturous pleasure.")
PictureDisplay(5,"ev_gnosis_ha14",0,0,0,0,100,100,255,0)
ShowMessageFace("gnosis_fc1",0,0,2,81)
ShowMessage("\\n<Gnosis>...You want to ejaculate that badly?")
ShowMessageFace("",0,0,2,82)
ShowMessage("Gnosis unexpectedly releases me from her mouth.\nShe glares at me with her expressionless eyes.")
ShowMessageFace("",0,0,2,83)
ShowMessage("\\n<Luka>Please... I can't take it anymore...")
ShowMessageFace("gnosis_fc1",0,0,2,84)
ShowMessage("\\n<Gnosis>Asking your enemy to lead you to orgasm...\nYou truly are pathetic...")
ShowMessageFace("gnosis_fc1",0,0,2,85)
ShowMessage("\\n<Gnosis>...I will comply and let you ejaculate.\nBut, you should know that a hell of pleasure awaits you afterwards.")
ShowMessageFace("",0,0,2,86)
ShowMessage("\\n<Luka>Ah, aaah...")
ShowMessageFace("",0,0,2,87)
ShowMessage("The ring around my penis is finally removed and Gnosis brings her face close to my penis.")
PictureDisplay(5,"ev_gnosis_ha15",0,0,0,0,100,100,255,0)
ShowMessageFace("gnosis_fc1",0,0,2,88)
ShowMessage("\\n<Gnosis>*Suuuck*... *Suuuuck*...")
ShowMessageFace("",0,0,2,89)
ShowMessage("Her blowjob is gentle and sweet.\nThe slippery inside of her mouth caresses my penis.")
ShowMessageFace("",0,0,2,90)
ShowMessage("I embrace with gratitude the feelings her welcoming mouth give me, slowly leading me to an orgasm. I bask in the pleasure and entrust my body to it.")
ShowMessageFace("gnosis_fc1",0,0,2,91)
ShowMessage("\\n<Gnosis>*Suck*... *Suck*... *Suck*...")
ShowMessageFace("",0,0,2,92)
ShowMessage("\\n<Luka>Aaah...")
ShowMessageFace("",0,0,2,93)
ShowMessage("I'm immersed in ecstasy from her sweet mouth technique.\nI feel an ejaculation rising through my entire being, but I don't resist it at all.")
RunCommonEvent(104)
PictureDisplay(5,"ev_gnosis_ha16",0,0,0,0,100,100,255,0)
RunCommonEvent(105)
ShowMessageFace("",0,0,2,94)
ShowMessage("A steady stream of semen gushes out of my penis.\nThe feeling of release is pure bliss.")
ShowMessageFace("",0,0,2,95)
ShowMessage("\\n<Luka>Nnngh...")
ShowMessageFace("gnosis_fc1",0,0,2,96)
ShowMessage("\\n<Gnosis>............")
ShowMessageFace("",0,0,2,97)
ShowMessage("While I revel in the sweet ecstasy after my ejaculation, Gnosis gives me a cold stare.")
ShowMessageFace("gnosis_fc1",0,0,2,98)
ShowMessage("\\n<Gnosis>Now you shall taste hell...")
PictureDisplay(5,"ev_gnosis_ha17",0,0,0,0,100,100,255,0)
ShowMessageFace("",0,0,2,99)
ShowMessage("Out of nowhere, her mouth increases the intensity of the blowjob. Gnosis sucks my penis very violently.")
ShowMessageFace("",0,0,2,100)
ShowMessage("\\n<Luka>Ah, aaaaaah!!")
ShowMessageFace("",0,0,2,101)
ShowMessage("Her piston movements are so intense, it feels like she's trying to skin my penis from the neck down. It's as if her mouth is a vacuum, her mouth is sucking hard and the inside of her cheeks stick to my glans.")
ShowMessageFace("",0,0,2,102)
ShowMessage("This intense stimulation attacks my penis, still sensitive after ejaculation. My whole body starts going haywire...")
RunCommonEvent(104)
RunCommonEvent(105)
ShowMessageFace("",0,0,2,103)
ShowMessage("Before I even realize it, I ejaculate once again.\nMy semen is forcibly squeezed out by her mouth and a strong sense of release rushes through my whole body.")
ShowMessageFace("",0,0,2,104)
ShowMessage("\\n<Luka>Ugh... No more!")
ShowMessageFace("gnosis_fc1",0,0,2,105)
ShowMessage("\\n<Gnosis>No more? Were you not the one who wanted this?\nJust as you wished, I will kill you using my mouth...")
ShowMessageFace("",0,0,2,106)
ShowMessage("\\n<Luka>Hyaaaaaaa!!!")
RunCommonEvent(104)
RunCommonEvent(105)
ShowMessageFace("",0,0,2,107)
ShowMessage("I ejaculate for the third time in a row.\nMy whole body is enveloped by a strange feeling of weakness.")
ShowMessageFace("",0,0,2,108)
ShowMessage("As I was squeezed of sperm in such quick succession, my erection dwindles. My penis loses its firmness from my quick orgasms.")
PictureDisplay(5,"ev_gnosis_ha18",0,0,0,0,100,100,255,0)
ShowMessageFace("gnosis_fc1",0,0,2,109)
ShowMessage("\\n<Gnosis>Your erection is fading...\nIf you're not fully erect, I won't be able to kill you like this...")
ShowMessageFace("",0,0,2,110)
ShowMessage("Gnosis whispers, looking at my penis slowly losing its stiffness. Her tongue wriggles inside her mouth making strange mechanical noises again.")
ShowMessageFace("gnosis_fc1",0,0,2,111)
ShowMessage("\\n<Gnosis>It can't be helped, I will have to compensate for your lack of erection... Through the inside.")
PictureDisplay(5,"ev_gnosis_ha19",0,0,0,0,100,100,255,0)
ShowMessageFace("",0,0,2,112)
ShowMessage("Her tongue crawls inside my urethra.\nThe unusual feeling makes me yell out in surprise.")
ShowMessageFace("",0,0,2,113)
ShowMessage("\\n<Luka>Hyaaa! Aaaaaah!!!")
ShowMessageFace("",0,0,2,114)
ShowMessage("I feel pressure from inside my penis.\nMy whole body cramps as her tongue swells inside my urethra.")
ShowMessageFace("gnosis_fc1",0,0,2,115)
ShowMessage("\\n<Gnosis>If I use my tongue like this, you will not become soft... Release your semen over and over now.")
ShowMessageFace("",0,0,2,116)
ShowMessage("\\n<Luka>Ahii! Hyaaaaaaa!!!")
RunCommonEvent(104)
PictureDisplay(5,"ev_gnosis_ha20",0,0,0,0,100,100,255,0)
RunCommonEvent(105)
ShowMessageFace("",0,0,2,117)
ShowMessage("With the feeling of a foreign body in my penis, I start shooting out my semen. My body feels stiff and paralyzed, as if it wasn't my own anymore.")
ShowMessageFace("",0,0,2,118)
ShowMessage("Despite coming, Gnosis continues her blowjob.\nShe abuses my penis with her cruel mouth skills.")
PictureDisplay(5,"ev_gnosis_ha21",0,0,0,0,100,100,255,0)
ShowMessageFace("gnosis_fc1",0,0,2,119)
ShowMessage("\\n<Gnosis>*Suuck*... *Suuuck*... *Suuuuuuck*...")
ShowMessageFace("",0,0,2,120)
ShowMessage("\\n<Luka>Ahi... Ah... Hauuuu!!")
ShowMessageFace("",0,0,2,121)
ShowMessage("Her lips go up and down my penis, violently stimulating my penis with her piston movement. In addition to that, her tongue keeps swelling inside, giving me a lot more pleasure than before.")
ShowMessageFace("",0,0,2,122)
ShowMessage("\\n<Luka>Ah, hyaaaaa!!!")
RunCommonEvent(104)
PictureDisplay(5,"ev_gnosis_ha22",0,0,0,0,100,100,255,0)
RunCommonEvent(105)
ShowMessageFace("",0,0,2,123)
ShowMessage("I'm not even sure what's coming out of my penis anymore.\nI can't tell if I'm peeing or ejaculating.")
ShowMessageFace("",0,0,2,124)
ShowMessage("The more liquids come out of me, the more of my sanity I lose. In the storm of pleasure that crashes into my body, I feel myself getting weaker and weaker.")
ShowMessageFace("",0,0,2,125)
ShowMessage("\\n<Luka>Auu... Aaah...")
ShowMessageFace("gnosis_fc1",0,0,2,126)
ShowMessage("\\n<Gnosis>I will not stop until you are devoid of energy.\n*Suuck*... *Suuuuuuuuck*...")
ShowMessageFace("",0,0,2,127)
ShowMessage("\\n<Luka>Hauu...")
RunCommonEvent(104)
RunCommonEvent(105)
ShowMessageFace("",0,0,2,128)
ShowMessage("My body shivers and trembles.\nMy semen flows out as the last of my energy is exhausted.")
ShowMessageFace("",0,0,2,129)
ShowMessage("My whole body feels an incredible sense of weakness.\nMy consciousness slowly fades away...")
221()
PictureClear(5)
PictureClear(6)
246(2)
ShowMessageFace("gnosis_fc1",0,0,2,130)
ShowMessage("\\n<Gnosis>It is done. Punishment complete.")
ShowMessageFace("",0,0,2,131)
ShowMessage("\\n<Luka>............")
ShowMessageFace("",0,0,2,132)
ShowMessage("And thus, Gnosis killed me.\nShe squeezed out all of my energy while putting me through torturous pleasure.")
ShowMessageFace("",0,0,2,133)
ShowMessage("Her ruthless punishment is complete.\nMy adventure ends here.")
ShowMessageFace("",0,0,2,134)
ShowMessage("......")
221()
242(1)
Wait(120)
355("memory_interruption")
ShowMessageFace("",0,0,2,135)
ShowMessage("You hear Ilias' voice calling out to you...\nReceive her evaluation?")
ShowChoices(strings("Receive Evaluation","Change Difficulty","Reincarnate"),3)
IfPlayerPicksChoice(0,"Receive Evaluation")
 241(bytes(0x04,0x08,0x6f,0x3a,0x0d,0x52,0x50,0x47,0x3a,0x3a,0x42,0x47,0x4d,0x08,0x3a,0x0a,0x40,0x6e,0x61,0x6d,0x65,0x49,0x22,0x0a,0x69,0x72,0x69,0x61,0x73,0x06,0x3a,0x06,0x45,0x54,0x3a,0x0c,0x40,0x76,0x6f,0x6c,0x75,0x6d,0x65,0x69,0x5f,0x3a,0x0b,0x40,0x70,0x69,0x74,0x63,0x68,0x69,0x6e))
 PictureDisplay(1,"bg001",0,0,0,0,100,100,255,0)
 222()
 PictureDisplay(5,"80_iriasu_st06",0,0,0,0,100,100,0,0)
 PictureMove(5,null,0,0,0,0,100,100,255,0,30,true)
 ShowMessageFace("iriasu_fc1",5,0,2,136)
 ShowMessage("\\n<Ilias>Gnosis..!?\nI don't know of this Angel...")
 PictureDisplay(5,"80_iriasu_st01",0,0,0,0,100,100,255,0)
 ShowMessageFace("iriasu_fc1",0,0,2,137)
 ShowMessage("\\n<Ilias>Let's devise a strategy from what you've learned after your battle. Your enemy seems to be using all kinds of magic.")
 ShowMessageFace("iriasu_fc1",0,0,2,138)
 ShowMessage("\\n<Ilias>Silence is effective against her so use it to seal her magic. Confusion also connects easily and is worth using.")
 ShowMessageFace("iriasu_fc1",0,0,2,139)
 ShowMessage("\\n<Ilias>Despite the fact that she is an angel, she is still a machine, which makes her vulnerable to lightning and water. That is roughly all I can advise you.")
 PictureDisplay(5,"80_iriasu_st04",0,0,0,0,100,100,255,0)
 ShowMessageFace("iriasu_fc1",3,0,2,140)
 ShowMessage("\\n<Ilias>But, what is this angel...\n........")
 242(1)
 221()
 PictureClear(5)
 PictureClear(1)
 Wait(60)
 0()
IfPlayerPicksChoice(1,"Change Difficulty")
 ShowMessageFace("",0,0,2,141)
 ShowMessage("Please choose a difficulty level.")
 RunCommonEvent(110)
 0()
IfPlayerPicksChoice(2,"Reincarnate")
 0()
404()
If(0,87,1)
 If(0,97,1)
  ChangeVariable(1062,1062,0,0,3)
  0()
 EndIf()
 0()
EndIf()
RunCommonEvent(3000)
0()
