// EVENT 4572
Name "Alligator Girl 2"

If(0,25,1)
 221()
 PictureClear(5)
 PictureClear(6)
 ShowMessageFace("",0,0,2,0)
 ShowMessage("......")
 242(2)
 Wait(120)
 241(bytes(0x04,0x08,0x6f,0x3a,0x0d,0x52,0x50,0x47,0x3a,0x3a,0x42,0x47,0x4d,0x08,0x3a,0x0a,0x40,0x6e,0x61,0x6d,0x65,0x49,0x22,0x0c,0x63,0x61,0x73,0x74,0x6c,0x65,0x36,0x06,0x3a,0x06,0x45,0x54,0x3a,0x0c,0x40,0x76,0x6f,0x6c,0x75,0x6d,0x65,0x69,0x69,0x3a,0x0b,0x40,0x70,0x69,0x74,0x63,0x68,0x69,0x69))
 EndEventProcessing()
 0()
EndIf()
PictureDisplay(5,"80_wani_st01",0,0,0,0,100,100,255,0)
ShowMessageFace("wani_fc1",0,0,2,1)
ShowMessage("\\n<Gaa>You want to do something that feels good?\nWell then...")
241(bytes(0x04,0x08,0x6f,0x3a,0x0d,0x52,0x50,0x47,0x3a,0x3a,0x42,0x47,0x4d,0x08,0x3a,0x0a,0x40,0x6e,0x61,0x6d,0x65,0x49,0x22,0x09,0x65,0x72,0x6f,0x31,0x06,0x3a,0x06,0x45,0x54,0x3a,0x0c,0x40,0x76,0x6f,0x6c,0x75,0x6d,0x65,0x69,0x69,0x3a,0x0b,0x40,0x70,0x69,0x74,0x63,0x68,0x69,0x69))
PictureDisplay(5,"ev_wani_h01",0,0,0,0,100,100,0,0)
PictureMove(5,null,0,0,0,0,100,100,255,0,30,true)
ShowMessageFace("",0,0,2,2)
ShowMessage("Gaa crawls toward me, as I lay defenseless.\nThen...")
PictureDisplay(5,"ev_wani_h02",0,0,0,0,100,100,255,0)
ShowMessageFace("wani_fc1",0,0,2,3)
ShowMessage("\\n<Gaa>I'll eat you...")
ShowMessageFace("",0,0,2,4)
ShowMessage("The mouth on her lower body opens wide!")
ShowMessageFace("",0,0,2,5)
ShowMessage("\\n<Luka>E-eat...? Wait, that's not what I...!")
ShowMessageFace("",0,0,2,6)
ShowMessage("I shiver as her large mouth approaches me.\nBut I can't escape...")
245(bytes(0x04,0x08,0x6f,0x3a,0x0d,0x52,0x50,0x47,0x3a,0x3a,0x42,0x47,0x53,0x08,0x3a,0x0a,0x40,0x6e,0x61,0x6d,0x65,0x49,0x22,0x1e,0x6d,0x6f,0x6e,0x5f,0x68,0x73,0x65,0x61,0x6e,0x31,0x32,0x5f,0x69,0x6e,0x6e,0x65,0x72,0x77,0x6f,0x72,0x6b,0x73,0x5f,0x63,0x32,0x06,0x3a,0x06,0x45,0x54,0x3a,0x0c,0x40,0x76,0x6f,0x6c,0x75,0x6d,0x65,0x69,0x55,0x3a,0x0b,0x40,0x70,0x69,0x74,0x63,0x68,0x69,0x69))
PictureDisplay(5,"ev_wani_h03",0,0,0,0,100,100,255,0)
ShowMessageFace("wani_fc1",0,0,2,7)
ShowMessage("\\n<Gaa>No moving violently... *Chew*")
ShowMessageFace("",0,0,2,8)
ShowMessage("My head is forced deep into her mouth.\nHalfway swallowed, my upper body is in her throat.")
ShowMessageFace("",0,0,2,9)
ShowMessage("Her soft pink flesh rubs against my upper body.\nCovered in her saliva, I feebly struggle.")
ShowMessageFace("",0,0,2,10)
ShowMessage("\\n<Luka>Aaah... Help me...!")
PictureDisplay(5,"ev_wani_h04",0,0,0,0,100,100,255,0)
ShowMessageFace("wani_fc1",0,0,2,11)
ShowMessage("\\n<Gaa>Your penis is twitching...")
ShowMessageFace("",0,0,2,12)
ShowMessage("\\n<Luka>Ah, ooooh...!")
ShowMessageFace("",0,0,2,13)
ShowMessage("Unexpectedly, I feel Gaa's hands on my penis.\nHer soft hand grabs hold of me, and starts to stroke.")
ShowMessageFace("",0,0,2,14)
ShowMessage("\\n<Luka>Wh-what are you... Aah...")
ShowMessageFace("",0,0,2,15)
ShowMessage("My upper body jerks in surprise.\nMy body can't help but squirm as Gaa toys with my penis.")
ShowMessageFace("wani_fc1",0,0,2,16)
ShowMessage("\\n<Gaa>*Rub* *Rub*")
ShowMessageFace("",0,0,2,17)
ShowMessage("\\n<Luka>Aaah...")
ShowMessageFace("",0,0,2,18)
ShowMessage("Half swallowed, the Alligator Girl strokes my penis.\nHer soft palm rubs my glans, as her other hand strokes my shaft.")
ShowMessageFace("",0,0,2,19)
ShowMessage("All the while, her throat presses down on my upper body.\nUnsure if there's some kind of aphrodisiac in her digestive fluids, I feel intense pleasure.")
ShowMessageFace("wani_fc1",0,0,2,20)
ShowMessage("\\n<Gaa>Does your penis feel good...?\n*Rub* *Rub*")
ShowMessageFace("",0,0,2,21)
ShowMessage("\\n<Luka>D-don't...Aaah...")
ShowMessageFace("",0,0,2,22)
ShowMessage("I feel her soft touch on my lower body. Then......")
RunCommonEvent(104)
PictureDisplay(5,"ev_wani_h06",0,0,0,0,100,100,255,0)
RunCommonEvent(105)
ShowMessageFace("",0,0,2,23)
ShowMessage("I suddenly come in Gaa's hands.\nA miserable ejaculation while caught in the mouth of a predator.")
ShowMessageFace("wani_fc1",0,0,2,24)
ShowMessage("\\n<Gaa>Your semen came out...\nOkay, it's time to eat...")
ShowMessageFace("",0,0,2,25)
ShowMessage("\\n<Luka>Stop... Ah, aaaah...!")
PictureDisplay(5,"ev_wani_h07",0,0,0,0,100,100,255,0)
ShowMessageFace("",0,0,2,26)
ShowMessage("Her alligator mouth starts to move.\nHer flesh contracts and squeezes, forcing me deeper down her throat.")
ShowMessageFace("wani_fc1",0,0,2,27)
ShowMessage("\\n<Gaa>*Gulp*")
ShowMessageFace("",0,0,2,28)
ShowMessage("My lower body is brought into Gaa's mouth with a gulp.\nLike that, I was swallowed whole.")
ShowMessageFace("",0,0,2,29)
ShowMessage("\\n<Luka>Ngh... Aaah...")
ShowMessageFace("",0,0,2,30)
ShowMessage("Right after being swallowed, digestive juices cover me.\nCovering every inch of me, the warm juices start to dissolve me.")
ShowMessageFace("",0,0,2,31)
ShowMessage("As it covers me, my body is filled with a sweet feeling.\nI'm going to be melted away like this...")
ShowMessageFace("",0,0,2,32)
ShowMessage("\\n<Luka>I'm melting... Huaaa...")
ShowMessageFace("",0,0,2,33)
ShowMessage("A horrifying situation. Swallowed and digested.\nBut despite that, my body rejoices in the sexual pleasure.")
ShowMessageFace("",0,0,2,34)
ShowMessage("My twitching penis is also covered in her juices.\nIt feels like I could rise right into the sky...")
ShowMessageFace("",0,0,2,35)
ShowMessage("\\n<Luka>Huaaa... Ah, aaah...")
RunCommonEvent(104)
PictureDisplay(5,"ev_wani_h08",0,0,0,0,100,100,255,0)
RunCommonEvent(105)
ShowMessageFace("",0,0,2,36)
ShowMessage("Immersed in the feeling of melting away, I reach a climax.\nA horrifying orgasm, as I'm being eaten by a predator.")
ShowMessageFace("wani_fc1",0,0,2,37)
ShowMessage("\\n<Gaa>Ah. He came. Delicious...")
ShowMessageFace("wani_fc1",2,0,2,38)
ShowMessage("\\n<Gaa>......")
ShowMessageFace("wani_fc1",0,0,2,39)
ShowMessage("\\n<Gaa>Ah...I shouldn't be eating my allies.")
ShowMessageFace("",0,0,2,40)
ShowMessage("Gaa suddenly remembered something...")
246(2)
PictureDisplay(5,"80_wani_st01",0,0,0,0,100,100,255,0)
ShowMessageFace("wani_fc1",0,0,2,41)
ShowMessage("\\n<Gaa>Bleh...")
ShowMessageFace("",0,0,2,42)
ShowMessage("My body is spat out of her mouth.\nCovered in saliva, I roll out onto the ground.")
ShowMessageFace("wani_fc1",0,0,2,43)
ShowMessage("\\n<Gaa>Sorry...")
ShowMessageFace("",0,0,2,44)
ShowMessage("\\n<Luka>Ah... Nnngh...")
ShowMessageFace("",0,0,2,45)
ShowMessage("On the verge of being eaten alive, she swallowed me whole...\nI know the taste of it now.")
ShowMessageFace("",0,0,2,46)
ShowMessage("I never though being swallowed by a monster would feel like that.")
ShowMessageFace("wani_fc1",0,0,2,47)
ShowMessage("\\n<Gaa>...I'm so hungry...")
ShowMessageFace("",0,0,2,48)
ShowMessage("\\n<Luka>......")
ShowMessageFace("",0,0,2,49)
ShowMessage("A forbidden pleasure I never should have known about.\nWill I be able to resist it from now on...?")
221()
PictureClear(5)
ShowMessageFace("",0,0,2,50)
ShowMessage("......")
242(2)
Wait(120)
241(bytes(0x04,0x08,0x6f,0x3a,0x0d,0x52,0x50,0x47,0x3a,0x3a,0x42,0x47,0x4d,0x08,0x3a,0x0a,0x40,0x6e,0x61,0x6d,0x65,0x49,0x22,0x0c,0x63,0x61,0x73,0x74,0x6c,0x65,0x36,0x06,0x3a,0x06,0x45,0x54,0x3a,0x0c,0x40,0x76,0x6f,0x6c,0x75,0x6d,0x65,0x69,0x69,0x3a,0x0b,0x40,0x70,0x69,0x74,0x63,0x68,0x69,0x69))
0()
