// EVENT 4162
Name "Rabbit Girl 2"

If(0,25,1)
 221()
 PictureClear(5)
 PictureClear(6)
 ShowMessageFace("",0,0,2,0)
 ShowMessage("......")
 242(2)
 Wait(120)
 241(bytes(0x04,0x08,0x6f,0x3a,0x0d,0x52,0x50,0x47,0x3a,0x3a,0x42,0x47,0x4d,0x08,0x3a,0x0a,0x40,0x6e,0x61,0x6d,0x65,0x49,0x22,0x0c,0x63,0x61,0x73,0x74,0x6c,0x65,0x36,0x06,0x3a,0x06,0x45,0x54,0x3a,0x0c,0x40,0x76,0x6f,0x6c,0x75,0x6d,0x65,0x69,0x69,0x3a,0x0b,0x40,0x70,0x69,0x74,0x63,0x68,0x69,0x69))
 EndEventProcessing()
 0()
EndIf()
PictureDisplay(5,"80_usagi_st01",0,0,0,0,100,100,255,0)
ShowMessageFace("usagi_fc1",0,0,2,1)
ShowMessage("\\n<Barbun>You want me to use my feet on you?\nAll right, I've got some free time...")
ShowMessageFace("",0,0,2,2)
ShowMessage("\\n<Luka>Yes... please.")
ShowMessageFace("usagi_fc1",0,0,2,3)
ShowMessage("\\n<Barbun>Well then. Come to my room...")
ShowMessageFace("",0,0,2,4)
ShowMessage("Thus, I was invited to Barbun's room.")
221()
PictureDisplay(1,"bg195",0,0,0,0,100,100,255,0)
PictureDisplay(5,"ev_usagi_ha1",0,0,0,0,100,100,0,0)
222()
241(bytes(0x04,0x08,0x6f,0x3a,0x0d,0x52,0x50,0x47,0x3a,0x3a,0x42,0x47,0x4d,0x08,0x3a,0x0a,0x40,0x6e,0x61,0x6d,0x65,0x49,0x22,0x09,0x65,0x72,0x6f,0x31,0x06,0x3a,0x06,0x45,0x54,0x3a,0x0c,0x40,0x76,0x6f,0x6c,0x75,0x6d,0x65,0x69,0x69,0x3a,0x0b,0x40,0x70,0x69,0x74,0x63,0x68,0x69,0x69))
ShowMessageFace("usagi_fc1",1,0,2,5)
ShowMessage("\\n<Barbun>What a strange fetish, wanting to be bullied by my toes. What a weird kid. Fufufu.")
ShowMessageFace("",0,0,2,6)
ShowMessage("Barbun walks over and plops down next to me as I lie on the ground. I look over and see her feet reaching out towards my crotch...")
ShowMessageFace("",0,0,2,7)
ShowMessage("\\n<Luka>Oh... Ahh...")
ShowMessageFace("usagi_fc1",0,0,2,8)
ShowMessage("\\n<Barbun>Time for a little punishment, then. My feet will give you more than you bargained for...")
PictureDisplay(5,"ev_usagi_hb1",0,0,0,0,100,100,0,0)
PictureMove(5,null,0,0,0,0,100,100,255,0,30,true)
ShowMessageFace("",0,0,2,9)
ShowMessage("Barbun expertly pulls out my penis and holds it firmly between the soles of her feet, putting a soft sensation of pressure on both sides.")
ShowMessageFace("",0,0,2,10)
ShowMessage("Besides being soft, her feet are nice and warm too. They also feel sweaty, probably from walking around the bar.")
ShowMessageFace("",0,0,2,11)
ShowMessage("\\n<Luka>Ah, auuuu!")
ShowMessageFace("usagi_fc1",0,0,2,12)
ShowMessage("\\n<Barbun>This is pretty embarrassing, isn't it? Deal with it. It's part of your punishment.")
ShowMessageFace("usagi_fc1",0,0,2,13)
ShowMessage("\\n<Barbun>I'm going to make you come like this, and then you can reflect on your actions while staring at my feet covered in your semen.")
ShowMessageFace("",0,0,2,14)
ShowMessage("\\n<Luka>Th-that's not necessary... Aaaah!")
245(bytes(0x04,0x08,0x6f,0x3a,0x0d,0x52,0x50,0x47,0x3a,0x3a,0x42,0x47,0x53,0x08,0x3a,0x0a,0x40,0x6e,0x61,0x6d,0x65,0x49,0x22,0x17,0x6d,0x6f,0x6e,0x5f,0x68,0x73,0x65,0x61,0x6e,0x31,0x37,0x5f,0x73,0x69,0x67,0x6f,0x6b,0x69,0x06,0x3a,0x06,0x45,0x54,0x3a,0x0c,0x40,0x76,0x6f,0x6c,0x75,0x6d,0x65,0x69,0x55,0x3a,0x0b,0x40,0x70,0x69,0x74,0x63,0x68,0x69,0x69))
PictureDisplay(5,"ev_usagi_hb2",0,0,0,0,100,100,255,0)
ShowMessageFace("",0,0,2,15)
ShowMessage("Barbun squeezes my penis between her feet then begins moving them up and down, dexterously stroking my shaft.")
ShowMessageFace("",0,0,2,16)
ShowMessage("She rubs her soles against me from both sides, occasionally pausing to tightly press them together.")
ShowMessageFace("",0,0,2,17)
ShowMessage("\\n<Luka>Ah, aaaaah!")
ShowMessageFace("usagi_fc1",0,0,2,18)
ShowMessage("\\n<Barbun>Huhuhu, do you like big sis's skilled feet? They're going to make a kid like you come\neasily. ♪")
ShowMessageFace("",0,0,2,19)
ShowMessage("Each of her toes sweetly rubs against my glans. Every time my tip gets stuck between them, the pleasure causes my waist to shake.")
ShowMessageFace("",0,0,2,20)
ShowMessage("In addition, I can feel her moist warmth on my skin whenever she presses her soles against me. If she keeps squeezing my dick like this...")
ShowMessageFace("",0,0,2,21)
ShowMessage("\\n<Luka>Aaaah, I'm going to come!")
ShowMessageFace("",0,0,2,22)
ShowMessage("I feel humiliated having my penis toyed with by her feet, but her technique is just so good...")
ShowMessageFace("",0,0,2,23)
ShowMessage("The humiliation and pleasure hit me together, and I feel the urge to ejaculate welling up. My penis begins to uncontrollably pulse.")
ShowMessageFace("usagi_fc1",0,0,2,24)
ShowMessage("\\n<Barbun>I've barely even started. Come on, hold it a bit longer.")
ShowMessageFace("",0,0,2,25)
ShowMessage("\\n<Luka>C-coming...")
 ShowMessage("Aaaaah!")
RunCommonEvent(104)
PictureDisplay(5,"ev_usagi_hb3",0,0,0,0,100,100,255,0)
RunCommonEvent(105)
ShowMessageFace("usagi_fc1",2,0,2,26)
ShowMessage("\\n<Barbun>Kya!")
ShowMessageFace("",0,0,2,27)
ShowMessage("I finish way too quickly from Barbun's footjob. My semen overflows in spurts, getting all over her feet.")
PictureDisplay(5,"ev_usagi_hb4",0,0,0,0,100,100,255,0)
ShowMessageFace("usagi_fc1",1,0,2,28)
ShowMessage("\\n<Barbun>Already? You should be embarrassed for coming that fast.")
ShowMessageFace("",0,0,2,29)
ShowMessage("\\n<Luka>Ahhh...")
ShowMessageFace("",0,0,2,30)
ShowMessage("Barbun continues diligently playing with my penis while I come. Her toes torture my sensitive glans until my last spurt.")
246(2)
ShowMessageFace("usagi_fc1",1,0,2,31)
ShowMessage("\\n<Barbun>It looks like you're done now. Man, you came so fast...")
PictureDisplay(5,"ev_usagi_hb5",0,0,0,0,100,100,255,0)
ShowMessageFace("",0,0,2,32)
ShowMessage("Barbun lifts her feet off of my spent cock and wriggles the strands of sticky semen in my face.")
ShowMessageFace("usagi_fc1",1,0,2,33)
ShowMessage("\\n<Barbun>Take a good look. You should be ashamed at getting your sister's pretty feet so dirty...")
ShowMessageFace("",0,0,2,34)
ShowMessage("The semen hanging between her toes is proof of my disgraceful defeat as a man. Just looking at it makes me shiver in misery.")
ShowMessageFace("",0,0,2,35)
ShowMessage("With that still on my mind, Barbun pulls off her top and exposes her breasts. My heart skips a beat upon seeing her beautiful pink nipples.")
ShowMessageFace("",0,0,2,36)
ShowMessage("\\n<Luka>Oh, oooh...")
ShowMessageFace("usagi_fc1",1,0,2,37)
ShowMessage("\\n<Barbun>It looks like you're satisfied from coming... mostly.")
ShowMessage("Let's see what we can do about that...")
245(bytes(0x04,0x08,0x6f,0x3a,0x0d,0x52,0x50,0x47,0x3a,0x3a,0x42,0x47,0x53,0x08,0x3a,0x0a,0x40,0x6e,0x61,0x6d,0x65,0x49,0x22,0x17,0x6d,0x6f,0x6e,0x5f,0x68,0x73,0x65,0x61,0x6e,0x31,0x37,0x5f,0x73,0x69,0x67,0x6f,0x6b,0x69,0x06,0x3a,0x06,0x45,0x54,0x3a,0x0c,0x40,0x76,0x6f,0x6c,0x75,0x6d,0x65,0x69,0x55,0x3a,0x0b,0x40,0x70,0x69,0x74,0x63,0x68,0x69,0x69))
PictureDisplay(5,"ev_usagi_hb6",0,0,0,0,100,100,255,0)
ShowMessageFace("",0,0,2,38)
ShowMessage("Barbun's soft soles resume their assault on my penis, tightly squeezing it from both sides!")
ShowMessageFace("usagi_fc1",0,0,2,39)
ShowMessage("\\n<Barbun>I'll have you finish between my feet a second time at least. Hora hora, this is no time to relax.")
ShowMessageFace("",0,0,2,40)
ShowMessage("\\n<Luka>That's s-so... s-stop...")
ShowMessageFace("usagi_fc1",0,0,2,41)
ShowMessage("\\n<Barbun>I'm supposed to be punishing you, not giving you what you want. How else are we going to get rid of this bad habit of yours?")
ShowMessageFace("usagi_fc1",0,0,2,42)
ShowMessage("\\n<Barbun>I'll torture you with my feet until you no longer desire to be stepped on.")
ShowMessageFace("",0,0,2,43)
ShowMessage("\\n<Luka>Ah, aaaaah!!")
ShowMessageFace("",0,0,2,44)
ShowMessage("Barbun's face is calm while she toys with my penis. Her toes rub my glans while her soles apply alternating pressure.")
ShowMessageFace("",0,0,2,45)
ShowMessage("With the semen from my first ejaculation acting as lubricant, the sensations have gotten even better. Her foot massage on my dick is incredible...")
ShowMessageFace("",0,0,2,46)
ShowMessage("\\n<Luka>Ha, aaaaah!")
ShowMessageFace("usagi_fc1",0,0,2,47)
ShowMessage("\\n<Barbun>Huhu, what a pitiful moan. Aren't you embarrassed?")
ShowMessageFace("",0,0,2,48)
ShowMessage("My glans slips between her big toe and the toe beside it. With it trapped there, she skillfully kneads the tip, causing my body to writhe and shake uncontrollably.")
ShowMessageFace("",0,0,2,49)
ShowMessage("My waist trembles as I feel the urge to ejaculate rising. Seeing that I'm about to surrender to her already, Barbun smiles and giggles at me.")
ShowMessageFace("usagi_fc1",0,0,2,50)
ShowMessage("\\n<Barbun>All that moaning and it looks like you're about to come again. Please come all over big sis's feet.")
ShowMessageFace("",0,0,2,51)
ShowMessage("\\n<Luka>Oh n-no! Aya... I'm coming!")
ShowMessageFace("",0,0,2,52)
ShowMessage("She moves her toes to give my glans a deeper massage. As they work their way to the sensitive spot underneath my head, I can feel the point of no return closing in...")
ShowMessageFace("usagi_fc1",0,0,2,53)
ShowMessage("\\n<Barbun>Hooora, come...♪")
ShowMessageFace("",0,0,2,54)
ShowMessage("\\n<Luka>Ah, aaaaah!!")
RunCommonEvent(104)
PictureDisplay(5,"ev_usagi_hb7",0,0,0,0,100,100,255,0)
RunCommonEvent(105)
ShowMessageFace("",0,0,2,55)
ShowMessage("Driven over the edge, I once again come from Barbun's deft toes. A gusher of semen shoots into the air and covers her feet.")
246(2)
PictureDisplay(5,"ev_usagi_hb8",0,0,0,0,100,100,255,0)
ShowMessageFace("usagi_fc1",1,0,2,56)
ShowMessage("\\n<Barbun>Wow, you had a lot saved up in there. My feet are absolutely drenched now...")
ShowMessageFace("",0,0,2,57)
ShowMessage("Barbun displays the proof of my surrender again. Each sticky strand dangling between my penis and her toes adds to my sense of humiliation.")
ShowMessageFace("",0,0,2,58)
ShowMessage("\\n<Luka>Hauu...")
ShowMessageFace("usagi_fc1",0,0,2,59)
ShowMessage("\\n<Barbun>Did you learn your lesson? I hope you are scared of your big sister's feet. This isn't the last time they will prey on you, fufuu.")
ShowMessageFace("usagi_fc1",0,0,2,60)
ShowMessage("\\n<Barbun>....you don't already want them to play with you again, do you?")
ShowMessageFace("",0,0,2,61)
ShowMessage("\\n<Luka>N-no...")
221()
PictureClear(5)
ShowMessageFace("",0,0,2,62)
ShowMessage("Having been totally dominated by Barbun's feet, I leave her room, the humiliation weighing heavily on my heart.")
ShowMessageFace("",0,0,2,63)
ShowMessage("Her punishment seems to have left me even more obsessed with her feet...")
ShowMessageFace("",0,0,2,64)
ShowMessage("...")
242(2)
Wait(120)
241(bytes(0x04,0x08,0x6f,0x3a,0x0d,0x52,0x50,0x47,0x3a,0x3a,0x42,0x47,0x4d,0x08,0x3a,0x0a,0x40,0x6e,0x61,0x6d,0x65,0x49,0x22,0x0c,0x63,0x61,0x73,0x74,0x6c,0x65,0x36,0x06,0x3a,0x06,0x45,0x54,0x3a,0x0c,0x40,0x76,0x6f,0x6c,0x75,0x6d,0x65,0x69,0x69,0x3a,0x0b,0x40,0x70,0x69,0x74,0x63,0x68,0x69,0x69))
0()
