// EVENT 2152
Name "Seduction: Novistador Girl"

355("$game_troop.lose_event_id = 3152")
ChangeVariable(26,26,0,3,3,1,4)
ChangeVariable(26,26,4,0,10)
ShowMessageFace("nobisutam_fc1",2,0,2,1)
ShowMessage("\\n<Novistador Girl>Big trouble!")
ShowMessageFace("nobisutam_fc1",0,0,2,2)
ShowMessage("\\n<Novistador Girl>I'll do amazing things with my boobs...")
ShowMessage("So, let me escape...")
PictureDisplay(5,"ev_nobisutam_ct01",0,0,0,0,100,100,255,0)
ShowMessageFace("",0,0,2,3)
ShowMessage("The Novistador Girl brings her nipples close to Luka's penis...")
PictureDisplay(5,"ev_nobisutam_ct02",0,0,0,0,100,100,255,0)
ShowMessageFace("",0,0,2,4)
ShowMessage("Her nipples' mouth opens wide!")
ShowMessageFace("nobisutam_fc1",0,0,2,5)
ShowMessage("\\n<Novistador Girl>Put your penis inside here...")
ShowMessage("It feels amazing, all your milk will come out.")
ChangeSwitch(98,98,0)
ChangeSwitch(96,96,0)
ShowChoices(strings("Ignore","Give in to temptation"),1)
IfPlayerPicksChoice(0,"無視する")
 ShowMessageFace("",0,0,2,6)
 ShowMessage("But Luka shakes off the temptation!")
 RunCommonEvent(1999)
 EndEventProcessing()
 0()
IfPlayerPicksChoice(1,"誘惑に乗る")
 0()
404()
ShowMessageFace("nobisutam_fc1",0,0,2,7)
ShowMessage("\\n<Novistador Girl>Ok, I'll put it in... Nyuun.")
ChangeVariable(26,26,3,0,6)
250(bytes(0x04,0x08,0x6f,0x3a,0x0c,0x52,0x50,0x47,0x3a,0x3a,0x53,0x45,0x08,0x3a,0x0a,0x40,0x6e,0x61,0x6d,0x65,0x49,0x22,0x11,0x6d,0x6f,0x6e,0x5f,0x65,0x72,0x6f,0x5f,0x70,0x79,0x75,0x31,0x06,0x3a,0x06,0x45,0x54,0x3a,0x0b,0x40,0x70,0x69,0x74,0x63,0x68,0x69,0x69,0x3a,0x0c,0x40,0x76,0x6f,0x6c,0x75,0x6d,0x65,0x69,0x69))
PictureDisplay(5,"ev_nobisutam_ct03",0,0,0,0,100,100,255,0)
311(0,1,1,1,26,true)
ShowMessageFace("",0,0,2,8)
ShowMessage("Luka's penis is taken inside her nipple!")
ShowMessage("Her breast sucks in his penis, melting him in ecstasy!\\D")
ShowMessage("Luka takes \\V[26] damage!")
ChangeVariable(27,27,0,3,3,1,2)
If(1,27,0,0,0)
 JumpToLabel("射精1")
 0()
EndIf()
ShowMessageFace("nobisutam_fc1",0,0,2,9)
ShowMessage("\\n<Novistador Girl>Does my boob feel good?")
250(bytes(0x04,0x08,0x6f,0x3a,0x0c,0x52,0x50,0x47,0x3a,0x3a,0x53,0x45,0x08,0x3a,0x0a,0x40,0x6e,0x61,0x6d,0x65,0x49,0x22,0x13,0x6d,0x6f,0x6e,0x5f,0x65,0x72,0x6f,0x5f,0x63,0x68,0x75,0x70,0x61,0x34,0x06,0x3a,0x06,0x45,0x54,0x3a,0x0b,0x40,0x70,0x69,0x74,0x63,0x68,0x69,0x69,0x3a,0x0c,0x40,0x76,0x6f,0x6c,0x75,0x6d,0x65,0x69,0x69))
311(0,1,1,1,26,true)
ShowMessageFace("",0,0,2,10)
ShowMessage("The nipple hole contracts!")
ShowMessage("The elastic feeling is overwhelming Luka!\\D")
ShowMessage("Luka takes \\V[26] damage!")
ChangeVariable(27,27,0,3,3,1,2)
If(1,27,0,0,0)
 JumpToLabel("射精2")
 0()
EndIf()
DefineLabel("射精1")
ShowMessageFace("",0,0,2,11)
ShowMessage("\\\n<Luka>W-What is this...!")
RunCommonEvent(104)
PictureDisplay(5,"ev_nobisutam_ct04",0,0,0,0,100,100,255,0)
RunCommonEvent(105)
ShowMessageFace("",0,0,2,12)
ShowMessage("Feeling too good, I come in seconds.")
ShowMessage("My semen pours into her nipple.")
RunCommonEvent(2000)
ShowMessageFace("nobisutam_fc1",0,0,2,13)
ShowMessage("\\n<Novistador Girl>So much milk...")
EndEventProcessing()
DefineLabel("射精2")
ShowMessageFace("",0,0,2,14)
ShowMessage("\\n<Luka>Ahh... That feels so good...")
RunCommonEvent(104)
PictureDisplay(5,"ev_nobisutam_ct04",0,0,0,0,100,100,255,0)
RunCommonEvent(105)
ShowMessageFace("",0,0,2,15)
ShowMessage("Losing all strength, I explode.")
ShowMessage("My semen pours into her nipple.")
RunCommonEvent(2000)
ShowMessageFace("nobisutam_fc1",0,0,2,16)
ShowMessage("\\n<Novistador Girl>So much milk...♪")
EndEventProcessing()
0()
