﻿// EVENT 1168
Name "Talk: Frog Girl A"

If(1,20,0,1,0)
 JumpToLabel("情報")
 0()
EndIf()
If(1,20,0,2,0)
 JumpToLabel("質問")
 0()
EndIf()
If(1,20,0,3,0)
 JumpToLabel("要求")
 0()
EndIf()
If(1,20,0,4,0)
 JumpToLabel("贈与")
 0()
EndIf()
DefineLabel("情報")
ChangeVariable(13,13,0,2,1,100)
If(1,13,0,10,2)
 ShowMessageFace("kaeru_fc1",0,0,2,1)
 ShowMessage("\\n<Frog Girl>Ribbit ribbit...")
 EndEventProcessing()
 0()
EndIf()
If(1,13,0,20,2)
 ShowMessageFace("kaeru_fc1",0,0,2,2)
 ShowMessage("\\n<Frog Girl>Frogs are omnivores, we can eat anything. ♪\nBut it's impossible for us to eat big creatures like humans.")
 EndEventProcessing()
 0()
EndIf()
If(1,13,0,30,2)
 ShowMessageFace("kaeru_fc1",0,0,2,3)
 ShowMessage("\\n<Frog Girl>Boing! Boing!")
 EndEventProcessing()
 0()
EndIf()
If(1,13,0,40,2)
 ShowMessageFace("kaeru_fc1",1,0,2,4)
 ShowMessage("\\n<Frog Girl>I'll give you a good licking with this long tongue. ♪")
 EndEventProcessing()
 0()
EndIf()
If(1,13,0,50,2)
 ShowMessageFace("kaeru_fc1",0,0,2,5)
 ShowMessage("\\n<Frog Girl>The Slug and Earthworm Girls are good friends of ours. We're slimy friends. ♪")
 EndEventProcessing()
 0()
EndIf()
If(1,13,0,60,2)
 ShowMessageFace("kaeru_fc1",0,0,2,6)
 ShowMessage("\\n<Frog Girl>Frooog sooong♪")
 EndEventProcessing()
 0()
EndIf()
If(1,13,0,70,2)
 ShowMessageFace("kaeru_fc1",0,0,2,7)
 ShowMessage("\\n<Frog Girl>Where did Purple go? She's a timid and easily frightened kid, but...")
 ShowMessageFace("kaeru_fc1",0,0,2,8)
 ShowMessage("\\n<Frog Girl>Well, she'll come out once we're squeezing your semen. ♪")
 EndEventProcessing()
 0()
EndIf()
If(1,13,0,80,2)
 ShowMessageFace("kaeru_fc1",0,0,2,9)
 ShowMessage("\\n<Frog Girl>We have lots of damp friends in the swamp. ♪\nEveryone is playing around in the wetness. ♪")
 EndEventProcessing()
 0()
EndIf()
If(1,13,0,90,2)
 ShowMessageFace("kaeru_fc1",0,0,2,10)
 ShowMessage("\\n<Frog Girl>By stretching our tongues, we can catch fish in the swamp. ♪")
 EndEventProcessing()
 0()
EndIf()
If(1,13,0,100,2)
 ShowMessageFace("kaeru_fc1",0,0,2,11)
 ShowMessage("\\n<Frog Girl>Frog Girls are a species that form groups. ♪")
 EndEventProcessing()
 0()
EndIf()
DefineLabel("質問")
ChangeVariable(13,13,0,2,1,50)
If(1,13,0,10,2)
 ShowMessageFace("kaeru_fc1",0,0,2,12)
 ShowMessage("\\n<Frog Girl>I love swamps and ponds! ♪\nWhat kind of place do you like to live in?")
 ShowChoices(strings("An ordinary house","A luxurious apartment","Swamps and ponds"),0)
 IfPlayerPicksChoice(0,"普通の家")
  ShowMessageFace("kaeru_fc1",2,0,2,13)
  ShowMessage("\\n<Frog Girl>That doesn't seem like a dream...")
  0()
 IfPlayerPicksChoice(1,"高級マンション")
  ShowMessageFace("kaeru_fc1",0,0,2,14)
  ShowMessage("\\n<Frog Girl>You have big dreams of being rich. ♪")
  355("change_friend(5)")
  0()
 IfPlayerPicksChoice(2,"沼や池")
  ShowMessageFace("kaeru_fc1",0,0,2,15)
  ShowMessage("\\n<Frog Girl>Then you should live with me. ♪")
  355("change_friend(10)")
  0()
 404()
 EndEventProcessing()
 0()
EndIf()
If(1,13,0,20,2)
 ShowMessageFace("kaeru_fc1",0,0,2,16)
 ShowMessage("\\n<Frog Girl>Ribbit Ribbit. ♪")
 ShowChoices(strings("That's a good singing voice","Are you drinking too much alcohol?","Ribbit ribbit...♪"),0)
 IfPlayerPicksChoice(0,"いい歌声だ")
  ShowMessageFace("kaeru_fc1",0,0,2,17)
  ShowMessage("\\n<Frog Girl>Right? Ribbit ribbit. ♪")
  355("change_friend(5)")
  0()
 IfPlayerPicksChoice(1,"お酒の飲み過ぎ？")
  ShowMessageFace("kaeru_fc1",2,0,2,18)
  ShowMessage("\\n<Frog Girl>Wrong, I'm singing!")
  355("change_friend(-5)")
  0()
 IfPlayerPicksChoice(2,"ゲロゲロゲロ～♪")
  ShowMessageFace("kaeru_fc1",0,0,2,19)
  ShowMessage("\\n<Frog Girl>Will you sing along?\nThen let's sing a lot. ♪")
  355("change_friend(10)")
  0()
 404()
 EndEventProcessing()
 0()
EndIf()
If(1,13,0,30,2)
 ShowMessageFace("kaeru_fc1",0,0,2,20)
 ShowMessage("\\n<Frog Girl>Hey hey...\nwould you like to become slimy friends with me?")
 ShowChoices(strings("I will","I won't","What's a slimy friend?"),0)
 IfPlayerPicksChoice(0,"なる")
  ShowMessageFace("kaeru_fc1",1,0,2,21)
  ShowMessage("\\n<Frog Girl>Then let's be slimy! ♪")
  355("change_friend(10)")
  0()
 IfPlayerPicksChoice(1,"ならない")
  ShowMessageFace("kaeru_fc1",2,0,2,22)
  ShowMessage("\\n<Frog Girl>What, you're mean!")
  355("change_friend(-5)")
  0()
 IfPlayerPicksChoice(2,"ヌル友って何？")
  ShowMessageFace("kaeru_fc1",0,0,2,23)
  ShowMessage("\\n<Frog Girl>What is it...? It's a friend who's slimy. Isn't that common sense in the swamp?")
  0()
 404()
 EndEventProcessing()
 0()
EndIf()
If(1,13,0,40,2)
 ShowMessageFace("kaeru_fc1",0,0,2,24)
 ShowMessage("\\n<Frog Girl>A frog leaps into an old pond...")
 ShowChoices(strings("The sound of water","Traces of a dream","Splash splash!"),0)
 IfPlayerPicksChoice(0,"水の音")
  ShowMessageFace("kaeru_fc1",1,0,2,25)
  ShowMessage("\\n<Frog Girl>You know well! Are you a haiku maniac?")
  355("change_friend(10)")
  0()
 IfPlayerPicksChoice(1,"夢の跡")
  ShowMessageFace("kaeru_fc1",2,0,2,26)
  ShowMessage("\\n<Frog Girl>That sounds rather sad...")
  0()
 IfPlayerPicksChoice(2,"ぼちゃんボチャン！")
  ShowMessageFace("kaeru_fc1",2,0,2,27)
  ShowMessage("\\n<Frog Girl>You don't have a talent for poetry...")
  355("change_friend(-5)")
  0()
 404()
 EndEventProcessing()
 0()
EndIf()
If(1,13,0,50,2)
 ShowMessageFace("kaeru_fc1",0,0,2,28)
 ShowMessage("\\n<Frog Girl>Do you know what combat skills a frog is good with?")
 ShowChoices(strings("Sword skills","Unarmed skills","Boomerang skills"),0)
 IfPlayerPicksChoice(0,"剣技")
  ShowMessageFace("kaeru_fc1",2,0,2,29)
  ShowMessage("\\n<Frog Girl>I'm not good with swords...\nI don't like using weapons!")
  0()
 IfPlayerPicksChoice(1,"格闘技")
  ShowMessageFace("kaeru_fc1",0,0,2,30)
  ShowMessage("\\n<Frog Girl>Yes, I'm good at unarmed combat.\nA frog's kicking power is amazing!")
  355("change_friend(10)")
  0()
 IfPlayerPicksChoice(2,"ブーメラン技")
  ShowMessageFace("kaeru_fc1",2,0,2,31)
  ShowMessage("\\n<Frog Girl>I'm not good at throwing...\nA Slime Girl taught me, but I can't improve.")
  0()
 404()
 EndEventProcessing()
 0()
EndIf()
DefineLabel("要求")
ChangeVariable(13,13,0,2,1,30)
If(1,13,0,10,2)
 If(8,14)
  ShowMessageFace("kaeru_fc1",0,0,2,32)
  ShowMessage("\\n<Frog Girl>Give me some eye drops. When I'm in the swamp, garbage often gets into my eyes...")
  ChangeVariable(24,24,0,3,0,14,0)
  ShowMessageFace("",0,0,2,33)
  ShowMessage("Do you want to give some \\ii[14]? (Have:\\V[24])")
  ShowChoices(strings("Yes","No"),2)
  IfPlayerPicksChoice(0,"Yes")
   ShowMessageFace("kaeru_fc1",0,0,2,34)
   ShowMessage("\\n<Frog Girl>Thanks! ♪")
   ChangeInventory_Item(14,1,0,1)
   355("change_friend(20)")
   EndEventProcessing()
   0()
  IfPlayerPicksChoice(1,"No")
   ShowMessageFace("kaeru_fc1",2,0,2,35)
   ShowMessage("\\n<Frog Girl>You won't give it to me...?")
   EndEventProcessing()
   0()
  404()
  0()
 Else()
  ChangeVariable(13,13,0,0,20)
  0()
 EndIf()
 0()
EndIf()
If(1,13,0,20,2)
 If(8,301)
  ShowMessageFace("kaeru_fc1",0,0,2,36)
  ShowMessage("\\n<Frog Girl>I'm hungry...\nDo you have an apple?")
  ChangeVariable(24,24,0,3,0,301,0)
  ShowMessageFace("",0,0,2,37)
  ShowMessage("Do you want to give an \\ii[301]? (Have:\\V[24])")
  ShowChoices(strings("Yes","No"),2)
  IfPlayerPicksChoice(0,"Yes")
   ShowMessageFace("kaeru_fc1",0,0,2,38)
   ShowMessage("\\n<Frog Girl>Thanks! ♪")
   ChangeInventory_Item(301,1,0,1)
   355("change_friend(30)")
   EndEventProcessing()
   0()
  IfPlayerPicksChoice(1,"No")
   ShowMessageFace("kaeru_fc1",2,0,2,39)
   ShowMessage("\\n<Frog Girl>You won't give it to me...?")
   EndEventProcessing()
   0()
  404()
  0()
 Else()
  ChangeVariable(13,13,0,0,30)
  0()
 EndIf()
 0()
EndIf()
If(1,13,0,30,2)
 ShowMessageFace("kaeru_fc1",0,0,2,40)
 ShowMessage("\\n<Frog Girl>I want a cute accessory...\nWon't you give me some money?")
 If(7,648,0)
  ChangeVariable(24,24,0,3,7,2,0)
  ShowMessageFace("",0,0,2,41)
  ShowMessage("Do you want to give 648G? (Have:\\V[24])")
  ShowChoices(strings("Yes","No"),2)
  IfPlayerPicksChoice(0,"Yes")
   ShowMessageFace("kaeru_fc1",0,0,2,42)
   ShowMessage("\\n<Frog Girl>Thanks! ♪")
   125(1,0,648)
   355("change_friend(25)")
   EndEventProcessing()
   0()
  IfPlayerPicksChoice(1,"No")
   ShowMessageFace("kaeru_fc1",2,0,2,43)
   ShowMessage("\\n<Frog Girl>You won't give it to me...?")
   EndEventProcessing()
   0()
  404()
  0()
 Else()
  ShowMessageFace("kaeru_fc1",2,0,2,44)
  ShowMessage("\\n<Frog Girl>...Are you poor too?")
  EndEventProcessing()
  0()
 EndIf()
 0()
EndIf()
DefineLabel("贈与")
ChangeVariable(13,13,0,2,1,30)
If(1,25,0,1,0)
 ChangeVariable(13,13,0,0,30)
 ChangeVariable(25,25,0,0,0)
 0()
EndIf()
If(1,25,0,2,0)
 ChangeVariable(13,13,0,2,1,20)
 ChangeVariable(25,25,0,0,0)
 0()
EndIf()
If(1,13,0,10,2)
 ShowMessageFace("kaeru_fc1",0,0,2,45)
 ShowMessage("\\n<Frog Girl>I'll give you this.\nBe careful around my poisonous skin.")
 250(bytes(0x04,0x08,0x6f,0x3a,0x0c,0x52,0x50,0x47,0x3a,0x3a,0x53,0x45,0x08,0x3a,0x0a,0x40,0x6e,0x61,0x6d,0x65,0x49,0x22,0x0a,0x49,0x74,0x65,0x6d,0x31,0x06,0x3a,0x06,0x45,0x54,0x3a,0x0b,0x40,0x70,0x69,0x74,0x63,0x68,0x69,0x69,0x3a,0x0c,0x40,0x76,0x6f,0x6c,0x75,0x6d,0x65,0x69,0x55))
 ChangeInventory_Item(13,0,0,1)
 ShowMessageFace("",0,0,2,46)
 ShowMessage("The Frog Girl gave you an \\ii[13]!")
 EndEventProcessing()
 0()
EndIf()
If(1,13,0,20,2)
 ShowMessageFace("kaeru_fc1",0,0,2,47)
 ShowMessage("\\n<Frog Girl>You want my mucus, don't you?")
 250(bytes(0x04,0x08,0x6f,0x3a,0x0c,0x52,0x50,0x47,0x3a,0x3a,0x53,0x45,0x08,0x3a,0x0a,0x40,0x6e,0x61,0x6d,0x65,0x49,0x22,0x0a,0x49,0x74,0x65,0x6d,0x31,0x06,0x3a,0x06,0x45,0x54,0x3a,0x0b,0x40,0x70,0x69,0x74,0x63,0x68,0x69,0x69,0x3a,0x0c,0x40,0x76,0x6f,0x6c,0x75,0x6d,0x65,0x69,0x55))
 ChangeInventory_Item(165,0,0,1)
 ShowMessageFace("",0,0,2,48)
 ShowMessage("The Frog Girl gave you some \\ii[165]!")
 EndEventProcessing()
 0()
EndIf()
If(1,13,0,30,2)
 ShowMessageFace("kaeru_fc1",0,0,2,49)
 ShowMessage("\\n<Frog Girl>Make yourself stylish with this money.")
 250(bytes(0x04,0x08,0x6f,0x3a,0x0c,0x52,0x50,0x47,0x3a,0x3a,0x53,0x45,0x08,0x3a,0x0a,0x40,0x6e,0x61,0x6d,0x65,0x49,0x22,0x0a,0x49,0x74,0x65,0x6d,0x31,0x06,0x3a,0x06,0x45,0x54,0x3a,0x0b,0x40,0x70,0x69,0x74,0x63,0x68,0x69,0x69,0x3a,0x0c,0x40,0x76,0x6f,0x6c,0x75,0x6d,0x65,0x69,0x55))
 125(0,0,1080)
 ShowMessageFace("",0,0,2,50)
 ShowMessage("The Frog Girl gave you 1080G!")
 EndEventProcessing()
 0()
EndIf()
0()
