﻿// EVENT 0645
Name "Event: Seahorse Marine"

ChangeSwitch(73,73,0)
If(1,129,0,0,0)
 ChangeVariable(11,11,0,2,1,10)
 If(1,11,0,8,2)
  ShowMessageFace("tatunoko_k_fc1",0,0,2,1)
  ShowMessage("\\n<Seahorse Marine>You want to be a marine?\nThen I'll give you a spear as a present!")
  250(bytes(0x04,0x08,0x6f,0x3a,0x0c,0x52,0x50,0x47,0x3a,0x3a,0x53,0x45,0x08,0x3a,0x0a,0x40,0x6e,0x61,0x6d,0x65,0x49,0x22,0x0a,0x49,0x74,0x65,0x6d,0x31,0x06,0x3a,0x06,0x45,0x54,0x3a,0x0b,0x40,0x70,0x69,0x74,0x63,0x68,0x69,0x69,0x3a,0x0c,0x40,0x76,0x6f,0x6c,0x75,0x6d,0x65,0x69,0x55))
  ChangeInventoryWeapon(1501,0,0,1,false)
  ChangeVariable(129,129,0,0,1)
  ChangeSwitch(73,73,1)
  EndEventProcessing()
  0()
 EndIf()
 If(1,11,0,9,1)
  ShowMessageFace("tatunoko_k_fc1",0,0,2,2)
  ShowMessage("\\n<Seahorse Marine>You want to be a marine?\nThen I'll give you a rare spear as a present!")
  250(bytes(0x04,0x08,0x6f,0x3a,0x0c,0x52,0x50,0x47,0x3a,0x3a,0x53,0x45,0x08,0x3a,0x0a,0x40,0x6e,0x61,0x6d,0x65,0x49,0x22,0x0a,0x49,0x74,0x65,0x6d,0x31,0x06,0x3a,0x06,0x45,0x54,0x3a,0x0b,0x40,0x70,0x69,0x74,0x63,0x68,0x69,0x69,0x3a,0x0c,0x40,0x76,0x6f,0x6c,0x75,0x6d,0x65,0x69,0x55))
  ChangeInventoryWeapon(1504,0,0,1,false)
  ChangeVariable(129,129,0,0,1)
  ChangeSwitch(73,73,1)
  EndEventProcessing()
  0()
 EndIf()
 0()
EndIf()
If(1,129,0,1,0)
 ShowMessageFace("tatunoko_k_fc1",2,0,2,3)
 ShowMessage("\\n<Seahorse Marine>The navy is short-handed...\nYet we don't get a raise in our salaries, it's the most absurd thing in the world!")
 ChangeSwitch(73,73,1)
 EndEventProcessing()
 0()
EndIf()
0()
