// EVENT 4242
Name "Meda Girl 2"

If(0,25,1)
 221()
 PictureClear(5)
 PictureClear(6)
 ShowMessageFace("",0,0,2,0)
 ShowMessage("......")
 242(2)
 Wait(120)
 241(bytes(0x04,0x08,0x6f,0x3a,0x0d,0x52,0x50,0x47,0x3a,0x3a,0x42,0x47,0x4d,0x08,0x3a,0x0a,0x40,0x6e,0x61,0x6d,0x65,0x49,0x22,0x0c,0x63,0x61,0x73,0x74,0x6c,0x65,0x36,0x06,0x3a,0x06,0x45,0x54,0x3a,0x0c,0x40,0x76,0x6f,0x6c,0x75,0x6d,0x65,0x69,0x69,0x3a,0x0b,0x40,0x70,0x69,0x74,0x63,0x68,0x69,0x69))
 EndEventProcessing()
 0()
EndIf()
PictureDisplay(5,"80_meda_st01",0,0,0,0,100,100,255,0)
ShowMessageFace("meda_fc1",0,0,2,1)
ShowMessage("\\n<Meru Meru>Can I squeeze some...?")
ShowMessageFace("",0,0,2,2)
ShowMessage("\\n<Luka>O-only a little...")
ShowMessageFace("meda_fc1",0,0,2,3)
ShowMessage("\\n<Meru Meru>.........♪")
241(bytes(0x04,0x08,0x6f,0x3a,0x0d,0x52,0x50,0x47,0x3a,0x3a,0x42,0x47,0x4d,0x08,0x3a,0x0a,0x40,0x6e,0x61,0x6d,0x65,0x49,0x22,0x09,0x65,0x72,0x6f,0x31,0x06,0x3a,0x06,0x45,0x54,0x3a,0x0c,0x40,0x76,0x6f,0x6c,0x75,0x6d,0x65,0x69,0x69,0x3a,0x0b,0x40,0x70,0x69,0x74,0x63,0x68,0x69,0x69))
250(bytes(0x04,0x08,0x6f,0x3a,0x0c,0x52,0x50,0x47,0x3a,0x3a,0x53,0x45,0x08,0x3a,0x0a,0x40,0x6e,0x61,0x6d,0x65,0x49,0x22,0x12,0x6d,0x6f,0x6e,0x5f,0x65,0x72,0x6f,0x5f,0x6e,0x61,0x6d,0x65,0x32,0x06,0x3a,0x06,0x45,0x54,0x3a,0x0b,0x40,0x70,0x69,0x74,0x63,0x68,0x69,0x69,0x3a,0x0c,0x40,0x76,0x6f,0x6c,0x75,0x6d,0x65,0x69,0x69))
ShowMessageFace("",0,0,2,4)
ShowMessage("Tentacles shoot out of Meru Meru's body and wrap around me!")
ShowMessage("She starts to slowly pull me towards her.")
ShowMessageFace("",0,0,2,5)
ShowMessage("\\n<Luka>Aaa!")
ShowMessageFace("",0,0,2,6)
ShowMessage("As I'm slowly drawn towards her, she opens a mouth in her lower abdomen.")
ShowMessage("Inside that mouth are thousands of wriggling tentacles...")
ShowMessageFace("",0,0,2,7)
ShowMessage("Things that look like worms or eels are wriggling and waving all over.")
ShowMessageFace("",0,0,2,8)
ShowMessage("\\n<Luka>No way...")
ShowMessageFace("",0,0,2,9)
ShowMessage("She isn't going to put me in there, is she...?")
ShowMessage("As I shudder in horror, a sense of sick excitement rises in me.")
ShowMessageFace("",0,0,2,10)
ShowMessage("In that wriggling mass of tentacles, what would it feel like...?")
ShowMessageFace("",0,0,2,11)
ShowMessage("If my dick was in there, how good would it feel...?")
ShowMessageFace("",0,0,2,12)
ShowMessage("\\n<Luka>Aaa...")
245(bytes(0x04,0x08,0x6f,0x3a,0x0d,0x52,0x50,0x47,0x3a,0x3a,0x42,0x47,0x53,0x08,0x3a,0x0a,0x40,0x6e,0x61,0x6d,0x65,0x49,0x22,0x1a,0x6d,0x6f,0x6e,0x5f,0x68,0x73,0x65,0x61,0x6e,0x32,0x31,0x5f,0x74,0x65,0x6e,0x74,0x61,0x63,0x6c,0x65,0x32,0x06,0x3a,0x06,0x45,0x54,0x3a,0x0c,0x40,0x76,0x6f,0x6c,0x75,0x6d,0x65,0x69,0x55,0x3a,0x0b,0x40,0x70,0x69,0x74,0x63,0x68,0x69,0x69))
PictureDisplay(5,"ev_meda_ha1",0,0,0,0,100,100,255,0)
ShowMessageFace("",0,0,2,13)
ShowMessage("With a final pull, she forces me into her mouth!")
ShowMessageFace("",0,0,2,14)
ShowMessage("\\n<Luka>Faaa!")
ShowMessageFace("",0,0,2,15)
ShowMessage("The worm-like tentacles start to rise up one by one and wrap around my penis.")
ShowMessage("Squeezing, wrapping, coiling...")
ShowMessageFace("",0,0,2,16)
ShowMessage("The tentacles are massaging me all over as if they have a mind of their own.")
ShowMessageFace("",0,0,2,17)
ShowMessage("\\n<Luka>Hii! Stop!")
ShowMessageFace("",0,0,2,18)
ShowMessage("Fearing the creepy pleasure attacking me, I try to pull out my waist.")
ShowMessage("The tentacles holding me don't allow me to move, though.")
ShowMessageFace("",0,0,2,19)
ShowMessage("Rather than escaping, I'm instead forced deeper into her.")
ShowMessageFace("",0,0,2,20)
ShowMessage("I'm stuck to her... There's no escape...")
ShowMessageFace("",0,0,2,21)
ShowMessage("\\n<Luka>Auu... Let go!\nAaaaa!")
ShowMessageFace("",0,0,2,22)
ShowMessage("My penis is completely covered by her writhing tentacles inside her mouth.")
ShowMessageFace("",0,0,2,23)
ShowMessage("The creepy feeling starts to overpower my horror at the situation.")
ShowMessageFace("",0,0,2,24)
ShowMessage("\\n<Luka>Faaa! Stop...!")
ShowMessageFace("meda_fc1",0,0,2,25)
ShowMessage("\\n<Meru Meru>.............")
ShowMessageFace("",0,0,2,26)
ShowMessage("The Meda stares directly into my eyes.")
ShowMessage("Not showing any emotion, it's the gaze of someone staring at their prey.")
ShowMessageFace("",0,0,2,27)
ShowMessage("Stimulating her prey, forcing them to ejaculate... It's just an emotionless process to her.")
ShowMessageFace("",0,0,2,28)
ShowMessage("\\n<Luka>Auuu!")
ShowMessageFace("",0,0,2,29)
ShowMessage("Inside her mouth, the thousands of tentacles start to increase their speed.")
ShowMessageFace("",0,0,2,30)
ShowMessage("The tentacles wrapped around me tighten up, the sweet pleasure causing me to drool.")
ShowMessageFace("",0,0,2,31)
ShowMessage("\\n<Luka>Faa! Too good...")
ShowMessageFace("",0,0,2,32)
ShowMessage("Feeling the rising orgasm in me, I realize that I've given myself completely to this pleasure.")
ShowMessageFace("",0,0,2,33)
ShowMessage("All I want to do is come just like this...")
ShowMessageFace("meda_fc1",0,0,2,34)
ShowMessage("\\n<Meru Meru>.............")
ShowMessageFace("",0,0,2,35)
ShowMessage("Staring into her unfeeling eyes, the stimulation I'm feeling in her mouth suddenly becomes even more captivating.")
ShowMessageFace("",0,0,2,36)
ShowMessage("Countless tentacles in her, all doing nothing but forcing me to ejaculate...")
ShowMessageFace("",0,0,2,37)
ShowMessage("\\n<Luka>Aaaa!")
RunCommonEvent(104)
PictureDisplay(5,"ev_meda_ha2",0,0,0,0,100,100,255,0)
RunCommonEvent(105)
ShowMessageFace("",0,0,2,38)
ShowMessage("Finally giving in to the tentacles urging me to come, I explode in her mouth, shooting semen all over the wriggling tentacles.")
ShowMessageFace("meda_fc1",0,0,2,39)
ShowMessage("\\n<Meru Meru>.............")
245(bytes(0x04,0x08,0x6f,0x3a,0x0d,0x52,0x50,0x47,0x3a,0x3a,0x42,0x47,0x53,0x08,0x3a,0x0a,0x40,0x6e,0x61,0x6d,0x65,0x49,0x22,0x1a,0x6d,0x6f,0x6e,0x5f,0x68,0x73,0x65,0x61,0x6e,0x32,0x32,0x5f,0x74,0x65,0x6e,0x74,0x61,0x63,0x6c,0x65,0x33,0x06,0x3a,0x06,0x45,0x54,0x3a,0x0c,0x40,0x76,0x6f,0x6c,0x75,0x6d,0x65,0x69,0x55,0x3a,0x0b,0x40,0x70,0x69,0x74,0x63,0x68,0x69,0x69))
ShowMessageFace("",0,0,2,40)
ShowMessage("As soon as the last drop is squeezed out of me, the tentacles start to massage me again.")
ShowMessageFace("",0,0,2,41)
ShowMessage("Crawling all over me, the tentacles each move independently of the other as they continue to forcefully try to make me ejaculate.")
ShowMessageFace("",0,0,2,42)
ShowMessage("\\n<Luka>Hya! Haaa!")
ShowMessageFace("",0,0,2,43)
ShowMessage("As if they were hungry for more, the countless tentacles squeeze me and massage me all over.")
ShowMessageFace("",0,0,2,44)
ShowMessage("The creepy pleasure already starts to move me to the edge again.")
ShowMessageFace("",0,0,2,45)
ShowMessage("\\n<Luka>Hauuu...\nAaaaa!")
ShowMessageFace("",0,0,2,46)
ShowMessage("Meru Meru continues to stare at me coldly, acting just like an insect mechanically eating her prey.")
ShowMessageFace("",0,0,2,47)
ShowMessage("Caught by an insect, who only wants my fluids...")
ShowMessageFace("meda_fc1",0,0,2,48)
ShowMessage("\\n<Meru Meru>Semen sucked... Does it feel good...?")
ShowMessageFace("",0,0,2,49)
ShowMessage("Without letting me go, Meru Meru asks me that.")
ShowMessage("It's like she's lusting after my dick greedily...")
ShowMessageFace("",0,0,2,50)
ShowMessage("\\n<Luka>Aaaa... Stop...")
ShowMessageFace("",0,0,2,51)
ShowMessage("I beg her, but she gives no mercy.")
ShowMessage("Instead, the stimulation continues and forces me to another orgasm.")
ShowMessageFace("",0,0,2,54)
ShowMessage("\\n<Luka>C...Coming! Ahhh!")
RunCommonEvent(104)
PictureDisplay(5,"ev_meda_ha3",0,0,0,0,100,100,255,0)
RunCommonEvent(105)
ShowMessageFace("",0,0,2,55)
ShowMessage("The moment when I came, the tentacles all started wriggling around in a panic, as if they were all trying to be the first to get a taste.")
ShowMessage("Moving all over the place, they squeeze and rub against me in their desperation to get my semen.")
ShowMessageFace("",0,0,2,56)
ShowMessage("\\n<Luka>Aaaaa...")
ShowMessageFace("",0,0,2,57)
ShowMessage("After my ejaculation is over, they rub me even harder than before, as if urging on another.")
ShowMessage("Unable to endure the nonstop stimulation, I'm driven to the edge again.")
RunCommonEvent(104)
PictureDisplay(5,"ev_meda_ha4",0,0,0,0,100,100,255,0)
RunCommonEvent(105)
ShowMessageFace("",0,0,2,58)
ShowMessage("\\n<Luka>Ah... Unnngh...")
246(2)
PictureDisplay(5,"80_meda_st01",0,0,0,0,100,100,255,0)
PictureClear(6)
ShowMessageFace("",0,0,2,59)
ShowMessage("After nearly squeezing me dry, Meru Meru releases me.")
ShowMessage("I can't even stand at the moment...")
ShowMessageFace("meda_fc1",0,0,2,60)
ShowMessage("\\n<Meru Meru>Anymore, and you'll die...\nSo, I stopped...")
ShowMessageFace("",0,0,2,61)
ShowMessage("\\n<Luka>.............")
ShowMessageFace("",0,0,2,62)
ShowMessage("I really would have been dead with a bit more.")
ShowMessage("Thank goodness I was good friends with Meru Meru...")
221()
PictureClear(5)
PictureClear(6)
ShowMessageFace("",0,0,2,63)
ShowMessage(".............")
242(2)
Wait(120)
241(bytes(0x04,0x08,0x6f,0x3a,0x0d,0x52,0x50,0x47,0x3a,0x3a,0x42,0x47,0x4d,0x08,0x3a,0x0a,0x40,0x6e,0x61,0x6d,0x65,0x49,0x22,0x0c,0x63,0x61,0x73,0x74,0x6c,0x65,0x36,0x06,0x3a,0x06,0x45,0x54,0x3a,0x0c,0x40,0x76,0x6f,0x6c,0x75,0x6d,0x65,0x69,0x69,0x3a,0x0b,0x40,0x70,0x69,0x74,0x63,0x68,0x69,0x69))
0()
