﻿// EVENT 1231
Name "Talk: Undine"

If(1,20,0,1,0)
 JumpToLabel("情報")
 0()
EndIf()
If(1,20,0,2,0)
 JumpToLabel("質問")
 0()
EndIf()
If(1,20,0,3,0)
 JumpToLabel("要求")
 0()
EndIf()
If(1,20,0,4,0)
 JumpToLabel("贈与")
 0()
EndIf()
DefineLabel("情報")
ChangeVariable(13,13,0,2,1,100)
If(1,13,0,10,2)
 ShowMessageFace("undine_fc1",0,0,2,1)
 ShowMessage("\\n<Undine>I will test your abilities...")
 EndEventProcessing()
 0()
EndIf()
If(1,13,0,20,2)
 ShowMessageFace("undine_fc1",0,0,2,2)
 ShowMessage("\\n<Undine>Now, show me your calm energy...")
 EndEventProcessing()
 0()
EndIf()
If(1,13,0,30,2)
 ShowMessageFace("undine_fc1",0,0,2,3)
 ShowMessage("\\n<Undine>I'm unable to get along with Salamander...\nWell, not to the extent that we'd kill each other.")
 EndEventProcessing()
 0()
EndIf()
If(1,13,0,40,2)
 ShowMessageFace("undine_fc1",0,0,2,4)
 ShowMessage("\\n<Undine>I manipulate the serene power of water...")
 EndEventProcessing()
 0()
EndIf()
If(1,13,0,50,2)
 ShowMessageFace("undine_fc1",0,0,2,5)
 ShowMessage("\\n<Undine>It is calm and peaceful here...\nI do not want to go outside too much.")
 EndEventProcessing()
 0()
EndIf()
If(1,13,0,60,2)
 ShowMessageFace("undine_fc1",0,0,2,6)
 ShowMessage("\\n<Undine>The power of water is calm and refined...\nIt is different from the power of fire.")
 EndEventProcessing()
 0()
EndIf()
If(1,13,0,70,2)
 ShowMessageFace("undine_fc1",0,0,2,7)
 ShowMessage("\\n<Undine>I wonder if I should become part of the Slime race... I am a willful spirit, after all.")
 EndEventProcessing()
 0()
EndIf()
If(1,13,0,80,2)
 ShowMessageFace("undine_fc1",0,0,2,8)
 ShowMessage("\\n<Undine>There is an unusual phenomenon happening in this world... The flow of water has stagnated... No, it is distorted.")
 EndEventProcessing()
 0()
EndIf()
If(1,13,0,90,2)
 ShowMessageFace("undine_fc1",0,0,2,9)
 ShowMessage("\\n<Undine>I have a long-standing relationship with the Queen of the Slimes, Erubetie. We occasionally have discussions...")
 EndEventProcessing()
 0()
EndIf()
If(1,13,0,100,2)
 ShowMessageFace("undine_fc1",0,0,2,10)
 ShowMessage("\\n<Undine>The power of water--that is, a mind that is clear and serene... If you do not master it, you will not be complete as a warrior.")
 EndEventProcessing()
 0()
EndIf()
DefineLabel("質問")
ChangeVariable(13,13,0,2,1,50)
If(1,13,0,10,2)
 ShowMessageFace("undine_fc1",0,0,2,11)
 ShowMessage("\\n<Undine>Are you polluting the water...?")
 ShowChoices(strings("I'm not polluting","I am polluting","It is I who is dirty"),0)
 IfPlayerPicksChoice(0,"汚していない")
  ShowMessageFace("undine_fc1",0,0,2,12)
  ShowMessage("\\n<Undine>People will pollute the water as long as they live... You seem to have no understanding.")
  355("change_friend(-5)")
  0()
 IfPlayerPicksChoice(1,"汚している")
  ShowMessageFace("undine_fc1",1,0,2,13)
  ShowMessage("\\n<Undine>Yes, people will pollute the water as long as they live... You seem to understand perfectly.")
  355("change_friend(10)")
  0()
 IfPlayerPicksChoice(2,"むしろ僕が汚れだ")
  ShowMessageFace("undine_fc1",0,0,2,14)
  ShowMessage("\\n<Undine>You do not need to depreciate yourself to that extent...")
  0()
 404()
 EndEventProcessing()
 0()
EndIf()
If(1,13,0,20,2)
 ShowMessageFace("undine_fc1",0,0,2,15)
 ShowMessage("\\n<Undine>Have you gotten Gnome to speak...?")
 ShowChoices(strings("Of course","No","............"),0)
 IfPlayerPicksChoice(0,"もちろん")
  ShowMessageFace("undine_fc1",0,0,2,16)
  ShowMessage("\\n<Undine>I'm not impressed with your lie...")
  355("change_friend(-5)")
  0()
 IfPlayerPicksChoice(1,"いいや")
  ShowMessageFace("undine_fc1",0,0,2,17)
  ShowMessage("\\n<Undine>Yes... You are honest.")
  355("change_friend(10)")
  0()
 IfPlayerPicksChoice(2,"……………………")
  ShowMessageFace("undine_fc1",2,0,2,18)
  ShowMessage("\\n<Undine>............")
  0()
 404()
 EndEventProcessing()
 0()
EndIf()
If(1,13,0,30,2)
 ShowMessageFace("undine_fc1",0,0,2,19)
 ShowMessage("\\n<Undine>Are you playing around with Sylph...?")
 ShowChoices(strings("We play together","Sylph plays with me","I play with Sylph"),0)
 IfPlayerPicksChoice(0,"一緒に遊んでいる")
  ShowMessageFace("undine_fc1",1,0,2,20)
  ShowMessage("\\n<Undine>Yes... It seems you have a good relationship.")
  355("change_friend(10)")
  0()
 IfPlayerPicksChoice(1,"シルフに遊ばれている")
  ShowMessageFace("undine_fc1",1,0,2,21)
  ShowMessage("\\n<Undine>It appears you are at her mercy...")
  355("change_friend(10)")
  0()
 IfPlayerPicksChoice(2,"シルフで遊んでいる")
  ShowMessageFace("undine_fc1",2,0,2,22)
  ShowMessage("\\n<Undine>Shame on you...")
  355("change_friend(-5)")
  0()
 404()
 EndEventProcessing()
 0()
EndIf()
If(1,13,0,40,2)
 ShowMessageFace("undine_fc1",0,0,2,23)
 ShowMessage("\\n<Undine>If you obtain the power of water...\nWhat will you do with it?")
 ShowChoices(strings("Use it for my adventure","Nothing","Rule the world"),0)
 IfPlayerPicksChoice(0,"冒険の役に立てる")
  ShowMessageFace("undine_fc1",0,0,2,24)
  ShowMessage("\\n<Undine>Yes... I hope you can use it well.")
  355("change_friend(10)")
  0()
 IfPlayerPicksChoice(1,"何もしない")
  ShowMessageFace("undine_fc1",0,0,2,25)
  ShowMessage("\\n<Undine>Does that mean you have no desire for it...?")
  0()
 IfPlayerPicksChoice(2,"世界を支配する")
  ShowMessageFace("undine_fc1",2,0,2,26)
  ShowMessage("\\n<Undine>I cannot give you this power...")
  355("change_friend(-5)")
  0()
 404()
 EndEventProcessing()
 0()
EndIf()
If(1,13,0,50,2)
 ShowMessageFace("undine_fc1",0,0,2,27)
 ShowMessage("\\n<Undine>Clear and serene... Do you know what that means?")
 ShowChoices(strings("I know","I don't know","I am with you"),0)
 IfPlayerPicksChoice(0,"分かる")
  ShowMessageFace("undine_fc1",1,0,2,28)
  ShowMessage("\\n<Undine>Yes... That is good.")
  355("change_friend(10)")
  0()
 IfPlayerPicksChoice(1,"分からない")
  ShowMessageFace("undine_fc1",0,0,2,29)
  ShowMessage("\\n<Undine>Then you need more experience...")
  0()
 IfPlayerPicksChoice(2,"君と余だ")
  ShowMessageFace("undine_fc1",2,0,2,30)
  ShowMessage("\\n<Undine>Really... Is that it?\nI do not know what that means...")
  0()
 404()
 EndEventProcessing()
 0()
EndIf()
DefineLabel("要求")
ChangeVariable(13,13,0,2,1,30)
If(1,13,0,10,2)
 If(8,322)
  ShowMessageFace("undine_fc1",0,0,2,31)
  ShowMessage("\\n<Undine>Could I get a fish...?\nI will feed it to the Slime Girls.")
  ChangeVariable(24,24,0,3,0,322,0)
  ShowMessageFace("",0,0,2,32)
  ShowMessage("Do you want to give a \\ii[322]? (Have:\\V[24])")
  ShowChoices(strings("Yes","No"),2)
  IfPlayerPicksChoice(0,"Yes")
   ShowMessageFace("undine_fc1",1,0,2,33)
   ShowMessage("\\n<Undine>Thanks...")
   ChangeInventory_Item(322,1,0,1)
   355("change_friend(20)")
   EndEventProcessing()
   0()
  IfPlayerPicksChoice(1,"No")
   ShowMessageFace("undine_fc1",2,0,2,34)
   ShowMessage("\\n<Undine>That's fine...")
   EndEventProcessing()
   0()
  404()
  0()
 Else()
  ChangeVariable(13,13,0,0,20)
  0()
 EndIf()
 0()
EndIf()
If(1,13,0,20,2)
 If(8,19)
  ShowMessageFace("undine_fc1",0,0,2,35)
  ShowMessage("\\n<Undine>Would you give me some holy water...?")
  ChangeVariable(24,24,0,3,0,19,0)
  ShowMessageFace("",0,0,2,36)
  ShowMessage("Do you want to give some \\ii[19]? (Have:\\V[24])")
  ShowChoices(strings("Yes","No"),2)
  IfPlayerPicksChoice(0,"Yes")
   ShowMessageFace("undine_fc1",1,0,2,37)
   ShowMessage("\\n<Undine>Thanks...")
   ChangeInventory_Item(19,1,0,1)
   355("change_friend(30)")
   EndEventProcessing()
   0()
  IfPlayerPicksChoice(1,"No")
   ShowMessageFace("undine_fc1",2,0,2,38)
   ShowMessage("\\n<Undine>That's fine...")
   EndEventProcessing()
   0()
  404()
  0()
 Else()
  ChangeVariable(13,13,0,0,30)
  0()
 EndIf()
 0()
EndIf()
If(1,13,0,30,2)
 ShowMessageFace("undine_fc1",0,0,2,39)
 ShowMessage("\\n<Undine>I would like to go shopping once in a while... Could you give me some money?")
 If(7,1800,0)
  ChangeVariable(24,24,0,3,7,2,0)
  ShowMessageFace("",0,0,2,40)
  ShowMessage("Do you want to give 1800G? (Remaining:\\V[24])")
  ShowChoices(strings("Yes","No"),2)
  IfPlayerPicksChoice(0,"Yes")
   ShowMessageFace("undine_fc1",1,0,2,41)
   ShowMessage("\\n<Undine>Thanks...")
   125(1,0,1800)
   355("change_friend(25)")
   EndEventProcessing()
   0()
  IfPlayerPicksChoice(1,"No")
   ShowMessageFace("undine_fc1",2,0,2,42)
   ShowMessage("\\n<Undine>That's fine...")
   EndEventProcessing()
   0()
  404()
  0()
 Else()
  ShowMessageFace("undine_fc1",2,0,2,43)
  ShowMessage("\\n<Undine>...If I look closer, you can't afford to.")
  EndEventProcessing()
  0()
 EndIf()
 0()
EndIf()
DefineLabel("贈与")
ChangeVariable(13,13,0,2,1,30)
If(1,25,0,1,0)
 ChangeVariable(13,13,0,0,30)
 ChangeVariable(25,25,0,0,0)
 0()
EndIf()
If(1,25,0,2,0)
 ChangeVariable(13,13,0,2,1,20)
 ChangeVariable(25,25,0,0,0)
 0()
EndIf()
If(1,13,0,10,2)
 ShowMessageFace("undine_fc1",0,0,2,44)
 ShowMessage("\\n<Undine>Take my mucus...")
 250(bytes(0x04,0x08,0x6f,0x3a,0x0c,0x52,0x50,0x47,0x3a,0x3a,0x53,0x45,0x08,0x3a,0x0a,0x40,0x6e,0x61,0x6d,0x65,0x49,0x22,0x0a,0x49,0x74,0x65,0x6d,0x31,0x06,0x3a,0x06,0x45,0x54,0x3a,0x0b,0x40,0x70,0x69,0x74,0x63,0x68,0x69,0x69,0x3a,0x0c,0x40,0x76,0x6f,0x6c,0x75,0x6d,0x65,0x69,0x55))
 ChangeInventory_Item(218,0,0,1)
 ShowMessageFace("",0,0,2,45)
 ShowMessage("Undine gave you some \\ii[218]!")
 EndEventProcessing()
 0()
EndIf()
If(1,13,0,20,2)
 ShowMessageFace("undine_fc1",0,0,2,46)
 ShowMessage("\\n<Undine>Take this magic stone of water...")
 250(bytes(0x04,0x08,0x6f,0x3a,0x0c,0x52,0x50,0x47,0x3a,0x3a,0x53,0x45,0x08,0x3a,0x0a,0x40,0x6e,0x61,0x6d,0x65,0x49,0x22,0x0a,0x49,0x74,0x65,0x6d,0x31,0x06,0x3a,0x06,0x45,0x54,0x3a,0x0b,0x40,0x70,0x69,0x74,0x63,0x68,0x69,0x69,0x3a,0x0c,0x40,0x76,0x6f,0x6c,0x75,0x6d,0x65,0x69,0x55))
 ChangeInventory_Item(72,0,0,1)
 ShowMessageFace("",0,0,2,47)
 ShowMessage("Undine gave you a \\ii[72]!")
 EndEventProcessing()
 0()
EndIf()
If(1,13,0,30,2)
 ShowMessageFace("undine_fc1",0,0,2,48)
 ShowMessage("\\n<Undine>Take this money with you...")
 250(bytes(0x04,0x08,0x6f,0x3a,0x0c,0x52,0x50,0x47,0x3a,0x3a,0x53,0x45,0x08,0x3a,0x0a,0x40,0x6e,0x61,0x6d,0x65,0x49,0x22,0x0a,0x49,0x74,0x65,0x6d,0x31,0x06,0x3a,0x06,0x45,0x54,0x3a,0x0b,0x40,0x70,0x69,0x74,0x63,0x68,0x69,0x69,0x3a,0x0c,0x40,0x76,0x6f,0x6c,0x75,0x6d,0x65,0x69,0x55))
 125(0,0,3000)
 ShowMessageFace("",0,0,2,49)
 ShowMessage("Undine gave you 3000G!")
 EndEventProcessing()
 0()
EndIf()
0()
