// EVENT 2012
Name "Seduction: Dragon Pup"

If(0,25,1)
 EndEventProcessing()
 0()
EndIf()
355("$game_troop.lose_event_id = 3012")
ChangeVariable(26,26,0,3,3,1,4)
ChangeVariable(26,26,4,0,10)
ShowMessageFace("dragonp_fc1",2,0,2,1)
ShowMessage("\\n<Dragon Pup>Rawrr, I'm in trouble...\nIf this keeps up, I'm gonna lose...")
ShowMessageFace("dragonp_fc1",2,0,2,2)
ShowMessage("\\n<Dragon Pup>I am the daughter of dragons, I know what fate awaits a defeated foe.\nNow, violate me.")
ChangeSwitch(98,98,0)
ChangeSwitch(96,96,0)
ShowChoices(strings("Ignore her","Violate her"),1)
IfPlayerPicksChoice(0,"Ignore her")
 ShowMessageFace("",0,0,2,3)
 ShowMessage("Luka resists her temptation!")
 RunCommonEvent(1999)
 EndEventProcessing()
 0()
IfPlayerPicksChoice(1,"犯す")
 0()
404()
ChangeVariable(26,26,3,0,4)
250(bytes(0x04,0x08,0x6f,0x3a,0x0c,0x52,0x50,0x47,0x3a,0x3a,0x53,0x45,0x08,0x3a,0x0a,0x40,0x6e,0x61,0x6d,0x65,0x49,0x22,0x11,0x6d,0x6f,0x6e,0x5f,0x65,0x72,0x6f,0x5f,0x70,0x79,0x75,0x31,0x06,0x3a,0x06,0x45,0x54,0x3a,0x0b,0x40,0x70,0x69,0x74,0x63,0x68,0x69,0x69,0x3a,0x0c,0x40,0x76,0x6f,0x6c,0x75,0x6d,0x65,0x69,0x69))
311(0,1,1,1,26,true)
ShowMessageFace("",0,0,2,4)
ShowMessage("Luka's penis goes into the Dragon Pup's vagina!")
ShowMessage("Her soft flesh tightens around him!\\D")
ShowMessage("Luka takes \\V[26] damage!")
ChangeVariable(27,27,0,3,3,1,2)
If(1,27,0,0,0)
 JumpToLabel("射精1")
 0()
EndIf()
ShowMessageFace("",0,0,2,5)
ShowMessage("\\n<Luka>Aaugh... It's so tiight...")
ShowMessageFace("dragonp_fc1",0,0,2,6)
ShowMessage("\\n<Dragon Pup>You're getting weaker!\nSoon you'll break!")
250(bytes(0x04,0x08,0x6f,0x3a,0x0c,0x52,0x50,0x47,0x3a,0x3a,0x53,0x45,0x08,0x3a,0x0a,0x40,0x6e,0x61,0x6d,0x65,0x49,0x22,0x13,0x6d,0x6f,0x6e,0x5f,0x65,0x72,0x6f,0x5f,0x63,0x68,0x75,0x70,0x61,0x35,0x06,0x3a,0x06,0x45,0x54,0x3a,0x0b,0x40,0x70,0x69,0x74,0x63,0x68,0x69,0x69,0x3a,0x0c,0x40,0x76,0x6f,0x6c,0x75,0x6d,0x65,0x69,0x69))
311(0,1,1,1,26,true)
ShowMessageFace("",0,0,2,7)
ShowMessage("The Dragon Pup contracts her vagina!")
ShowMessage("Luka's penis is stimulated by all the rubbing!\\D")
ShowMessage("Luka takes \\V[26] damage!")
ChangeVariable(27,27,0,3,3,1,2)
If(1,27,0,0,0)
 JumpToLabel("射精1")
 0()
EndIf()
ShowMessageFace("",0,0,2,8)
ShowMessage("\\n<Luka>Hnnaaa...")
ShowMessageFace("dragonp_fc1",1,0,2,9)
ShowMessage("\\n<Dragon Pup>Just a little more, and this'll be my victory!\nI knew that men can't win against pussies!")
ShowChoices(strings("Struggle","Let her continue"),2)
IfPlayerPicksChoice(0,"Struggle")
 ShowMessageFace("",0,0,2,10)
 ShowMessage("Luka struggles wildly!")
 ShowMessage("However, the Dragon Pup holds him down!")
 ShowMessageFace("dragonp_fc1",1,0,2,11)
 ShowMessage("\\n<Dragon Pup>You won't escape!\nI'll make you finish inside me like this!")
 0()
IfPlayerPicksChoice(1,"なすがまま")
 ShowMessageFace("",0,0,2,12)
 ShowMessage("Luka can't win against a pussy...")
 ShowMessageFace("dragonp_fc1",1,0,2,13)
 ShowMessage("\\n<Dragon Pup>It seems you can't even resist anymore!\nI'll make you finish inside me like this!")
 0()
404()
250(bytes(0x04,0x08,0x6f,0x3a,0x0c,0x52,0x50,0x47,0x3a,0x3a,0x53,0x45,0x08,0x3a,0x0a,0x40,0x6e,0x61,0x6d,0x65,0x49,0x22,0x13,0x6d,0x6f,0x6e,0x5f,0x65,0x72,0x6f,0x5f,0x63,0x68,0x75,0x70,0x61,0x35,0x06,0x3a,0x06,0x45,0x54,0x3a,0x0b,0x40,0x70,0x69,0x74,0x63,0x68,0x69,0x69,0x3a,0x0c,0x40,0x76,0x6f,0x6c,0x75,0x6d,0x65,0x69,0x69))
311(0,1,1,1,26,true)
ShowMessageFace("",0,0,2,14)
ShowMessage("The Dragon Pup's vagina tightens up!")
ShowMessage("Luka's penis is hit with a soft and tender pressure, dealing it a finishing blow!\\D")
ShowMessage("Luka takes \\V[26] damage!")
ChangeVariable(27,27,0,3,3,1,2)
If(1,27,0,0,0)
 JumpToLabel("射精1")
 0()
EndIf()
DefineLabel("射精1")
ShowMessageFace("",0,0,2,15)
ShowMessage("\\n<Luka>Ah...! It's so tight!\nI'll... aaah!")
ShowMessageFace("dragonp_fc1",0,0,2,16)
ShowMessage("\\n<Dragon Pup>Hm? Your penis is twitching...")
RunCommonEvent(104)
RunCommonEvent(105)
ShowMessageFace("",0,0,2,17)
ShowMessage("The moment his penis enters the Dragon Pup's vagina, Luka immediately ejaculates.")
ShowMessage("He couldn't last five seconds in her pleasant tightness...")
ShowMessageFace("dragonp_fc1",0,0,2,18)
ShowMessage("\\n<Dragon Pup>You came the moment you went into me!?\nThat's so embarrassing!")
RunCommonEvent(2000)
EndEventProcessing()
DefineLabel("射精2")
ShowMessageFace("",0,0,2,19)
ShowMessage("\\n<Luka>I-it's too good... I can't resist...!")
RunCommonEvent(104)
RunCommonEvent(105)
ShowMessageFace("",0,0,2,20)
ShowMessage("Lots of semen pours into the heavenly vagina.")
ShowMessage("While getting teased by the Dragon Pup, Luka came...")
ShowMessageFace("dragonp_fc1",1,0,2,21)
ShowMessage("\\n<Dragon Pup>I made you come with my pussy!\nIt's a reversal win!")
RunCommonEvent(2000)
EndEventProcessing()
0()
