// EVENT 3083
Name "Chrome"

If(0,25,1)
 JumpToLabel("反省会")
 0()
EndIf()
PictureDisplay(5,"80_chrom_st03",0,0,0,0,100,100,0,0)
PictureMove(5,null,0,0,0,0,100,100,255,0,30,true)
241(bytes(0x04,0x08,0x6f,0x3a,0x0d,0x52,0x50,0x47,0x3a,0x3a,0x42,0x47,0x4d,0x08,0x3a,0x0a,0x40,0x6e,0x61,0x6d,0x65,0x49,0x22,0x09,0x65,0x72,0x6f,0x31,0x06,0x3a,0x06,0x45,0x54,0x3a,0x0c,0x40,0x76,0x6f,0x6c,0x75,0x6d,0x65,0x69,0x69,0x3a,0x0b,0x40,0x70,0x69,0x74,0x63,0x68,0x69,0x69))
ShowMessageFace("",0,0,2,1)
ShowMessage("\\n<Luka>Urhg...")
ShowMessageFace("",0,0,2,2)
ShowMessage("Having collapsed on the ground, Chrome stared down at me.")
ShowMessage("It's as if she's evaluating me...")
ShowMessageFace("chrom_fc1",1,0,2,3)
ShowMessage("\\n<Chrome>First shall I see if you have any value as a guinea pig?\nI'll squeeze out some semen and analyze its quality...")
ShowMessageFace("",0,0,2,4)
ShowMessage("\\n<Luka>N-no...!")
245(bytes(0x04,0x08,0x6f,0x3a,0x0d,0x52,0x50,0x47,0x3a,0x3a,0x42,0x47,0x53,0x08,0x3a,0x0a,0x40,0x6e,0x61,0x6d,0x65,0x49,0x22,0x1e,0x6d,0x6f,0x6e,0x5f,0x68,0x73,0x65,0x61,0x6e,0x30,0x31,0x5f,0x69,0x6e,0x6e,0x65,0x72,0x77,0x6f,0x72,0x6b,0x73,0x5f,0x61,0x31,0x06,0x3a,0x06,0x45,0x54,0x3a,0x0c,0x40,0x76,0x6f,0x6c,0x75,0x6d,0x65,0x69,0x55,0x3a,0x0b,0x40,0x70,0x69,0x74,0x63,0x68,0x69,0x69))
PictureDisplay(5,"ev_chrom_ha1",0,0,0,0,100,100,255,0)
ShowMessageFace("",0,0,2,5)
ShowMessage("Chrome quickly mounts me and forces me into her.")
ShowMessage("In a single thrust, she forces my penis all the way into her tiny vagina.")
ShowMessageFace("",0,0,2,6)
ShowMessage("\\n<Luka>Ah...! Aaaah...!!")
ShowMessageFace("",0,0,2,7)
ShowMessage("The soft walls of Chrome's vagina squeeze down on my penis.")
ShowMessage("She starts to squeeze down even tighter around me.")
ShowMessageFace("chrom_fc1",1,0,2,8)
ShowMessage("\\n<Chrome>Hehehe... Does it feel good?\nNow, let me squeeze out a lot...")
ShowMessageFace("",0,0,2,9)
ShowMessage("Chrome flexes her stomach as she tightens around me.")
ShowMessage("With my penis all the way inside of her, Chrome's soft walls squeeze me.")
ShowMessageFace("",0,0,2,10)
ShowMessage("With her soft flesh all around me, it feels as though my body is being suppressed.")
ShowMessage("I already feel another orgasm rising through my waist.")
ShowMessageFace("",0,0,2,11)
ShowMessage("\\n<Luka>Ah... That feels good...")
ShowMessageFace("chrom_fc1",1,0,2,12)
ShowMessage("\\n<Chrome>Even though I devoted my body to forbidden magic, I'm still a succubus...")
ShowMessageFace("chrom_fc1",1,0,2,13)
ShowMessage("\\n<Chrome>It's easy for me to drive a man crazy!")
ShowMessageFace("",0,0,2,14)
ShowMessage("\\n<Luka>Aiyeee...! Aaaaaah!!")
ShowMessageFace("",0,0,2,15)
ShowMessage("As she slowly tightens around me, I let out a pathetic scream.")
ShowMessage("The sense of defeat only increases as I writhe around.")
ShowMessageFace("",0,0,2,16)
ShowMessage("The sweet tightness assaults me, from base to tip.")
ShowMessageFace("",0,0,2,17)
ShowMessage("I'm being raped completely one-sidedly by Chrome.")
ShowMessageFace("",0,0,2,18)
ShowMessage("\\n<Luka>Ah, aaaah...!!\nYou're too tight... It feels so good...!")
ShowMessageFace("chrom_fc1",1,0,2,19)
ShowMessage("\\n<Chrome>Kukuku, it looks like you're having fun.")
ShowMessageFace("chrom_fc1",1,0,2,20)
ShowMessage("\\n<Chrome>But I don't have much free time.\nI'll have you come quickly!")
ShowMessageFace("",0,0,2,21)
ShowMessage("Chrome looks down at me with a victorious face.")
ShowMessage("And tightens her vagina, trying to finish me off.")
ShowMessageFace("",0,0,2,22)
ShowMessage("My head goes white under the pure tightness.")
ShowMessageFace("",0,0,2,23)
ShowMessage("\\n<Luka>Ah... Aaaaaah!!")
RunCommonEvent(104)
PictureDisplay(5,"ev_chrom_ha2",0,0,0,0,100,100,255,0)
RunCommonEvent(105)
ShowMessageFace("",0,0,2,24)
ShowMessage("Prompted by her, I submit, my semen gushing into her.")
ShowMessage("Each pulse of my penis spurts more and more inside.")
ShowMessageFace("chrom_fc1",1,0,2,25)
ShowMessage("\\n<Chrome>Kuku, that was a lot.\nBut I'll need another to collect as a sample.")
ShowMessageFace("",0,0,2,26)
ShowMessage("\\n<Luka>S-Stop it already...\n...Aaaaaah!!")
245(bytes(0x04,0x08,0x6f,0x3a,0x0d,0x52,0x50,0x47,0x3a,0x3a,0x42,0x47,0x53,0x08,0x3a,0x0a,0x40,0x6e,0x61,0x6d,0x65,0x49,0x22,0x1e,0x6d,0x6f,0x6e,0x5f,0x68,0x73,0x65,0x61,0x6e,0x30,0x36,0x5f,0x69,0x6e,0x6e,0x65,0x72,0x77,0x6f,0x72,0x6b,0x73,0x5f,0x61,0x36,0x06,0x3a,0x06,0x45,0x54,0x3a,0x0c,0x40,0x76,0x6f,0x6c,0x75,0x6d,0x65,0x69,0x55,0x3a,0x0b,0x40,0x70,0x69,0x74,0x63,0x68,0x69,0x69))
ShowMessageFace("",0,0,2,27)
ShowMessage("Chrome squeezes me inside her again.")
ShowMessageFace("",0,0,2,28)
ShowMessage("It's like her vagina is alive...")
ShowMessage("Her flesh contracts and presses against me.")
ShowMessageFace("",0,0,2,29)
ShowMessage("Every so often it gets incredibly tight.")
ShowMessage("But then it softens, and goes slightly loose.")
ShowMessageFace("chrom_fc1",1,0,2,30)
ShowMessage("\\n<Chrome>Horehore, hurry up and come.\nI'm busy, so I don't have much time here.")
ShowMessageFace("",0,0,2,31)
ShowMessage("\\n<Luka>Ah... Hiiii!!")
ShowMessageFace("",0,0,2,32)
ShowMessage("Feeling too much pleasure, I can only writhe underneath Chrome.")
ShowMessageFace("",0,0,2,33)
ShowMessage("My penis is crushed in her soft vagina.")
ShowMessage("Brought to another height, I can feel myself about to come in seconds again.")
ShowMessageFace("chrom_fc1",1,0,2,34)
ShowMessage("\\n<Chrome>Hore, this is the end!")
ShowMessageFace("",0,0,2,35)
ShowMessage("With a tight squeeze...")
ShowMessage("I yield right away.")
ShowMessageFace("",0,0,2,36)
ShowMessage("\\n<Luka>Ah, aaah...")
RunCommonEvent(104)
PictureDisplay(5,"ev_chrom_ha3",0,0,0,0,100,100,255,0)
RunCommonEvent(105)
ShowMessageFace("",0,0,2,37)
ShowMessage("My semen pours into Chrome's tight vagina.")
ShowMessage("Even though I already came, a huge amount of semen shoots out again.")
ShowMessageFace("chrom_fc1",1,0,2,38)
ShowMessage("\\n<Chrome>Kuku, I was able to collect a decent amount.\nThis is enough for today's experiments.")
ShowMessageFace("",0,0,2,39)
ShowMessage("Chrome laughs as she rides on top of me.")
ShowMessage("After this violation, my body and mind have yielded to Chrome...")
221()
PictureClear(5)
246(2)
ShowMessageFace("",0,0,2,40)
ShowMessage("Thus, my new life as a guinea pig began.")
ShowMessage("My semen is extracted every day, and endless mating experiments are performed.")
245(bytes(0x04,0x08,0x6f,0x3a,0x0d,0x52,0x50,0x47,0x3a,0x3a,0x42,0x47,0x53,0x08,0x3a,0x0a,0x40,0x6e,0x61,0x6d,0x65,0x49,0x22,0x17,0x6d,0x6f,0x6e,0x5f,0x68,0x73,0x65,0x61,0x6e,0x31,0x37,0x5f,0x73,0x69,0x67,0x6f,0x6b,0x69,0x06,0x3a,0x06,0x45,0x54,0x3a,0x0c,0x40,0x76,0x6f,0x6c,0x75,0x6d,0x65,0x69,0x55,0x3a,0x0b,0x40,0x70,0x69,0x74,0x63,0x68,0x69,0x69))
PictureDisplay(5,"ev_chrom_hb1",0,0,0,0,100,100,255,0)
222()
ShowMessageFace("chrom_fc1",1,0,2,41)
ShowMessage("\\n<Chrome>Hore, I'll be squeezing out your semen again today.\nI need 30cc of semen today.")
ShowMessageFace("",0,0,2,42)
ShowMessage("\\n<Luka>Ah, unnngh...")
ShowMessageFace("",0,0,2,43)
ShowMessage("Chrome's tiny body is on top of me.")
ShowMessage("Instead of inserting it today, I'm only rubbing against her vagina.")
ShowMessageFace("",0,0,2,44)
ShowMessage("Innumerable zombies surround me, teasing me with their mouths and tongues.")
ShowMessage("My body trembles as they lick and touch every inch of me.")
ShowMessageFace("chrom_fc1",1,0,2,45)
ShowMessage("\\n<Chrome>Hurry up and come!\nI'm really busy again today!")
ShowMessageFace("",0,0,2,46)
ShowMessage("Chrome starts to rub her body against me without mercy.")
ShowMessage("Her movements make me ejaculate with incredible ease.")
RunCommonEvent(104)
PictureDisplay(5,"ev_chrom_hb2",0,0,0,0,100,100,255,0)
RunCommonEvent(105)
ShowMessageFace("",0,0,2,47)
ShowMessage("Looking down at my spurting semen, Chrome smiles.")
ShowMessageFace("chrom_fc1",1,0,2,48)
ShowMessage("\\n<Chrome>You came... But this is far too little.\nZombies, help drain out his semen.")
ShowMessageFace("zonbe_fc3",1,0,2,49)
ShowMessage("\\n<Zombie Girl>Auuuu...")
ShowMessageFace("",0,0,2,50)
ShowMessage("The zombie's tongue movements get even more intense.")
ShowMessage("Licking and sucking every inch of me, I feel an intense new pleasure.")
ShowMessageFace("chrom_fc1",1,0,2,51)
ShowMessage("\\n<Chrome>Let's finish this quickly!\nShoot out your semen right away!")
ShowMessageFace("",0,0,2,52)
ShowMessage("Chrome rubs herself back and forth against me, her slit pressing against my shaft.")
ShowMessage("The zombie continue to lick and stimulate me, bringing me to another quick finish.")
ShowMessageFace("",0,0,2,53)
ShowMessage("\\n<Luka>Ah, aaaah...!!")
RunCommonEvent(104)
PictureDisplay(5,"ev_chrom_hb3",0,0,0,0,100,100,255,0)
RunCommonEvent(105)
246(1)
ShowMessageFace("chrom_fc1",1,0,2,54)
ShowMessage("\\n<Chrome>Kuku... Such lively semen.\nYou're an excellent guinea pig.")
ShowMessageFace("",0,0,2,55)
ShowMessage("\\n<Luka>Unnngh...")
ShowMessageFace("",0,0,2,56)
ShowMessage("Chrome smiles down at me.")
ShowMessage("These miserable days continue on and on...")
221()
PictureClear(5)
DefineLabel("反省会")
ShowMessageFace("",0,0,2,57)
ShowMessage("......")
221()
242(1)
Wait(120)
355("memory_interruption")
ShowMessageFace("",0,0,2,58)
ShowMessage("You hear Ilias' voice calling out to you...")
ShowMessage("Receive her evaluation?")
ShowChoices(strings("Receive evaluation","Change difficulty","Reincarnate"),3)
IfPlayerPicksChoice(0,null)
 241(bytes(0x04,0x08,0x6f,0x3a,0x0d,0x52,0x50,0x47,0x3a,0x3a,0x42,0x47,0x4d,0x08,0x3a,0x0a,0x40,0x6e,0x61,0x6d,0x65,0x49,0x22,0x0a,0x69,0x72,0x69,0x61,0x73,0x06,0x3a,0x06,0x45,0x54,0x3a,0x0c,0x40,0x76,0x6f,0x6c,0x75,0x6d,0x65,0x69,0x5f,0x3a,0x0b,0x40,0x70,0x69,0x74,0x63,0x68,0x69,0x6e))
 PictureDisplay(1,"bg001",0,0,0,0,100,100,255,0)
 222()
 PictureDisplay(5,"80_iriasu_st04",0,0,0,0,100,100,0,0)
 PictureMove(5,null,0,0,0,0,100,100,255,0,30,true)
 ShowMessageFace("iriasu_fc1",3,0,2,59)
 ShowMessage("\\n<Ilias>To be violated by that necromancer...\nMy civility is nearly at its end.")
 PictureDisplay(5,"80_iriasu_st01",0,0,0,0,100,100,255,0)
 ShowMessageFace("iriasu_fc1",0,0,2,60)
 ShowMessage("\\n<Ilias>Chrome uses a lot of healing and support skills.\nShe can also bring out various attack weapons.")
 ShowMessageFace("iriasu_fc1",0,0,2,61)
 ShowMessage("\\n<Ilias>But confusion is quite effective, so use that.\nIf she can't act properly, the battle will be much easier.")
 ShowMessageFace("iriasu_fc1",0,0,2,62)
 ShowMessage("\\n<Ilias>In a normal fight, you should defeat the healing Chrome first...\nBut if you manage to confuse her, defeat Frederica first.")
 PictureDisplay(5,"80_iriasu_st02",0,0,0,0,100,100,255,0)
 ShowMessageFace("iriasu_fc1",1,0,2,63)
 ShowMessage("\\n<Ilias>Now go, oh brave Luka.\nDrop your hammer of justice on that immoral researcher.")
 242(1)
 221()
 PictureClear(5)
 PictureClear(1)
 Wait(60)
 0()
IfPlayerPicksChoice(1,null)
 ShowMessageFace("",0,0,2,64)
 ShowMessage("Please choose a difficulty level.")
 RunCommonEvent(110)
 0()
IfPlayerPicksChoice(2,null)
 0()
404()
RunCommonEvent(3000)
0()
