// EVENT 0308
Name "Father Event"

ChangeVariable(1033,1033,0,0,2)
ChangeSwitch(100,100,1)
250(bytes(0x04,0x08,0x6f,0x3a,0x0c,0x52,0x50,0x47,0x3a,0x3a,0x53,0x45,0x08,0x3a,0x0a,0x40,0x6e,0x61,0x6d,0x65,0x49,0x22,0x09,0x4d,0x6f,0x76,0x65,0x06,0x3a,0x06,0x45,0x54,0x3a,0x0b,0x40,0x70,0x69,0x74,0x63,0x68,0x69,0x69,0x3a,0x0c,0x40,0x76,0x6f,0x6c,0x75,0x6d,0x65,0x69,0x55))
211(0)
Wait(30)
ScrollMap(2,8,5)
ShowMessageFace("merlin_fc1",0,0,2,1)
ShowMessage("\\n<Merlin>......")
ShowMessageFace("merlin_fc1",0,0,2,2)
ShowMessage("\\n<Merlin>They're gone now.")
ChangeSwitch(31,31,0)
ShowMessageFace("lazarus3_fc1",0,0,2,3)
ShowMessage("\\n<Lazarus>Damn, it was hard holding my breath and staying quiet in such a tight spot.")
ShowMessageFace("merlin_fc1",0,0,2,4)
ShowMessage("\\n<Merlin>Aaah, the sight of you cowering under a desk like that was quite the rare treat.")
205(261,bytes(0x04,0x08,0x6f,0x3a,0x13,0x52,0x50,0x47,0x3a,0x3a,0x4d,0x6f,0x76,0x65,0x52,0x6f,0x75,0x74,0x65,0x09,0x3a,0x0c,0x40,0x72,0x65,0x70,0x65,0x61,0x74,0x46,0x3a,0x0f,0x40,0x73,0x6b,0x69,0x70,0x70,0x61,0x62,0x6c,0x65,0x46,0x3a,0x0a,0x40,0x77,0x61,0x69,0x74,0x54,0x3a,0x0a,0x40,0x6c,0x69,0x73,0x74,0x5b,0x08,0x6f,0x3a,0x15,0x52,0x50,0x47,0x3a,0x3a,0x4d,0x6f,0x76,0x65,0x43,0x6f,0x6d,0x6d,0x61,0x6e,0x64,0x07,0x3a,0x0a,0x40,0x63,0x6f,0x64,0x65,0x69,0x07,0x3a,0x10,0x40,0x70,0x61,0x72,0x61,0x6d,0x65,0x74,0x65,0x72,0x73,0x5b,0x00,0x6f,0x3b,0x0a,0x07,0x3b,0x0b,0x69,0x17,0x3b,0x0c,0x5b,0x00,0x6f,0x3b,0x0a,0x07,0x3b,0x0b,0x69,0x00,0x3b,0x0c,0x5b,0x00))
505(bytes(0x04,0x08,0x6f,0x3a,0x15,0x52,0x50,0x47,0x3a,0x3a,0x4d,0x6f,0x76,0x65,0x43,0x6f,0x6d,0x6d,0x61,0x6e,0x64,0x07,0x3a,0x0a,0x40,0x63,0x6f,0x64,0x65,0x69,0x07,0x3a,0x10,0x40,0x70,0x61,0x72,0x61,0x6d,0x65,0x74,0x65,0x72,0x73,0x5b,0x00))
505(bytes(0x04,0x08,0x6f,0x3a,0x15,0x52,0x50,0x47,0x3a,0x3a,0x4d,0x6f,0x76,0x65,0x43,0x6f,0x6d,0x6d,0x61,0x6e,0x64,0x07,0x3a,0x0a,0x40,0x63,0x6f,0x64,0x65,0x69,0x17,0x3a,0x10,0x40,0x70,0x61,0x72,0x61,0x6d,0x65,0x74,0x65,0x72,0x73,0x5b,0x00))
Wait(15)
PictureDisplay(5,"80_lazarus_st21",0,0,-130,0,100,100,255,0)
PictureDisplay(6,"80_merlin_st01",0,0,170,0,100,100,255,0)
ShowMessageFace("lazarus3_fc1",2,0,2,5)
ShowMessage("\\n<Lazarus>You don't gotta rub it in, old man...")
ShowMessageFace("merlin_fc1",0,0,2,6)
ShowMessage("\\n<Merlin>My apologies. Actually, I was sweating bullets myself there.")
ShowMessageFace("merlin_fc1",0,0,2,7)
ShowMessage("\\n<Merlin>I met Luka and Sonya when they were children, but they apparently didn't recognize me.")
ShowMessageFace("lazarus3_fc1",0,0,2,8)
ShowMessage("\\n<Lazarus>Of course they didn't. When was that? Back before they could even talk, wasn't it?")
ShowMessageFace("merlin_fc1",0,0,2,9)
ShowMessage("\\n<Merlin>Indeed. Well, that's enough reminiscing for today. Let's get back to business, Don Father.")
ShowMessageFace("lazarus3_fc1",1,0,2,10)
ShowMessage("\\n<Lazarus>Hey now, old man...")
Wait(15)
PictureClear(5)
PictureClear(6)
Wait(15)
221()
211(1)
ChangeSwitch(31,31,1)
Wait(60)
TeleportPlayer(0,358,73,43,0,2)
222()
EndEventProcessing()
0()
