// EVENT 5091
Name "Warmer 1"

PictureDisplay(5,"80_warmer_st02",0,0,0,0,100,100,0,0)
PictureMove(5,null,0,0,0,0,100,100,255,0,30,true)
ShowMessageFace("",0,0,2,1)
ShowMessage("\\n<Luka>P-please...")
ShowMessageFace("warmer_fc1",1,0,2,2)
ShowMessage("\\n<Elma>Energy... Let me suck...")
ShowMessageFace("",0,0,2,3)
ShowMessage("\\n<Luka>....?")
ShowMessageFace("",0,0,2,4)
ShowMessage("Elma approaches me as I'm dumbfounded.\nHer eyes show no signs of rational thinking, she seems to be driven by her thirst for energy.")
ShowMessageFace("",0,0,2,5)
ShowMessage("\\n<Luka>S-stay away... Uwaaa!")
241(bytes(0x04,0x08,0x6f,0x3a,0x0d,0x52,0x50,0x47,0x3a,0x3a,0x42,0x47,0x4d,0x08,0x3a,0x0a,0x40,0x6e,0x61,0x6d,0x65,0x49,0x22,0x09,0x65,0x72,0x6f,0x31,0x06,0x3a,0x06,0x45,0x54,0x3a,0x0c,0x40,0x76,0x6f,0x6c,0x75,0x6d,0x65,0x69,0x69,0x3a,0x0b,0x40,0x70,0x69,0x74,0x63,0x68,0x69,0x69))
PictureDisplay(5,"ev_warmer_ha1",0,0,0,0,100,100,0,0)
PictureMove(5,null,0,0,0,0,100,100,255,0,30,true)
ShowMessageFace("",0,0,2,6)
ShowMessage("Elma grabs me...\nShe locks her slimy legs around my head.")
ShowMessageFace("",0,0,2,7)
ShowMessage("\\n<Luka>Auu... Wh-what...?")
ShowMessageFace("",0,0,2,8)
ShowMessage("I feel a sticky feeling around my head.\nEven though I was trembling in disgust, I had no energy left to struggle.")
ShowMessageFace("",0,0,2,9)
ShowMessage("What is she going to do now...?\nFear and uneasiness take over me as I have no idea what she's about to do.")
ShowMessageFace("warmer_fc1",1,0,2,10)
ShowMessage("\\n<Elma>Thank you, for the meal...")
ShowMessageFace("",0,0,2,11)
ShowMessage("Elma spreads her vagina over my head.\nIt opens up like a mouth...")
ShowMessageFace("",0,0,2,12)
ShowMessage("\\n<Luka>S-stop...Aaah!!")
ShowMessageFace("",0,0,2,13)
ShowMessage("Mucus drips from her inner membrane of her vagina.\nMoments after I understand what's about to happen, her gaping vagina gets closer to my head...")
245(bytes(0x04,0x08,0x6f,0x3a,0x0d,0x52,0x50,0x47,0x3a,0x3a,0x42,0x47,0x53,0x08,0x3a,0x0a,0x40,0x6e,0x61,0x6d,0x65,0x49,0x22,0x1e,0x6d,0x6f,0x6e,0x5f,0x68,0x73,0x65,0x61,0x6e,0x30,0x39,0x5f,0x69,0x6e,0x6e,0x65,0x72,0x77,0x6f,0x72,0x6b,0x73,0x5f,0x62,0x31,0x06,0x3a,0x06,0x45,0x54,0x3a,0x0c,0x40,0x76,0x6f,0x6c,0x75,0x6d,0x65,0x69,0x55,0x3a,0x0b,0x40,0x70,0x69,0x74,0x63,0x68,0x69,0x69))
PictureDisplay(5,"ev_warmer_ha2",0,0,0,0,100,100,255,0)
ShowMessageFace("",0,0,2,14)
ShowMessage("In an instant, my head is swallowed!\nHer odd vaginal flesh squeezes my head tight...")
ShowMessageFace("",0,0,2,15)
ShowMessage("\\n<Luka>Wha... Ah, aaaaah...!")
ShowMessageFace("",0,0,2,16)
ShowMessage("Her ribbed, wavy inner membrane completely blocks my sight. Threads of her mucus drip down my face.")
ShowMessageFace("",0,0,2,17)
ShowMessage("Her vagina is very hot and my face instantly warms up.\nI suddenly start flailing my arms in an attempt to struggle.")
ShowMessageFace("",0,0,2,18)
ShowMessage("\\n<Luka>What... Waaa... Get off... Get oooof...!!")
ShowMessageFace("warmer_fc1",1,0,2,19)
ShowMessage("\\n<Elma>More, come inside all the way...\nNnn, nnnnn...")
ShowMessageFace("",0,0,2,20)
ShowMessage("As her vaginal walls contract, her folds pull my head up like a giant snake swallowing its prey. Like that, she pulls my head further in...")
ShowMessageFace("",0,0,2,21)
ShowMessage("\\n<Luka>Hya... Aaaaah!!")
PictureDisplay(5,"ev_warmer_ha3",0,0,0,0,100,100,255,0)
ShowMessageFace("",0,0,2,22)
ShowMessage("And my head is completely enveloped in her vagina!\nHer vaginal walls cover my face as I'm taken inside...")
ShowMessageFace("warmer_fc1",1,0,2,23)
ShowMessage("\\n<Elma>Your energy...I will suck it out...")
ShowMessageFace("",0,0,2,24)
ShowMessage("\\n<Luka>NGH... NNNN...!")
ShowMessageFace("",0,0,2,25)
ShowMessage("Her vaginal walls are so tightly bound to my face that I can't even breathe. Instead, a strong odor fills my nose and lungs.")
ShowMessageFace("",0,0,2,26)
ShowMessage("My consciousness is gradually fading.\nI somehow feel drowsy and entranced.")
ShowMessageFace("",0,0,2,27)
ShowMessage("The pain, it feels like I'm dying...\nAll these feelings mixed together erode my brain.")
ShowMessageFace("",0,0,2,28)
ShowMessage("\\n<Luka>Nnn... Nnnnn...")
RunCommonEvent(104)
RunCommonEvent(105)
ShowMessageFace("",0,0,2,29)
ShowMessage("I come while tasting this feeling similar to ecstasy.\nMy penis stains my pants with semen, even though it hasn't even been touched.")
ShowMessageFace("",0,0,2,30)
ShowMessage("\\n<Luka>Nnn... Nnnnnn...")
ShowMessageFace("warmer_fc1",1,0,2,31)
ShowMessage("\\n<Elma>Like this, I'll suck it out...\nEverything, let it out...")
ShowMessageFace("",0,0,2,32)
ShowMessage("\\n<Luka>Ngh... Nnnn...")
ShowMessageFace("",0,0,2,33)
ShowMessage("My energy is being drained by being in contact with the inside of her vagina... I suddenly become aware of this again.")
ShowMessageFace("",0,0,2,34)
ShowMessage("Even knowing this, I don't resist it at all.\nDue to the ecstasy and weakness from my ejaculation, I can't struggle at all...")
ShowMessageFace("",0,0,2,35)
ShowMessage("My energy is being drained and I can't breathe.\nDespite it all, I'm immersed in ecstasy.")
ShowMessageFace("warmer_fc1",1,0,2,36)
ShowMessage("\\n<Elma>I will suck it all, till you die...\nIt will feel good...")
ShowMessageFace("",0,0,2,37)
ShowMessage("\\n<Luka>Nnn... Nnnn...")
ShowMessageFace("",0,0,2,38)
ShowMessage("Her vaginal walls start contracting.\nHer membrane rubs against my face, giving me a sweet pleasure.")
ShowMessageFace("",0,0,2,39)
ShowMessage("I can't breathe any fresh air at all...\nThe heavy smell and mucus violate all my senses.")
ShowMessageFace("",0,0,2,40)
ShowMessage("\\n<Luka>NGH... NNNNN!!")
RunCommonEvent(104)
RunCommonEvent(105)
ShowMessageFace("",0,0,2,41)
ShowMessage("Even though I'm being choked, my penis is fully erect... Immersed in ecstasy, I leak out more semen...")
ShowMessageFace("",0,0,2,42)
ShowMessage("What a pathetic situation.\nEven though my life is in danger, my male instincts enjoy this.")
ShowMessageFace("warmer_fc1",1,0,2,43)
ShowMessage("\\n<Elma>You're leaking out, a lot...\nMore... More...")
ShowMessageFace("",0,0,2,44)
ShowMessage("\\n<Luka>Nnn...Ngh...")
ShowMessageFace("",0,0,2,45)
ShowMessage("My consciousness is fading.\nSuffocated, having my energy drained... My power is completely drained.")
ShowMessageFace("",0,0,2,46)
ShowMessage("Even though I'm going to meet such a miserable end, I'm immersed in pleasure. While tasting the feeling of having my energy drained...")
RunCommonEvent(104)
RunCommonEvent(105)
ShowMessageFace("",0,0,2,47)
ShowMessage("\\n<Luka>Nnn... Nnnnn...")
ShowMessageFace("",0,0,2,48)
ShowMessage("There is no more air to breathe and my consciousness feels distant... The feeling of having my energy absorbed keeps me in a constant state of ecstasy...")
RunCommonEvent(104)
RunCommonEvent(105)
ShowMessageFace("",0,0,2,49)
ShowMessage("\\n<Luka>...nn...aa...")
ShowMessageFace("",0,0,2,50)
ShowMessage("It won't be long until I completely lose consciousness.\nThe suffocation and pleasure mix together and become one...")
RunCommonEvent(104)
RunCommonEvent(105)
246(2)
ShowMessageFace("",0,0,2,51)
ShowMessage("\\n<Luka>........")
ShowMessageFace("warmer_fc1",1,0,2,52)
ShowMessage("\\n<Elma>...Dead?")
ShowMessageFace("",0,0,2,53)
ShowMessage("Completely drained of my energy, I finally stop breathing.\nI die a miserable death, my semen still dripping out.")
ShowMessageFace("",0,0,2,54)
ShowMessage("Suffocated while having my energy drained...\nMy life comes to a miserable end because of a brash request for pleasure.")
221()
PictureClear(5)
PictureClear(6)
ShowMessageFace("",0,0,2,55)
ShowMessage("......")
RunCommonEvent(3999)
0()
