// EVENT 4213
Name "Harpy Sisters 3"

If(0,25,1)
 221()
 PictureClear(5)
 PictureClear(6)
 ShowMessageFace("",0,0,2,0)
 ShowMessage("......")
 242(2)
 Wait(120)
 241(bytes(0x04,0x08,0x6f,0x3a,0x0d,0x52,0x50,0x47,0x3a,0x3a,0x42,0x47,0x4d,0x08,0x3a,0x0a,0x40,0x6e,0x61,0x6d,0x65,0x49,0x22,0x0c,0x63,0x61,0x73,0x74,0x6c,0x65,0x36,0x06,0x3a,0x06,0x45,0x54,0x3a,0x0c,0x40,0x76,0x6f,0x6c,0x75,0x6d,0x65,0x69,0x69,0x3a,0x0b,0x40,0x70,0x69,0x74,0x63,0x68,0x69,0x69))
 EndEventProcessing()
 0()
EndIf()
PictureDisplay(5,"80_hapy_bc_st02",0,0,0,0,100,100,255,0)
ShowMessageFace("hapy_bc_fc1",1,0,2,1)
ShowMessage("\\n<Pina>You want to have sex with us?\n...It's up to you, Pii.")
ShowMessageFace("hapy_bc_fc1",1,0,2,2)
ShowMessage("\\n<Pii>...okay.")
ShowMessageFace("hapy_bc_fc1",1,0,2,3)
ShowMessage("\\n<Pina>All right then. Let's use our room.")
ShowMessageFace("",0,0,2,4)
ShowMessage("Thus, I was invited back to the sisters' room.")
221()
PictureDisplay(1,"bg195",0,0,0,0,100,100,255,0)
PictureDisplay(5,"80_hapy_bc_st02",0,0,0,0,100,100,255,0)
222()
241(bytes(0x04,0x08,0x6f,0x3a,0x0d,0x52,0x50,0x47,0x3a,0x3a,0x42,0x47,0x4d,0x08,0x3a,0x0a,0x40,0x6e,0x61,0x6d,0x65,0x49,0x22,0x09,0x65,0x72,0x6f,0x31,0x06,0x3a,0x06,0x45,0x54,0x3a,0x0c,0x40,0x76,0x6f,0x6c,0x75,0x6d,0x65,0x69,0x69,0x3a,0x0b,0x40,0x70,0x69,0x74,0x63,0x68,0x69,0x69))
ShowMessageFace("hapy_bc_fc1",1,0,2,5)
ShowMessage("\\n<Pina>Are you ready this time, Pii?\nIf you keep putting it off, you'll be a virgin for the rest of your life.")
ShowMessageFace("hapy_bc_fc1",1,0,2,6)
ShowMessage("\\n<Pii>Okay... I'll give it a shot.")
PictureDisplay(5,"ev_hapy_bc_hb1",0,0,0,0,100,100,255,0)
ShowMessageFace("",0,0,2,7)
ShowMessage("Nervous and unsure of herself, the younger harpy gets on top of me.")
ShowMessageFace("hapy_bc_fc1",1,0,2,8)
ShowMessage("\\n<Pii>So I do it like this...")
245(bytes(0x04,0x08,0x6f,0x3a,0x0d,0x52,0x50,0x47,0x3a,0x3a,0x42,0x47,0x53,0x08,0x3a,0x0a,0x40,0x6e,0x61,0x6d,0x65,0x49,0x22,0x1e,0x6d,0x6f,0x6e,0x5f,0x68,0x73,0x65,0x61,0x6e,0x30,0x31,0x5f,0x69,0x6e,0x6e,0x65,0x72,0x77,0x6f,0x72,0x6b,0x73,0x5f,0x61,0x31,0x06,0x3a,0x06,0x45,0x54,0x3a,0x0c,0x40,0x76,0x6f,0x6c,0x75,0x6d,0x65,0x69,0x55,0x3a,0x0b,0x40,0x70,0x69,0x74,0x63,0x68,0x69,0x69))
ShowMessageFace("",0,0,2,9)
ShowMessage("Without wasting any time, Pii drops her waist onto me.")
ShowMessage("With surprising quickness, I get sucked all the way into her.")
ShowMessageFace("hapy_bc_fc1",1,0,2,10)
ShowMessage("\\n<Pii>Faa... It went in!")
ShowMessageFace("",0,0,2,11)
ShowMessage("\\n<Luka>Auuuu...")
ShowMessageFace("",0,0,2,12)
ShowMessage("Compared to her older sister, she's incredibly tight.")
ShowMessage("Her entire vagina seems as if it's strangling me.")
ShowMessageFace("hapy_bc_fc1",1,0,2,13)
ShowMessage("\\n<Pina>Fufu... Let me have some fun, too.")
ShowMessageFace("",0,0,2,14)
ShowMessage("Pina sits on my face and leisurely rubs her genitals across my mouth and nose.")
ShowMessageFace("hapy_bc_fc1",1,0,2,15)
ShowMessage("\\n<Pii>It feels really good when he's in me...")
ShowMessageFace("hapy_bc_fc1",1,0,2,16)
ShowMessage("\\n<Pina>Mating feels really good, doesn't it?")
ShowMessageFace("hapy_bc_fc1",1,0,2,17)
ShowMessage("\\n<Pina>Try moving your hips like I was doing earlier.")
ShowMessageFace("hapy_bc_fc1",1,0,2,18)
ShowMessage("\\n<Pina>He won't be able to hold on if you do that.")
ShowMessageFace("hapy_bc_fc1",1,0,2,19)
ShowMessage("\\n<Pii>Ok... I'll give it a try!")
245(bytes(0x04,0x08,0x6f,0x3a,0x0d,0x52,0x50,0x47,0x3a,0x3a,0x42,0x47,0x53,0x08,0x3a,0x0a,0x40,0x6e,0x61,0x6d,0x65,0x49,0x22,0x1e,0x6d,0x6f,0x6e,0x5f,0x68,0x73,0x65,0x61,0x6e,0x30,0x33,0x5f,0x69,0x6e,0x6e,0x65,0x72,0x77,0x6f,0x72,0x6b,0x73,0x5f,0x61,0x33,0x06,0x3a,0x06,0x45,0x54,0x3a,0x0c,0x40,0x76,0x6f,0x6c,0x75,0x6d,0x65,0x69,0x55,0x3a,0x0b,0x40,0x70,0x69,0x74,0x63,0x68,0x69,0x69))
ShowMessageFace("",0,0,2,20)
ShowMessage("As she says that, Pii starts to clumsily move her hips.")
ShowMessageFace("",0,0,2,21)
ShowMessage("\\n<Luka>Faaaa!")
ShowMessageFace("",0,0,2,22)
ShowMessage("Twisted in her tiny pussy, my dick is being played with.")
ShowMessage("Her rough movements and tightness gave an incredibly different pleasure than her sister.")
ShowMessageFace("hapy_bc_fc1",1,0,2,24)
ShowMessage("\\n<Pii>Like this...?\nAm I doing it right, Sis?")
ShowMessageFace("hapy_bc_fc1",1,0,2,25)
ShowMessage("\\n<Pina>That looks good...\nIf you keep it up like that, he won't last much longer.")
ShowMessageFace("hapy_bc_fc1",1,0,2,27)
ShowMessage("\\n<Pii>One...two...one...two...\nUp...down...up...down...")
ShowMessageFace("",0,0,2,28)
ShowMessage("\\n<Luka>Uaaaa!")
ShowMessageFace("",0,0,2,29)
ShowMessage("Pii continues to move her waist around in slow motion, tantalizing me with pleasure.")
ShowMessageFace("hapy_bc_fc1",1,0,2,30)
ShowMessage("\\n<Pina>Now it's time to finish him off.\nCan you tighten up like your big sister did earlier?")
ShowMessageFace("hapy_bc_fc1",1,0,2,31)
ShowMessage("\\n<Pii>Ok, I'll try it!\nUmf! Is that tight enough?")
ShowMessageFace("",0,0,2,32)
ShowMessage("\\n<Luka>Ah! Haa!")
ShowMessageFace("",0,0,2,33)
ShowMessage("Every time Pii puts power into it, the pressure on me becomes unbearable.")
ShowMessageFace("",0,0,2,34)
ShowMessage("Her already tight pussy feels like it's crushing me in her walls.")
ShowMessageFace("hapy_bc_fc1",1,0,2,35)
ShowMessage("\\n<Pii>Umf!")
ShowMessageFace("",0,0,2,37)
ShowMessage("\\n<Luka>Ahh! I'm coming... again!")
ShowMessageFace("hapy_bc_fc1",1,0,2,38)
ShowMessage("\\n<Pina>It looks like you need just a little more.\nOne more time should be enough to finish him off.")
ShowMessageFace("hapy_bc_fc1",1,0,2,39)
ShowMessage("\\n<Pii>Ok! Umf!")
ShowMessageFace("",0,0,2,40)
ShowMessage("\\n<Luka>Aaaaaa!")
ShowMessageFace("",0,0,2,41)
ShowMessage("Twitching in her, I go over the edge.")
RunCommonEvent(104)
PictureDisplay(5,"ev_hapy_bc_hb2",0,0,0,0,100,100,255,0)
RunCommonEvent(105)
ShowMessageFace("",0,0,2,42)
ShowMessage("Squeezing everything out of me, my semen overflows into her tiny hole.")
ShowMessageFace("hapy_bc_fc1",1,0,2,43)
ShowMessage("\\n<Pii>Faa... I feel the warm stuff spreading inside of me...")
ShowMessageFace("hapy_bc_fc1",1,0,2,44)
ShowMessage("\\n<Pina>Fufu, I'm glad.\nHe ejaculated inside of you.")
ShowMessageFace("hapy_bc_fc1",1,0,2,45)
ShowMessage("\\n<Pina>You did good for your first time mating.")
ShowMessageFace("hapy_bc_fc1",1,0,2,46)
ShowMessage("\\n<Pii>Heehee... He leaked out in me, huh?\nDid I really feel that good?")
ShowMessageFace("",0,0,2,47)
ShowMessage("\\n<Luka>Auuu...")
ShowMessageFace("",0,0,2,48)
ShowMessage("After I finish spurting everything out, Pii starts to move her waist again.")
ShowMessage("Inside her tight pussy, the stimulation starts all over again...")
ShowMessageFace("hapy_bc_fc1",1,0,2,49)
ShowMessage("\\n<Pii>Ehehe, this isn't difficult at all. ♪")
ShowMessageFace("",0,0,2,50)
ShowMessage("\\n<Luka>Ah... Uwaa!")
RunCommonEvent(104)
PictureDisplay(5,"ev_hapy_bc_hb3",0,0,0,0,100,100,255,0)
RunCommonEvent(105)
ShowMessageFace("",0,0,2,51)
ShowMessage("My protest cut short by another orgasm, I explode inside Pii again.")
ShowMessageFace("",0,0,2,52)
ShowMessage("Forced to come over and over, I lose consciousness.")
246(2)
ShowMessageFace("hapy_bc_fc1",1,0,2,53)
ShowMessage("\\n<Pina>Great job, Pii!")
ShowMessageFace("hapy_bc_fc1",1,0,2,54)
ShowMessage("\\n<Pii>Yay! Thanks, sis! ♪")
221()
PictureClear(5)
PictureClear(6)
ShowMessageFace("",0,0,2,55)
ShowMessage("......")
242(2)
Wait(120)
241(bytes(0x04,0x08,0x6f,0x3a,0x0d,0x52,0x50,0x47,0x3a,0x3a,0x42,0x47,0x4d,0x08,0x3a,0x0a,0x40,0x6e,0x61,0x6d,0x65,0x49,0x22,0x0c,0x63,0x61,0x73,0x74,0x6c,0x65,0x36,0x06,0x3a,0x06,0x45,0x54,0x3a,0x0c,0x40,0x76,0x6f,0x6c,0x75,0x6d,0x65,0x69,0x69,0x3a,0x0b,0x40,0x70,0x69,0x74,0x63,0x68,0x69,0x69))
0()
