// EVENT 4497
Name "Tarantula Girl 2"

If(0,25,1)
 221()
 PictureClear(5)
 PictureClear(6)
 ShowMessageFace("",0,0,2,0)
 ShowMessage("......")
 242(2)
 Wait(120)
 241(bytes(0x04,0x08,0x6f,0x3a,0x0d,0x52,0x50,0x47,0x3a,0x3a,0x42,0x47,0x4d,0x08,0x3a,0x0a,0x40,0x6e,0x61,0x6d,0x65,0x49,0x22,0x0c,0x63,0x61,0x73,0x74,0x6c,0x65,0x36,0x06,0x3a,0x06,0x45,0x54,0x3a,0x0c,0x40,0x76,0x6f,0x6c,0x75,0x6d,0x65,0x69,0x69,0x3a,0x0b,0x40,0x70,0x69,0x74,0x63,0x68,0x69,0x69))
 EndEventProcessing()
 0()
EndIf()
PictureDisplay(5,"80_taran_st02",0,0,0,0,100,100,255,0)
ShowMessageFace("taran_fc1",1,0,2,1)
ShowMessage("\\n<Rachura>To ask me for lewd things...\nYou have guts. Fufufu.")
ShowMessageFace("",0,0,2,2)
ShowMessage("\\n<Luka>P-please...")
ShowMessageFace("taran_fc1",1,0,2,3)
ShowMessage("\\n<Rachura>Well then, I will suck you dry.\nFufu, you will not regret it...") 
250(bytes(0x04,0x08,0x6f,0x3a,0x0c,0x52,0x50,0x47,0x3a,0x3a,0x53,0x45,0x08,0x3a,0x0a,0x40,0x6e,0x61,0x6d,0x65,0x49,0x22,0x10,0x6d,0x6f,0x6e,0x5f,0x65,0x72,0x6f,0x5f,0x69,0x74,0x6f,0x06,0x3a,0x06,0x45,0x54,0x3a,0x0b,0x40,0x70,0x69,0x74,0x63,0x68,0x69,0x69,0x3a,0x0c,0x40,0x76,0x6f,0x6c,0x75,0x6d,0x65,0x69,0x69))
ShowMessageFace("",0,0,2,4)
ShowMessage("While giggling, Rachura turns her spinneret towards me...")
ShowMessage("...And shoots her sticky spider silk all over my body!")
ShowMessageFace("",0,0,2,5)
ShowMessage("\\n<Luka>Urhg... Aaah...")
ShowMessageFace("",0,0,2,6)
ShowMessage("The sticky silk quickly entangles my entire body.")
ShowMessage("The frighteningly powerful silk doesn't even let me move a finger.")
ShowMessageFace("",0,0,2,7)
ShowMessage("Even more, the sticky silk felt slightly soft and wet.")
ShowMessage("It's as if I was stuck inside a giant tongue, tightly squeezing me.")
ShowMessageFace("taran_fc1",1,0,2,8)
ShowMessage("\\n<Rachura>How does my silk feel?")
ShowMessageFace("taran_fc1",1,0,2,9)
ShowMessage("\\n<Rachura>Are you struggling in bliss at the pleasure of being completely bound?")
ShowMessageFace("taran_fc1",1,0,2,10)
ShowMessage("\\n<Rachura>Stuck like that, I'll violate you...\nI'll suck out everything from you...")
PictureDisplay(5,"ev_taran_h2",0,0,0,0,100,100,255,0)
241(bytes(0x04,0x08,0x6f,0x3a,0x0d,0x52,0x50,0x47,0x3a,0x3a,0x42,0x47,0x4d,0x08,0x3a,0x0a,0x40,0x6e,0x61,0x6d,0x65,0x49,0x22,0x09,0x65,0x72,0x6f,0x31,0x06,0x3a,0x06,0x45,0x54,0x3a,0x0c,0x40,0x76,0x6f,0x6c,0x75,0x6d,0x65,0x69,0x69,0x3a,0x0b,0x40,0x70,0x69,0x74,0x63,0x68,0x69,0x69))
ShowMessageFace("",0,0,2,11)
ShowMessage("Rachura presses her abdomen into me.")
ShowMessageFace("",0,0,2,12)
ShowMessage("\\n<Luka>Ah, aaah...")
245(bytes(0x04,0x08,0x6f,0x3a,0x0d,0x52,0x50,0x47,0x3a,0x3a,0x42,0x47,0x53,0x08,0x3a,0x0a,0x40,0x6e,0x61,0x6d,0x65,0x49,0x22,0x1e,0x6d,0x6f,0x6e,0x5f,0x68,0x73,0x65,0x61,0x6e,0x31,0x32,0x5f,0x69,0x6e,0x6e,0x65,0x72,0x77,0x6f,0x72,0x6b,0x73,0x5f,0x63,0x32,0x06,0x3a,0x06,0x45,0x54,0x3a,0x0c,0x40,0x76,0x6f,0x6c,0x75,0x6d,0x65,0x69,0x55,0x3a,0x0b,0x40,0x70,0x69,0x74,0x63,0x68,0x69,0x69))
PictureDisplay(6,"ev_taran_ct01",0,0,0,0,100,100,255,0)
ShowMessageFace("",0,0,2,13)
ShowMessage("She slowly forces me into her spinneret.")
ShowMessage("At first, the tightness inside of her was too much.")
ShowMessageFace("",0,0,2,14)
ShowMessage("But as I'm forced deeper inside, the feelings slowly started to change.")
ShowMessageFace("",0,0,2,15)
ShowMessage("\\n<Luka>Ah, aaaaaah!!")
ShowMessageFace("",0,0,2,16)
ShowMessage("Entangled inside of her, it felt surprisingly cool.")
ShowMessage("The silk inside of her started to move around as it stuck to my penis.")
ShowMessageFace("",0,0,2,17)
ShowMessage("More and more of the silk is wrapped tighter around me.")
ShowMessageFace("taran_fc1",1,0,2,18)
ShowMessage("\\n<Rachura>Does my spinneret feel good?\nInside of it, I can move the silk as I want...")
ShowMessageFace("",0,0,2,19)
ShowMessage("Rachura starts to move as she sneers at me.")
ShowMessageFace("",0,0,2,20)
ShowMessage("I can feel the bumps and creases of her flesh through the silk rubbing against me with every movement.")
ShowMessageFace("",0,0,2,21)
ShowMessage("\\n<Luka>Unnngh...!!")
ShowMessageFace("",0,0,2,22)
ShowMessage("A muscle is poking me like a finger right on the back of my penis.")
ShowMessageFace("",0,0,2,23)
ShowMessage("Every movement forces it to poke into me through the silk, rubbing me up and down.")
ShowMessageFace("",0,0,2,24)
ShowMessage("In addition, tiny bumps cover the walls of her spinneret, each one pushing through the spider silk, forcing a strange pleasure into me.")
ShowMessageFace("",0,0,2,25)
ShowMessage("The strange stimulation forced into me by this strange hole causes my body to shiver.")
ShowMessageFace("",0,0,2,26)
ShowMessage("The complex combinations of stimulations forces me to the edge of another orgasm.")
ShowMessageFace("",0,0,2,27)
ShowMessage("\\n<Luka>Stop... Stop this...\nI'm coming already...!")
ShowMessageFace("taran_fc1",1,0,2,28)
ShowMessage("\\n<Rachura>I'll suck you dry as well,\njust like the others...")
ShowMessageFace("taran_fc1",1,0,2,29)
ShowMessage("\\n<Rachura>Every man that I catch like this gives in eventually...")
ShowMessageFace("",0,0,2,30)
ShowMessage("Not only does the stimulation come from the folds and warts, it also comes from the sticky thread that's clinging to my penis.")
ShowMessageFace("",0,0,2,31)
ShowMessage("This combination of bumps, creases and sticky silk being forced into me by this insect monster is bringing me a pleasure unable to be duplicated by a human female.")
ShowMessageFace("",0,0,2,32)
ShowMessage("Finally surrendering to this bizarre stimulation, I give in to the desire to release.")
ShowMessageFace("",0,0,2,33)
ShowMessage("\\n<Luka>Ah, aaaah...!")
RunCommonEvent(104)
PictureDisplay(5,"ev_taran_h3",0,0,0,0,100,100,255,0)
PictureDisplay(6,"ev_taran_ct02",0,0,0,0,100,100,255,0)
RunCommonEvent(105)
ShowMessageFace("",0,0,2,34)
ShowMessage("Wrapped in her silk inside of her spinneret, I ejaculate.")
ShowMessage("As the sweet feelings of the orgasm come over me, they mix with the disgrace of being forced to give in like this.")
ShowMessageFace("",0,0,2,35)
ShowMessage("My body trembles as my semen shoots out into this insect...")
ShowMessageFace("taran_fc1",1,0,2,36)
ShowMessage("\\n<Rachura>Ah... You put out quite a lot.\nBut I will squeeze more... until you taste heaven.")
ShowMessageFace("taran_fc1",1,0,2,37)
ShowMessage("\\n<Rachura>Enjoying being raped by a spider so much...\nShall I let you taste more?")
ShowMessageFace("taran_fc1",1,0,2,38)
ShowMessage("\\n<Rachura>I will cover your penis with sticky thread inside my vagina...")
ShowMessageFace("",0,0,2,39)
ShowMessage("\\n<Luka>Eh? Ah! Ahhh!!")
ShowMessageFace("",0,0,2,40)
ShowMessage("The entrance to her hole sharply tightens up around the base of my penis.")
ShowMessage("Now fixed at the root, I can't even move inside of her.")
ShowMessageFace("",0,0,2,41)
ShowMessage("Stuck like that, her insides start to slowly shrink.")
ShowMessageFace("",0,0,2,42)
ShowMessage("\\n<Luka>Auu... What are you doing...?")
ShowMessageFace("taran_fc1",1,0,2,43)
ShowMessage("\\n<Rachura>Didn't I just say it...?")
ShowMessageFace("taran_fc1",1,0,2,44)
ShowMessage("\\n<Rachura>You're enjoying being raped by a spider so much,\nthat I'll let you taste more...")
245(bytes(0x04,0x08,0x6f,0x3a,0x0d,0x52,0x50,0x47,0x3a,0x3a,0x42,0x47,0x53,0x08,0x3a,0x0a,0x40,0x6e,0x61,0x6d,0x65,0x49,0x22,0x1e,0x6d,0x6f,0x6e,0x5f,0x68,0x73,0x65,0x61,0x6e,0x31,0x33,0x5f,0x69,0x6e,0x6e,0x65,0x72,0x77,0x6f,0x72,0x6b,0x73,0x5f,0x63,0x33,0x06,0x3a,0x06,0x45,0x54,0x3a,0x0c,0x40,0x76,0x6f,0x6c,0x75,0x6d,0x65,0x69,0x55,0x3a,0x0b,0x40,0x70,0x69,0x74,0x63,0x68,0x69,0x69))
ShowMessageFace("",0,0,2,45)
ShowMessage("The next moment after saying that...")
ShowMessage("She sprays more sticky silk all over my penis!")
ShowMessageFace("",0,0,2,46)
ShowMessage("\\n<Luka>Aiiee!")
ShowMessageFace("",0,0,2,47)
ShowMessage("The moist, sticky silk coils tightly around me.")
ShowMessage("My waist shakes at the unexpected pleasure attacking me.")
ShowMessageFace("",0,0,2,48)
ShowMessage("But completely stuck inside of her, there's no escape from it.")
ShowMessageFace("taran_fc1",1,0,2,49)
ShowMessage("\\n<Rachura>Once you're covered in too much, you won't be able to pull out of me even if I loosened up...\nI'll spray more... Hora...")
ShowMessageFace("",0,0,2,50)
ShowMessage("\\n<Luka>Haa!!")
ShowMessageFace("",0,0,2,51)
ShowMessage("She sprays out more sticky silk over me, wrapping me even tighter.")
ShowMessage("My body shakes pathetically as I'm attacked by the stimulation.")
ShowMessageFace("",0,0,2,52)
ShowMessage("The silk tightens around me as I feel more and more of it pile on.")
ShowMessage("It's as if the soft silk is making my penis even larger inside of her,\nas the creases and bumps from her fleshy walls push even harder into me.")
ShowMessageFace("taran_fc1",1,0,2,53)
ShowMessage("\\n<Rachura>How is it? Having your proof of manhood covered in my silk?\nIs it miserable? Or did you stop caring because it feels too good?")
ShowMessageFace("",0,0,2,54)
ShowMessage("\\n<Luka>Auu... Please... Stop...")
ShowMessageFace("taran_fc1",1,0,2,55)
ShowMessage("\\n<Rachura>No.\nJust for that, I'll give you even more...")
ShowMessageFace("",0,0,2,56)
ShowMessage("More of her silk is sprayed on my penis, as the squeezing sensation only increases.")
ShowMessageFace("",0,0,2,57)
ShowMessage("\\n<Luka>Hauuu!")
ShowMessageFace("",0,0,2,58)
ShowMessage("She pauses for a few seconds, then starts again and sprays even more.")
ShowMessageFace("",0,0,2,59)
ShowMessage("Rolling up my penis tighter and tighter, I can already feel that there's no way to get out of her.")
ShowMessageFace("",0,0,2,60)
ShowMessage("\\n<Luka>Auuu... The silk... Too good...")
ShowMessageFace("taran_fc1",1,0,2,61)
ShowMessage("\\n<Rachura>...I see, so it does feel good.\nThen, shall I force you to come now?")
ShowMessageFace("",0,0,2,62)
ShowMessage("Aiming right at the tip of my penis, more silk sprays out inside of her.")
ShowMessage("The moist sticky silk wraps tighter around my tip.")
ShowMessageFace("",0,0,2,63)
ShowMessage("Unable to take it any longer, it finally sends me over the limit.")
ShowMessageFace("",0,0,2,64)
ShowMessage("\\n<Luka>Aaaaaah!!")
RunCommonEvent(104)
PictureDisplay(5,"ev_taran_h4",0,0,0,0,100,100,255,0)
PictureDisplay(6,"ev_taran_ct03",0,0,0,0,100,100,255,0)
RunCommonEvent(105)
ShowMessageFace("",0,0,2,65)
ShowMessage("The semen forces a hole through the silk as all of it pours into the Tarantula Girl's spinneret.")
ShowMessageFace("",0,0,2,66)
ShowMessage("The cloudiness I shoot inside Ranchura is absorbed.")
ShowMessageFace("taran_fc1",1,0,2,67)
ShowMessage("\\n<Rachura>Mmm... Delicious male extract...\nBut play time is over.")
ShowMessageFace("taran_fc1",1,0,2,68)
ShowMessage("\\n<Rachura>I'm hungry, so I'm going to suck you dry now...")
ShowMessageFace("",0,0,2,69)
ShowMessage("In the next moment, her spinneret starts to violently wriggle!")
ShowMessageFace("",0,0,2,70)
ShowMessage("\\n<Luka>Ah, aaaaaah!!")
ShowMessageFace("",0,0,2,71)
ShowMessage("As if in a whirlpool, the silk swirls and rotates around me.")
ShowMessageFace("",0,0,2,72)
ShowMessage("Shrinking around me, the bumps and creases inside of her are massaging me in a circle.")
ShowMessageFace("taran_fc1",1,0,2,73)
ShowMessage("\\n<Rachura>Hora, Hora, Hora...\nIf I do this, there's no way you can hold out...")
ShowMessageFace("taran_fc1",1,0,2,74)
ShowMessage("\\n<Rachura>Just like this, I'll squeeze every drop out of you!")
ShowMessageFace("",0,0,2,75)
ShowMessage("\\n<Luka>Ah! Auu! Auuu!!")
ShowMessageFace("",0,0,2,76)
ShowMessage("With all of the features of her spinneret amplified by the silk covering me, I'm quickly brought to another height in her rotating whirlpool.")
ShowMessageFace("",0,0,2,77)
ShowMessage("\\n<Luka>Ah...Ahhh!!")
RunCommonEvent(104)
PictureDisplay(5,"ev_taran_h5",0,0,0,0,100,100,255,0)
PictureDisplay(6,"ev_taran_ct04",0,0,0,0,100,100,255,0)
RunCommonEvent(105)
ShowMessageFace("",0,0,2,78)
ShowMessage("I yield right away to the building desire to release, as I give all of my semen to her mixer...")
ShowMessageFace("",0,0,2,79)
ShowMessage("\\n<Luka>Stop... This...")
ShowMessageFace("taran_fc1",1,0,2,80)
ShowMessage("\\n<Rachura>I won't stop.")
ShowMessageFace("taran_fc1",1,0,2,81)
ShowMessage("\\n<Rachura>I'm going to suck you dry in here.")
ShowMessageFace("taran_fc1",1,0,2,82)
ShowMessage("\\n<Rachura>Are you scared?\nOr does it feel too good for you to care?")
ShowMessageFace("",0,0,2,83)
ShowMessage("\\n<Luka>Ah, aaaaaah!!")
RunCommonEvent(104)
RunCommonEvent(105)
ShowMessageFace("",0,0,2,84)
ShowMessage("No matter how much I try, I can't endure the stimulation.")
ShowMessage("Stuck in her spinneret, I'm forced to orgasm.")
ShowMessageFace("",0,0,2,85)
ShowMessage("Completely bound by her spider silk, I can't even move my body.")
ShowMessage("Completely at her mercy, there's no escape from this...")
ShowMessageFace("",0,0,2,86)
ShowMessage("\\n<Luka>Auu... I'm coming again...")
RunCommonEvent(104)
RunCommonEvent(105)
ShowMessageFace("",0,0,2,87)
ShowMessage("Inside of her pleasure mixer, more of my semen is forced out.")
ShowMessage("Every time I ejaculate in her, I can feel my body weaken.")
ShowMessageFace("",0,0,2,88)
ShowMessage("\\n<Luka>Stop please... Any more than this and...")
ShowMessageFace("taran_fc1",1,0,2,89)
ShowMessage("\\n<Rachura>If you don't want to die, all you have to do is endure it.\nBut that might be impossible...")
ShowMessageFace("",0,0,2,90)
ShowMessage("\\n<Luka>Aaah...")
RunCommonEvent(104)
RunCommonEvent(105)
ShowMessageFace("",0,0,2,91)
ShowMessage("While Rachura laughs at me, I'm forced to come again.")
ShowMessageFace("",0,0,2,92)
ShowMessage("With it already as if I was out of semen, it's like my energy is shooting out instead now.")
ShowMessageFace("",0,0,2,93)
ShowMessage("\\n<Luka>Unnngh...")
ShowMessageFace("",0,0,2,94)
ShowMessage("With my strength rapidly vanishing, my vision starts to go hazy.")
ShowMessage("The pleasure being forced into me is making my mind and body melt...")
RunCommonEvent(104)
RunCommonEvent(105)
ShowMessageFace("taran_fc1",1,0,2,95)
ShowMessage("\\n<Rachura>More... Shoot out more...\nWhile tasting heaven, shrivel up until nothing is left...")
ShowMessageFace("",0,0,2,96)
ShowMessage("\\n<Luka>Aaah...")
RunCommonEvent(104)
RunCommonEvent(105)
ShowMessageFace("",0,0,2,97)
ShowMessage("Stuck in pleasure, my life is sucked out.")
ShowMessage("Squeezing out everything, my body is left dry.")
RunCommonEvent(104)
RunCommonEvent(105)
ShowMessageFace("",0,0,2,98)
ShowMessage("Feeling my body get colder, a final orgasm comes over me.")
ShowMessage("Finally, my consciousness slowly fades into nothingness.")
221()
PictureClear(5)
PictureClear(6)
246(2)
ShowMessageFace("taran_fc1",0,0,2,99)
ShowMessage("\\n<Rachura>Oh, did you faint?\nI was joking about squeezing you dry...")
ShowMessageFace("taran_fc1",1,0,2,100)
ShowMessage("\\n<Rachura>We're friends, right? I'm not going to do that.\nOf course, it's different if you ask for it...")
ShowMessageFace("",0,0,2,101)
ShowMessage("\\n<Luka>......")
ShowMessageFace("",0,0,2,102)
ShowMessage("Apparently, I didn't lose my life.")
ShowMessage("But depending on what I ask for, she may misunderstand next time...")
ShowMessageFace("",0,0,2,103)
ShowMessage("......")
242(2)
Wait(120)
241(bytes(0x04,0x08,0x6f,0x3a,0x0d,0x52,0x50,0x47,0x3a,0x3a,0x42,0x47,0x4d,0x08,0x3a,0x0a,0x40,0x6e,0x61,0x6d,0x65,0x49,0x22,0x0c,0x63,0x61,0x73,0x74,0x6c,0x65,0x36,0x06,0x3a,0x06,0x45,0x54,0x3a,0x0c,0x40,0x76,0x6f,0x6c,0x75,0x6d,0x65,0x69,0x69,0x3a,0x0b,0x40,0x70,0x69,0x74,0x63,0x68,0x69,0x69))
0()
