﻿


EVENT   1
 PAGE   1
  0()



EVENT   2
 PAGE   1
  0()



EVENT   3
 PAGE   1
  250(bytes(0x04,0x08,0x6f,0x3a,0x0c,0x52,0x50,0x47,0x3a,0x3a,0x53,0x45,0x08,0x3a,0x0a,0x40,0x6e,0x61,0x6d,0x65,0x49,0x22,0x09,0x4d,0x6f,0x76,0x65,0x06,0x3a,0x06,0x45,0x54,0x3a,0x0b,0x40,0x70,0x69,0x74,0x63,0x68,0x69,0x69,0x3a,0x0c,0x40,0x76,0x6f,0x6c,0x75,0x6d,0x65,0x69,0x55))
  TeleportPlayer(0,484,13,31,0,0)
  0()



EVENT   4
 PAGE   1
  250(bytes(0x04,0x08,0x6f,0x3a,0x0c,0x52,0x50,0x47,0x3a,0x3a,0x53,0x45,0x08,0x3a,0x0a,0x40,0x6e,0x61,0x6d,0x65,0x49,0x22,0x09,0x4d,0x6f,0x76,0x65,0x06,0x3a,0x06,0x45,0x54,0x3a,0x0b,0x40,0x70,0x69,0x74,0x63,0x68,0x69,0x69,0x3a,0x0c,0x40,0x76,0x6f,0x6c,0x75,0x6d,0x65,0x69,0x55))
  TeleportPlayer(0,484,13,31,0,0)
  0()



EVENT   5
 PAGE   1
  250(bytes(0x04,0x08,0x6f,0x3a,0x0c,0x52,0x50,0x47,0x3a,0x3a,0x53,0x45,0x08,0x3a,0x0a,0x40,0x6e,0x61,0x6d,0x65,0x49,0x22,0x09,0x4d,0x6f,0x76,0x65,0x06,0x3a,0x06,0x45,0x54,0x3a,0x0b,0x40,0x70,0x69,0x74,0x63,0x68,0x69,0x69,0x3a,0x0c,0x40,0x76,0x6f,0x6c,0x75,0x6d,0x65,0x69,0x55))
  TeleportPlayer(0,484,13,31,0,0)
  0()



EVENT   6
 PAGE   1
  250(bytes(0x04,0x08,0x6f,0x3a,0x0c,0x52,0x50,0x47,0x3a,0x3a,0x53,0x45,0x08,0x3a,0x0a,0x40,0x6e,0x61,0x6d,0x65,0x49,0x22,0x09,0x4d,0x6f,0x76,0x65,0x06,0x3a,0x06,0x45,0x54,0x3a,0x0b,0x40,0x70,0x69,0x74,0x63,0x68,0x69,0x69,0x3a,0x0c,0x40,0x76,0x6f,0x6c,0x75,0x6d,0x65,0x69,0x55))
  TeleportPlayer(0,484,13,31,0,0)
  0()



EVENT   7
 PAGE   1
  250(bytes(0x04,0x08,0x6f,0x3a,0x0c,0x52,0x50,0x47,0x3a,0x3a,0x53,0x45,0x08,0x3a,0x0a,0x40,0x6e,0x61,0x6d,0x65,0x49,0x22,0x09,0x4d,0x6f,0x76,0x65,0x06,0x3a,0x06,0x45,0x54,0x3a,0x0b,0x40,0x70,0x69,0x74,0x63,0x68,0x69,0x69,0x3a,0x0c,0x40,0x76,0x6f,0x6c,0x75,0x6d,0x65,0x69,0x55))
  TeleportPlayer(0,484,13,31,0,0)
  0()



EVENT   8
 PAGE   1
  250(bytes(0x04,0x08,0x6f,0x3a,0x0c,0x52,0x50,0x47,0x3a,0x3a,0x53,0x45,0x08,0x3a,0x0a,0x40,0x6e,0x61,0x6d,0x65,0x49,0x22,0x09,0x4d,0x6f,0x76,0x65,0x06,0x3a,0x06,0x45,0x54,0x3a,0x0b,0x40,0x70,0x69,0x74,0x63,0x68,0x69,0x69,0x3a,0x0c,0x40,0x76,0x6f,0x6c,0x75,0x6d,0x65,0x69,0x55))
  TeleportPlayer(0,484,54,31,0,0)
  0()



EVENT   9
 PAGE   1
  250(bytes(0x04,0x08,0x6f,0x3a,0x0c,0x52,0x50,0x47,0x3a,0x3a,0x53,0x45,0x08,0x3a,0x0a,0x40,0x6e,0x61,0x6d,0x65,0x49,0x22,0x09,0x4d,0x6f,0x76,0x65,0x06,0x3a,0x06,0x45,0x54,0x3a,0x0b,0x40,0x70,0x69,0x74,0x63,0x68,0x69,0x69,0x3a,0x0c,0x40,0x76,0x6f,0x6c,0x75,0x6d,0x65,0x69,0x55))
  TeleportPlayer(0,484,54,31,0,0)
  0()



EVENT   10
 PAGE   1
  250(bytes(0x04,0x08,0x6f,0x3a,0x0c,0x52,0x50,0x47,0x3a,0x3a,0x53,0x45,0x08,0x3a,0x0a,0x40,0x6e,0x61,0x6d,0x65,0x49,0x22,0x09,0x4d,0x6f,0x76,0x65,0x06,0x3a,0x06,0x45,0x54,0x3a,0x0b,0x40,0x70,0x69,0x74,0x63,0x68,0x69,0x69,0x3a,0x0c,0x40,0x76,0x6f,0x6c,0x75,0x6d,0x65,0x69,0x55))
  TeleportPlayer(0,484,54,31,0,0)
  0()



EVENT   11
 PAGE   1
  250(bytes(0x04,0x08,0x6f,0x3a,0x0c,0x52,0x50,0x47,0x3a,0x3a,0x53,0x45,0x08,0x3a,0x0a,0x40,0x6e,0x61,0x6d,0x65,0x49,0x22,0x09,0x4d,0x6f,0x76,0x65,0x06,0x3a,0x06,0x45,0x54,0x3a,0x0b,0x40,0x70,0x69,0x74,0x63,0x68,0x69,0x69,0x3a,0x0c,0x40,0x76,0x6f,0x6c,0x75,0x6d,0x65,0x69,0x55))
  TeleportPlayer(0,484,54,31,0,0)
  0()



EVENT   12
 PAGE   1
  250(bytes(0x04,0x08,0x6f,0x3a,0x0c,0x52,0x50,0x47,0x3a,0x3a,0x53,0x45,0x08,0x3a,0x0a,0x40,0x6e,0x61,0x6d,0x65,0x49,0x22,0x09,0x4d,0x6f,0x76,0x65,0x06,0x3a,0x06,0x45,0x54,0x3a,0x0b,0x40,0x70,0x69,0x74,0x63,0x68,0x69,0x69,0x3a,0x0c,0x40,0x76,0x6f,0x6c,0x75,0x6d,0x65,0x69,0x55))
  TeleportPlayer(0,484,54,31,0,0)
  0()



EVENT   13
 PAGE   1
  250(bytes(0x04,0x08,0x6f,0x3a,0x0c,0x52,0x50,0x47,0x3a,0x3a,0x53,0x45,0x08,0x3a,0x0a,0x40,0x6e,0x61,0x6d,0x65,0x49,0x22,0x09,0x4d,0x6f,0x76,0x65,0x06,0x3a,0x06,0x45,0x54,0x3a,0x0b,0x40,0x70,0x69,0x74,0x63,0x68,0x69,0x69,0x3a,0x0c,0x40,0x76,0x6f,0x6c,0x75,0x6d,0x65,0x69,0x55))
  TeleportPlayer(0,375,55,13,0,0)
  0()



EVENT   14
 PAGE   1
  250(bytes(0x04,0x08,0x6f,0x3a,0x0c,0x52,0x50,0x47,0x3a,0x3a,0x53,0x45,0x08,0x3a,0x0a,0x40,0x6e,0x61,0x6d,0x65,0x49,0x22,0x09,0x4d,0x6f,0x76,0x65,0x06,0x3a,0x06,0x45,0x54,0x3a,0x0b,0x40,0x70,0x69,0x74,0x63,0x68,0x69,0x69,0x3a,0x0c,0x40,0x76,0x6f,0x6c,0x75,0x6d,0x65,0x69,0x55))
  TeleportPlayer(0,375,22,13,0,0)
  0()



EVENT   15
 PAGE   1
  If(6,-1,2)
   250(bytes(0x04,0x08,0x6f,0x3a,0x0c,0x52,0x50,0x47,0x3a,0x3a,0x53,0x45,0x08,0x3a,0x0a,0x40,0x6e,0x61,0x6d,0x65,0x49,0x22,0x09,0x4d,0x6f,0x76,0x65,0x06,0x3a,0x06,0x45,0x54,0x3a,0x0b,0x40,0x70,0x69,0x74,0x63,0x68,0x69,0x69,0x3a,0x0c,0x40,0x76,0x6f,0x6c,0x75,0x6d,0x65,0x69,0x55))
   TeleportPlayer(0,375,56,49,0,0)
   0()
  EndIf()
  0()



EVENT   16
 PAGE   1
  If(6,-1,2)
   250(bytes(0x04,0x08,0x6f,0x3a,0x0c,0x52,0x50,0x47,0x3a,0x3a,0x53,0x45,0x08,0x3a,0x0a,0x40,0x6e,0x61,0x6d,0x65,0x49,0x22,0x09,0x4d,0x6f,0x76,0x65,0x06,0x3a,0x06,0x45,0x54,0x3a,0x0b,0x40,0x70,0x69,0x74,0x63,0x68,0x69,0x69,0x3a,0x0c,0x40,0x76,0x6f,0x6c,0x75,0x6d,0x65,0x69,0x55))
   TeleportPlayer(0,375,55,49,0,0)
   0()
  EndIf()
  0()



EVENT   17
 PAGE   1
  If(6,-1,2)
   250(bytes(0x04,0x08,0x6f,0x3a,0x0c,0x52,0x50,0x47,0x3a,0x3a,0x53,0x45,0x08,0x3a,0x0a,0x40,0x6e,0x61,0x6d,0x65,0x49,0x22,0x09,0x4d,0x6f,0x76,0x65,0x06,0x3a,0x06,0x45,0x54,0x3a,0x0b,0x40,0x70,0x69,0x74,0x63,0x68,0x69,0x69,0x3a,0x0c,0x40,0x76,0x6f,0x6c,0x75,0x6d,0x65,0x69,0x55))
   TeleportPlayer(0,375,22,49,0,0)
   0()
  EndIf()
  0()



EVENT   18
 PAGE   1
  If(6,-1,2)
   250(bytes(0x04,0x08,0x6f,0x3a,0x0c,0x52,0x50,0x47,0x3a,0x3a,0x53,0x45,0x08,0x3a,0x0a,0x40,0x6e,0x61,0x6d,0x65,0x49,0x22,0x09,0x4d,0x6f,0x76,0x65,0x06,0x3a,0x06,0x45,0x54,0x3a,0x0b,0x40,0x70,0x69,0x74,0x63,0x68,0x69,0x69,0x3a,0x0c,0x40,0x76,0x6f,0x6c,0x75,0x6d,0x65,0x69,0x55))
   TeleportPlayer(0,375,21,49,0,0)
   0()
  EndIf()
  0()



EVENT   19
 PAGE   1
  250(bytes(0x04,0x08,0x6f,0x3a,0x0c,0x52,0x50,0x47,0x3a,0x3a,0x53,0x45,0x08,0x3a,0x0a,0x40,0x6e,0x61,0x6d,0x65,0x49,0x22,0x09,0x4d,0x6f,0x76,0x65,0x06,0x3a,0x06,0x45,0x54,0x3a,0x0b,0x40,0x70,0x69,0x74,0x63,0x68,0x69,0x69,0x3a,0x0c,0x40,0x76,0x6f,0x6c,0x75,0x6d,0x65,0x69,0x55))
  TeleportPlayer(0,486,65,11,0,0)
  0()



EVENT   20
 PAGE   1
  250(bytes(0x04,0x08,0x6f,0x3a,0x0c,0x52,0x50,0x47,0x3a,0x3a,0x53,0x45,0x08,0x3a,0x0a,0x40,0x6e,0x61,0x6d,0x65,0x49,0x22,0x09,0x4d,0x6f,0x76,0x65,0x06,0x3a,0x06,0x45,0x54,0x3a,0x0b,0x40,0x70,0x69,0x74,0x63,0x68,0x69,0x69,0x3a,0x0c,0x40,0x76,0x6f,0x6c,0x75,0x6d,0x65,0x69,0x55))
  TeleportPlayer(0,486,24,11,0,0)
  0()



EVENT   21
 PAGE   1
  If(6,-1,2)
   250(bytes(0x04,0x08,0x6f,0x3a,0x0c,0x52,0x50,0x47,0x3a,0x3a,0x53,0x45,0x08,0x3a,0x0a,0x40,0x6e,0x61,0x6d,0x65,0x49,0x22,0x09,0x4d,0x6f,0x76,0x65,0x06,0x3a,0x06,0x45,0x54,0x3a,0x0b,0x40,0x70,0x69,0x74,0x63,0x68,0x69,0x69,0x3a,0x0c,0x40,0x76,0x6f,0x6c,0x75,0x6d,0x65,0x69,0x55))
   TeleportPlayer(0,486,24,48,0,0)
   0()
  EndIf()
  0()



EVENT   22
 PAGE   1
  If(6,-1,2)
   250(bytes(0x04,0x08,0x6f,0x3a,0x0c,0x52,0x50,0x47,0x3a,0x3a,0x53,0x45,0x08,0x3a,0x0a,0x40,0x6e,0x61,0x6d,0x65,0x49,0x22,0x09,0x4d,0x6f,0x76,0x65,0x06,0x3a,0x06,0x45,0x54,0x3a,0x0b,0x40,0x70,0x69,0x74,0x63,0x68,0x69,0x69,0x3a,0x0c,0x40,0x76,0x6f,0x6c,0x75,0x6d,0x65,0x69,0x55))
   TeleportPlayer(0,486,24,48,0,0)
   0()
  EndIf()
  0()



EVENT   23
 PAGE   1
  If(6,-1,2)
   250(bytes(0x04,0x08,0x6f,0x3a,0x0c,0x52,0x50,0x47,0x3a,0x3a,0x53,0x45,0x08,0x3a,0x0a,0x40,0x6e,0x61,0x6d,0x65,0x49,0x22,0x09,0x4d,0x6f,0x76,0x65,0x06,0x3a,0x06,0x45,0x54,0x3a,0x0b,0x40,0x70,0x69,0x74,0x63,0x68,0x69,0x69,0x3a,0x0c,0x40,0x76,0x6f,0x6c,0x75,0x6d,0x65,0x69,0x55))
   TeleportPlayer(0,486,65,48,0,0)
   0()
  EndIf()
  0()



EVENT   24
 PAGE   1
  If(6,-1,2)
   250(bytes(0x04,0x08,0x6f,0x3a,0x0c,0x52,0x50,0x47,0x3a,0x3a,0x53,0x45,0x08,0x3a,0x0a,0x40,0x6e,0x61,0x6d,0x65,0x49,0x22,0x09,0x4d,0x6f,0x76,0x65,0x06,0x3a,0x06,0x45,0x54,0x3a,0x0b,0x40,0x70,0x69,0x74,0x63,0x68,0x69,0x69,0x3a,0x0c,0x40,0x76,0x6f,0x6c,0x75,0x6d,0x65,0x69,0x55))
   TeleportPlayer(0,486,65,48,0,0)
   0()
  EndIf()
  0()



EVENT   25
 PAGE   1
  If(12,"$game_player.y >= 14 && $game_player.y <= 44 && $game_player.x >= 9 && $game_player.x <= 10")
   If(6,-1,6)
    282(112)
    JumpToLabel("2")
    0()
   EndIf()
   0()
  EndIf()
  If(12,"$game_player.y >= 14 && $game_player.y <= 44 && $game_player.x >= 8 && $game_player.x <= 9")
   If(6,-1,4)
    282(111)
    JumpToLabel("3")
    0()
   EndIf()
   0()
  EndIf()
  If(12,"$game_player.x >= 18 && $game_player.x <= 49 && $game_player.y >= 5 && $game_player.y <= 6")
   If(6,-1,8)
    282(111)
    JumpToLabel("3")
    0()
   EndIf()
   0()
  EndIf()
  If(12,"$game_player.x >= 18 && $game_player.x <= 49 && $game_player.y >= 6 && $game_player.y <= 7")
   If(6,-1,2)
    282(112)
    JumpToLabel("2")
    0()
   EndIf()
   0()
  EndIf()
  If(12,"$game_player.y >= 14 && $game_player.y <= 44 && $game_player.x >= 58 && $game_player.x <= 59")
   If(6,-1,6)
    282(111)
    JumpToLabel("3")
    0()
   EndIf()
   0()
  EndIf()
  If(12,"$game_player.y >= 14 && $game_player.y <= 44 && $game_player.x <= 58 && $game_player.x >= 57")
   If(6,-1,4)
    282(112)
    JumpToLabel("2")
    0()
   EndIf()
   0()
  EndIf()
  JumpToLabel("1")
  DefineLabel("2")
  TeleportEvent(33,0,10,45,0)
  TeleportEvent(61,0,57,45,0)
  JumpToLabel("1")
  DefineLabel("3")
  TeleportEvent(33,0,10,44,0)
  TeleportEvent(61,0,57,44,0)
  DefineLabel("1")
  Wait(1)
  0()



EVENT   26
 PAGE   1
  TeleportEvent(28,0,9,44,0)
  TeleportEvent(66,0,58,44,0)
  TeleportEvent(29,0,9,44,0)
  TeleportEvent(67,0,58,44,0)
  222()
  TemporaryRemoveEvent()
  0()



EVENT   27
 PAGE   1
  0()



EVENT   28
 PAGE   1
  0()



EVENT   29
 PAGE   1
  0()



EVENT   30
 PAGE   1
  0()



EVENT   31
 PAGE   1
  0()



EVENT   32
 PAGE   1
  0()



EVENT   33
 PAGE   1
  0()



EVENT   34
 PAGE   1
  TeleportEvent(18,0,16,50,0)
  TeleportEvent(17,0,17,50,0)
  TeleportEvent(16,0,50,50,0)
  TeleportEvent(15,0,51,50,0)
  282(111)
  TeleportEvent(33,0,10,44,0)
  TeleportEvent(61,0,57,44,0)
  0()



EVENT   35
 PAGE   1
  TeleportEvent(18,0,16,50,0)
  TeleportEvent(17,0,17,50,0)
  TeleportEvent(16,0,50,50,0)
  TeleportEvent(15,0,51,50,0)
  282(111)
  TeleportEvent(33,0,10,44,0)
  TeleportEvent(61,0,57,44,0)
  0()



EVENT   36
 PAGE   1
  TeleportEvent(18,0,16,50,0)
  TeleportEvent(17,0,17,50,0)
  TeleportEvent(16,0,50,50,0)
  TeleportEvent(15,0,51,50,0)
  282(111)
  TeleportEvent(33,0,10,44,0)
  TeleportEvent(61,0,57,44,0)
  0()



EVENT   37
 PAGE   1
  TeleportEvent(18,0,16,51,0)
  TeleportEvent(17,0,17,51,0)
  TeleportEvent(16,0,50,51,0)
  TeleportEvent(15,0,51,51,0)
  0()



EVENT   38
 PAGE   1
  TeleportEvent(18,0,16,51,0)
  TeleportEvent(17,0,17,51,0)
  TeleportEvent(16,0,50,51,0)
  TeleportEvent(15,0,51,51,0)
  0()



EVENT   39
 PAGE   1
  TeleportEvent(18,0,16,50,0)
  TeleportEvent(17,0,17,50,0)
  TeleportEvent(16,0,50,50,0)
  TeleportEvent(15,0,51,50,0)
  0()



EVENT   40
 PAGE   1
  TeleportEvent(18,0,16,51,0)
  TeleportEvent(17,0,17,51,0)
  TeleportEvent(16,0,50,51,0)
  TeleportEvent(15,0,51,51,0)
  0()



EVENT   41
 PAGE   1
  TeleportEvent(18,0,16,50,0)
  TeleportEvent(17,0,17,50,0)
  TeleportEvent(16,0,50,50,0)
  TeleportEvent(15,0,51,50,0)
  0()



EVENT   42
 PAGE   1
  TeleportEvent(18,0,16,50,0)
  TeleportEvent(17,0,17,50,0)
  TeleportEvent(16,0,50,50,0)
  TeleportEvent(15,0,51,50,0)
  0()



EVENT   43
 PAGE   1
  TeleportEvent(18,0,16,50,0)
  TeleportEvent(17,0,17,50,0)
  TeleportEvent(16,0,50,50,0)
  TeleportEvent(15,0,51,50,0)
  0()



EVENT   44
 PAGE   1
  0()



EVENT   45
 PAGE   1
  0()



EVENT   46
 PAGE   1
  0()



EVENT   47
 PAGE   1
  TeleportEvent(18,0,16,50,0)
  TeleportEvent(17,0,17,50,0)
  TeleportEvent(16,0,50,50,0)
  TeleportEvent(15,0,51,50,0)
  0()



EVENT   48
 PAGE   1
  TeleportEvent(18,0,16,50,0)
  TeleportEvent(17,0,17,50,0)
  TeleportEvent(16,0,50,50,0)
  TeleportEvent(15,0,51,50,0)
  0()



EVENT   49
 PAGE   1
  TeleportEvent(18,0,16,50,0)
  TeleportEvent(17,0,17,50,0)
  TeleportEvent(16,0,50,50,0)
  TeleportEvent(15,0,51,50,0)
  0()



EVENT   50
 PAGE   1
  TeleportEvent(18,0,16,50,0)
  TeleportEvent(17,0,17,50,0)
  TeleportEvent(16,0,50,50,0)
  TeleportEvent(15,0,51,50,0)
  0()



EVENT   51
 PAGE   1
  TeleportEvent(18,0,16,50,0)
  TeleportEvent(17,0,17,50,0)
  TeleportEvent(16,0,50,50,0)
  TeleportEvent(15,0,51,50,0)
  282(111)
  TeleportEvent(33,0,10,44,0)
  TeleportEvent(61,0,57,44,0)
  0()



EVENT   52
 PAGE   1
  TeleportEvent(18,0,16,50,0)
  TeleportEvent(17,0,17,50,0)
  TeleportEvent(16,0,50,50,0)
  TeleportEvent(15,0,51,50,0)
  282(111)
  TeleportEvent(33,0,10,44,0)
  TeleportEvent(61,0,57,44,0)
  0()



EVENT   53
 PAGE   1
  TeleportEvent(18,0,16,50,0)
  TeleportEvent(17,0,17,50,0)
  TeleportEvent(16,0,50,50,0)
  TeleportEvent(15,0,51,50,0)
  282(111)
  TeleportEvent(33,0,10,44,0)
  TeleportEvent(61,0,57,44,0)
  0()



EVENT   54
 PAGE   1
  TeleportEvent(18,0,16,51,0)
  TeleportEvent(17,0,17,51,0)
  TeleportEvent(16,0,50,51,0)
  TeleportEvent(15,0,51,51,0)
  0()



EVENT   55
 PAGE   1
  TeleportEvent(18,0,16,51,0)
  TeleportEvent(17,0,17,51,0)
  TeleportEvent(16,0,50,51,0)
  TeleportEvent(15,0,51,51,0)
  0()



EVENT   56
 PAGE   1
  TeleportEvent(18,0,16,50,0)
  TeleportEvent(17,0,17,50,0)
  TeleportEvent(16,0,50,50,0)
  TeleportEvent(15,0,51,50,0)
  0()



EVENT   57
 PAGE   1
  TeleportEvent(18,0,16,51,0)
  TeleportEvent(17,0,17,51,0)
  TeleportEvent(16,0,50,51,0)
  TeleportEvent(15,0,51,51,0)
  0()



EVENT   58
 PAGE   1
  TeleportEvent(18,0,16,50,0)
  TeleportEvent(17,0,17,50,0)
  TeleportEvent(16,0,50,50,0)
  TeleportEvent(15,0,51,50,0)
  0()



EVENT   59
 PAGE   1
  TeleportEvent(18,0,16,50,0)
  TeleportEvent(17,0,17,50,0)
  TeleportEvent(16,0,50,50,0)
  TeleportEvent(15,0,51,50,0)
  0()



EVENT   60
 PAGE   1
  TeleportEvent(18,0,16,50,0)
  TeleportEvent(17,0,17,50,0)
  TeleportEvent(16,0,50,50,0)
  TeleportEvent(15,0,51,50,0)
  0()



EVENT   61
 PAGE   1
  0()



EVENT   62
 PAGE   1
  0()



EVENT   63
 PAGE   1
  0()



EVENT   64
 PAGE   1
  0()



EVENT   65
 PAGE   1
  0()



EVENT   66
 PAGE   1
  0()



EVENT   67
 PAGE   1
  0()



EVENT   68
 PAGE   1
  TeleportEvent(18,0,16,50,0)
  TeleportEvent(17,0,17,50,0)
  TeleportEvent(16,0,50,50,0)
  TeleportEvent(15,0,51,50,0)
  0()



EVENT   69
 PAGE   1
  TeleportEvent(18,0,16,50,0)
  TeleportEvent(17,0,17,50,0)
  TeleportEvent(16,0,50,50,0)
  TeleportEvent(15,0,51,50,0)
  0()



EVENT   70
 PAGE   1
  TeleportEvent(18,0,16,50,0)
  TeleportEvent(17,0,17,50,0)
  TeleportEvent(16,0,50,50,0)
  TeleportEvent(15,0,51,50,0)
  0()



EVENT   71
 PAGE   1
  TeleportEvent(18,0,16,50,0)
  TeleportEvent(17,0,17,50,0)
  TeleportEvent(16,0,50,50,0)
  TeleportEvent(15,0,51,50,0)
  0()



EVENT   72
 PAGE   1
  0()



EVENT   73
 PAGE   1
  0()



EVENT   74
 PAGE   1
  0()



EVENT   75
 PAGE   1
  250(bytes(0x04,0x08,0x6f,0x3a,0x0c,0x52,0x50,0x47,0x3a,0x3a,0x53,0x45,0x08,0x3a,0x0a,0x40,0x6e,0x61,0x6d,0x65,0x49,0x22,0x09,0x4d,0x6f,0x76,0x65,0x06,0x3a,0x06,0x45,0x54,0x3a,0x0b,0x40,0x70,0x69,0x74,0x63,0x68,0x69,0x69,0x3a,0x0c,0x40,0x76,0x6f,0x6c,0x75,0x6d,0x65,0x69,0x55))
  TeleportPlayer(0,375,21,49,0,0)
  0()



EVENT   76
 PAGE   1
  250(bytes(0x04,0x08,0x6f,0x3a,0x0c,0x52,0x50,0x47,0x3a,0x3a,0x53,0x45,0x08,0x3a,0x0a,0x40,0x6e,0x61,0x6d,0x65,0x49,0x22,0x09,0x4d,0x6f,0x76,0x65,0x06,0x3a,0x06,0x45,0x54,0x3a,0x0b,0x40,0x70,0x69,0x74,0x63,0x68,0x69,0x69,0x3a,0x0c,0x40,0x76,0x6f,0x6c,0x75,0x6d,0x65,0x69,0x55))
  TeleportPlayer(0,375,22,49,0,0)
  0()



EVENT   77
 PAGE   1
  250(bytes(0x04,0x08,0x6f,0x3a,0x0c,0x52,0x50,0x47,0x3a,0x3a,0x53,0x45,0x08,0x3a,0x0a,0x40,0x6e,0x61,0x6d,0x65,0x49,0x22,0x09,0x4d,0x6f,0x76,0x65,0x06,0x3a,0x06,0x45,0x54,0x3a,0x0b,0x40,0x70,0x69,0x74,0x63,0x68,0x69,0x69,0x3a,0x0c,0x40,0x76,0x6f,0x6c,0x75,0x6d,0x65,0x69,0x55))
  TeleportPlayer(0,375,55,49,0,0)
  0()



EVENT   78
 PAGE   1
  250(bytes(0x04,0x08,0x6f,0x3a,0x0c,0x52,0x50,0x47,0x3a,0x3a,0x53,0x45,0x08,0x3a,0x0a,0x40,0x6e,0x61,0x6d,0x65,0x49,0x22,0x09,0x4d,0x6f,0x76,0x65,0x06,0x3a,0x06,0x45,0x54,0x3a,0x0b,0x40,0x70,0x69,0x74,0x63,0x68,0x69,0x69,0x3a,0x0c,0x40,0x76,0x6f,0x6c,0x75,0x6d,0x65,0x69,0x55))
  TeleportPlayer(0,375,56,49,0,0)
  0()



EVENT   79
 PAGE   1
  250(bytes(0x04,0x08,0x6f,0x3a,0x0c,0x52,0x50,0x47,0x3a,0x3a,0x53,0x45,0x08,0x3a,0x0a,0x40,0x6e,0x61,0x6d,0x65,0x49,0x22,0x09,0x4d,0x6f,0x76,0x65,0x06,0x3a,0x06,0x45,0x54,0x3a,0x0b,0x40,0x70,0x69,0x74,0x63,0x68,0x69,0x69,0x3a,0x0c,0x40,0x76,0x6f,0x6c,0x75,0x6d,0x65,0x69,0x55))
  TeleportPlayer(0,486,24,48,0,0)
  0()



EVENT   80
 PAGE   1
  250(bytes(0x04,0x08,0x6f,0x3a,0x0c,0x52,0x50,0x47,0x3a,0x3a,0x53,0x45,0x08,0x3a,0x0a,0x40,0x6e,0x61,0x6d,0x65,0x49,0x22,0x09,0x4d,0x6f,0x76,0x65,0x06,0x3a,0x06,0x45,0x54,0x3a,0x0b,0x40,0x70,0x69,0x74,0x63,0x68,0x69,0x69,0x3a,0x0c,0x40,0x76,0x6f,0x6c,0x75,0x6d,0x65,0x69,0x55))
  TeleportPlayer(0,486,24,48,0,0)
  0()



EVENT   81
 PAGE   1
  250(bytes(0x04,0x08,0x6f,0x3a,0x0c,0x52,0x50,0x47,0x3a,0x3a,0x53,0x45,0x08,0x3a,0x0a,0x40,0x6e,0x61,0x6d,0x65,0x49,0x22,0x09,0x4d,0x6f,0x76,0x65,0x06,0x3a,0x06,0x45,0x54,0x3a,0x0b,0x40,0x70,0x69,0x74,0x63,0x68,0x69,0x69,0x3a,0x0c,0x40,0x76,0x6f,0x6c,0x75,0x6d,0x65,0x69,0x55))
  TeleportPlayer(0,486,65,48,0,0)
  0()



EVENT   82
 PAGE   1
  250(bytes(0x04,0x08,0x6f,0x3a,0x0c,0x52,0x50,0x47,0x3a,0x3a,0x53,0x45,0x08,0x3a,0x0a,0x40,0x6e,0x61,0x6d,0x65,0x49,0x22,0x09,0x4d,0x6f,0x76,0x65,0x06,0x3a,0x06,0x45,0x54,0x3a,0x0b,0x40,0x70,0x69,0x74,0x63,0x68,0x69,0x69,0x3a,0x0c,0x40,0x76,0x6f,0x6c,0x75,0x6d,0x65,0x69,0x55))
  TeleportPlayer(0,486,65,48,0,0)
  0()



EVENT   83
 PAGE   1
  // condition: variable 1052 >= 3
  0()
 PAGE   2
  // condition: variable 1052 >= 4
  0()
 PAGE   3
  // condition: variable 1052 >= 5
  0()
 PAGE   4
  // condition: switch 31 is ON
  // condition: variable 1052 >= 5
  0()
 PAGE   5
  // condition: variable 1052 >= 6
  0()
 PAGE   6
  // condition: variable 1218 >= 2
  0()
 PAGE   7
  // condition: variable 1218 >= 3
  0()



EVENT   84
 PAGE   1
  // condition: switch 32 is ON
  0()



EVENT   85
 PAGE   1
  // condition: switch 33 is ON
  0()



EVENT   86
 PAGE   1
  // condition: variable 1052 >= 5
  Wait(60)
  ShowMessageFace("",0,0,2,1)
  ShowMessage("\\n<Referee>It's the young hero who's beaten the favorites one after another... Welcome Team Luka!")
  ShowMessageFace("ruka_fc1",0,0,2,2)
  ShowMessage("\\n<Luka>The cheering is amazingly loud for the finals. Is our opponent not even here yet, though?")
  ShowMessageFace("",0,0,2,3)
  ShowMessage("\\n<Referee>And going up against them--")
  Wait(60)
  250(bytes(0x04,0x08,0x6f,0x3a,0x0c,0x52,0x50,0x47,0x3a,0x3a,0x53,0x45,0x08,0x3a,0x0a,0x40,0x6e,0x61,0x6d,0x65,0x49,0x22,0x0e,0x6d,0x6f,0x6e,0x5f,0x77,0x69,0x6e,0x64,0x31,0x06,0x3a,0x06,0x45,0x54,0x3a,0x0b,0x40,0x70,0x69,0x74,0x63,0x68,0x69,0x69,0x3a,0x0c,0x40,0x76,0x6f,0x6c,0x75,0x6d,0x65,0x69,0x69))
  ChangeSwitch(31,31,0)
  241(bytes(0x04,0x08,0x6f,0x3a,0x0d,0x52,0x50,0x47,0x3a,0x3a,0x42,0x47,0x4d,0x08,0x3a,0x0a,0x40,0x6e,0x61,0x6d,0x65,0x49,0x22,0x0c,0x62,0x6f,0x73,0x73,0x30,0x2d,0x32,0x06,0x3a,0x06,0x45,0x54,0x3a,0x0c,0x40,0x76,0x6f,0x6c,0x75,0x6d,0x65,0x69,0x69,0x3a,0x0b,0x40,0x70,0x69,0x74,0x63,0x68,0x69,0x69))
  Wait(60)
  PictureDisplay(5,"80_arumaeruma_st61",0,0,0,0,100,100,0,0)
  PictureMove(5,null,0,0,0,0,100,100,255,0,30,true)
  ShowMessageFace("arumaeruma_fc2",0,0,2,4)
  ShowMessage("\\n<Alma Elma>Fufufu... I've been waiting for this. ♪")
  If(0,4,0)
   ShowMessageFace("alice_fc6",0,0,2,5)
   ShowMessage("\\n<Alice>You're kidding! Alma Elma!\nWhy is one of the Four Heavenly Knights in this tournament!?")
   ShowMessageFace("arumaeruma_fc2",0,0,2,6)
   ShowMessage("\\n<Alma Elma>Ara, look at the tiny Monster Lord... Is it mere coincidence that we meet here? Or perhaps...")
   0()
  EndIf()
  If(0,5,0)
   ShowMessageFace("iriasu_fc4",7,0,2,7)
   ShowMessage("\\n<Ilias>I knew it. One of the Four Heavenly Knights, Alma Elma!")
   ShowMessageFace("arumaeruma_fc2",0,0,2,8)
   ShowMessage("\\n<Alma Elma>Ara, you know who I really am?\nYou seem a bit different from those other stray angels somehow...")
   0()
  EndIf()
  If(0,6,0)
   ShowMessageFace("sonia_fc3",7,0,2,9)
   ShowMessage("\\n<Sonya>Four Heavenly Knights? You mean the famous ones from the Monster Lord's Army!? It doesn't make any sense for her to be in this tournament!")
   0()
  Else()
   ShowMessageFace("ruka_fc1",0,0,2,10)
   ShowMessage("\\n<Luka>Four Heavenly Knights? From the Monster Lord's Army!? Why would someone like that show up here!")
   0()
  EndIf()
  If(4,12,0)
   ShowMessageFace("sylph_fc1",4,0,2,11)
   ShowMessage("\\n<Sylph>That's some beautiful but fierce wind!")
   0()
  EndIf()
  ShowMessageFace("arumaeruma_fc2",0,0,2,12)
  ShowMessage("\\n<Alma Elma>I'm here because I love martial arts tournaments. ♪\nLet's ignore who we are and just enjoy the match... ♪")
  ShowMessageFace("",0,0,2,13)
  ShowMessage("\\n<Referee>Their opponent is Kyuba!\nShe's shown us overwhelming strength and a speed that her opponents haven't been able to react to!")
  ShowMessageFace("",0,0,2,14)
  ShowMessage("\\n<Referee>All right, let the finals begin!\nWho will the goddess of victory smile upon? The young hero, or the solitary succubus!?")
  ShowMessageFace("arumaeruma_fc2",0,0,2,15)
  ShowMessage("\\n<Alma Elma>Okay, let's have a good time together. ♪")
  ShowMessageFace("ruka_fc1",0,0,2,16)
  ShowMessage("\\n<Luka>Just because we're up against one of the Four Heavenly Knights doesn't mean we're going to lose!")
  If(4,129,0)
   ShowMessageFace("brunhild_fc1",0,0,2,17)
   ShowMessage("\\n<Hild>Target: Succubus. Initiate battle mode.")
   0()
  EndIf()
  If(4,57,0)
   ShowMessageFace("inp_fc3",0,0,2,18)
   ShowMessage("\\n<Rumi>Fight!")
   0()
  EndIf()
  ShowMessageFace("",0,0,2,19)
  ShowMessage("\\n<Referee>This is the match of the century!\nFight!!")
  PictureClear(5)
  SetBattleBGM(bytes(0x04,0x08,0x6f,0x3a,0x0d,0x52,0x50,0x47,0x3a,0x3a,0x42,0x47,0x4d,0x08,0x3a,0x0a,0x40,0x6e,0x61,0x6d,0x65,0x49,0x22,0x14,0x62,0x6f,0x73,0x73,0x5f,0x79,0x6f,0x6e,0x73,0x65,0x69,0x72,0x65,0x69,0x32,0x06,0x3a,0x06,0x45,0x54,0x3a,0x0c,0x40,0x76,0x6f,0x6c,0x75,0x6d,0x65,0x69,0x69,0x3a,0x0b,0x40,0x70,0x69,0x74,0x63,0x68,0x69,0x69))
  ChangeSwitch(22,22,0)
  Battle(0,609,false,false)
  ChangeSwitch(22,22,1)
  SetBattleBGM(bytes(0x04,0x08,0x6f,0x3a,0x0d,0x52,0x50,0x47,0x3a,0x3a,0x42,0x47,0x4d,0x08,0x3a,0x0a,0x40,0x6e,0x61,0x6d,0x65,0x49,0x22,0x0b,0x62,0x61,0x74,0x74,0x6c,0x65,0x06,0x3a,0x06,0x45,0x54,0x3a,0x0c,0x40,0x76,0x6f,0x6c,0x75,0x6d,0x65,0x69,0x69,0x3a,0x0b,0x40,0x70,0x69,0x74,0x63,0x68,0x69,0x69))
  241(bytes(0x04,0x08,0x6f,0x3a,0x0d,0x52,0x50,0x47,0x3a,0x3a,0x42,0x47,0x4d,0x08,0x3a,0x0a,0x40,0x6e,0x61,0x6d,0x65,0x49,0x22,0x0c,0x62,0x6f,0x73,0x73,0x30,0x2d,0x32,0x06,0x3a,0x06,0x45,0x54,0x3a,0x0c,0x40,0x76,0x6f,0x6c,0x75,0x6d,0x65,0x69,0x69,0x3a,0x0b,0x40,0x70,0x69,0x74,0x63,0x68,0x69,0x69))
  PictureDisplay(5,"80_arumaeruma_st61",0,0,0,0,100,100,0,0)
  PictureMove(5,null,0,0,0,0,100,100,255,0,30,true)
  ShowMessageFace("ruka_fc1",0,0,2,20)
  ShowMessage("\\n<Luka>D-did we win...?")
  If(0,4,0)
   ShowMessageFace("alice_fc6",0,0,2,21)
   ShowMessage("\\n<Alice>Don't be an idiot. She isn't even using half her true potential.")
   0()
  EndIf()
  If(0,5,0)
   ShowMessageFace("iriasu_fc4",7,0,2,22)
   ShowMessage("\\n<Ilias>No... She doesn't appear to be taking us seriously. This fight is nothing more than a game to her.")
   0()
  EndIf()
  If(4,129,0)
   ShowMessageFace("brunhild_fc1",0,0,2,23)
   ShowMessage("\\n<Hild>Enemy remaining strength... 94%.\nWe have barely scratched her...")
   0()
  EndIf()
  ShowMessageFace("arumaeruma_fc2",0,0,2,24)
  ShowMessage("\\n<Alma Elma>Well then, that's enough foreplay. It's time for the main course--")
  ShowMessageFace("mefist_fc1",0,0,2,25)
  ShowMessage("\\n<Mephisto>...Hold it, Alma Elma.\nThat's enough fooling around for you.")
  PictureClear(5)
  Wait(60)
  250(bytes(0x04,0x08,0x6f,0x3a,0x0c,0x52,0x50,0x47,0x3a,0x3a,0x53,0x45,0x08,0x3a,0x0a,0x40,0x6e,0x61,0x6d,0x65,0x49,0x22,0x0d,0x6d,0x6f,0x6e,0x5f,0x77,0x61,0x72,0x70,0x06,0x3a,0x06,0x45,0x54,0x3a,0x0b,0x40,0x70,0x69,0x74,0x63,0x68,0x69,0x69,0x3a,0x0c,0x40,0x76,0x6f,0x6c,0x75,0x6d,0x65,0x69,0x55))
  ChangeSwitch(32,32,0)
  241(bytes(0x04,0x08,0x6f,0x3a,0x0d,0x52,0x50,0x47,0x3a,0x3a,0x42,0x47,0x4d,0x08,0x3a,0x0a,0x40,0x6e,0x61,0x6d,0x65,0x49,0x22,0x0a,0x6b,0x69,0x6b,0x69,0x32,0x06,0x3a,0x06,0x45,0x54,0x3a,0x0c,0x40,0x76,0x6f,0x6c,0x75,0x6d,0x65,0x69,0x69,0x3a,0x0b,0x40,0x70,0x69,0x74,0x63,0x68,0x69,0x69))
  205(-1,bytes(0x04,0x08,0x6f,0x3a,0x13,0x52,0x50,0x47,0x3a,0x3a,0x4d,0x6f,0x76,0x65,0x52,0x6f,0x75,0x74,0x65,0x09,0x3a,0x0c,0x40,0x72,0x65,0x70,0x65,0x61,0x74,0x46,0x3a,0x0f,0x40,0x73,0x6b,0x69,0x70,0x70,0x61,0x62,0x6c,0x65,0x46,0x3a,0x0a,0x40,0x77,0x61,0x69,0x74,0x54,0x3a,0x0a,0x40,0x6c,0x69,0x73,0x74,0x5b,0x07,0x6f,0x3a,0x15,0x52,0x50,0x47,0x3a,0x3a,0x4d,0x6f,0x76,0x65,0x43,0x6f,0x6d,0x6d,0x61,0x6e,0x64,0x07,0x3a,0x0a,0x40,0x63,0x6f,0x64,0x65,0x69,0x18,0x3a,0x10,0x40,0x70,0x61,0x72,0x61,0x6d,0x65,0x74,0x65,0x72,0x73,0x5b,0x00,0x6f,0x3b,0x0a,0x07,0x3b,0x0b,0x69,0x00,0x3b,0x0c,0x5b,0x00))
  205(83,bytes(0x04,0x08,0x6f,0x3a,0x13,0x52,0x50,0x47,0x3a,0x3a,0x4d,0x6f,0x76,0x65,0x52,0x6f,0x75,0x74,0x65,0x09,0x3a,0x0c,0x40,0x72,0x65,0x70,0x65,0x61,0x74,0x46,0x3a,0x0f,0x40,0x73,0x6b,0x69,0x70,0x70,0x61,0x62,0x6c,0x65,0x46,0x3a,0x0a,0x40,0x77,0x61,0x69,0x74,0x54,0x3a,0x0a,0x40,0x6c,0x69,0x73,0x74,0x5b,0x07,0x6f,0x3a,0x15,0x52,0x50,0x47,0x3a,0x3a,0x4d,0x6f,0x76,0x65,0x43,0x6f,0x6d,0x6d,0x61,0x6e,0x64,0x07,0x3a,0x0a,0x40,0x63,0x6f,0x64,0x65,0x69,0x18,0x3a,0x10,0x40,0x70,0x61,0x72,0x61,0x6d,0x65,0x74,0x65,0x72,0x73,0x5b,0x00,0x6f,0x3b,0x0a,0x07,0x3b,0x0b,0x69,0x00,0x3b,0x0c,0x5b,0x00))
  If(0,4,0)
   ShowMessageFace("alice_fc6",0,0,2,26)
   ShowMessage("\\n<Alice>Mephisto!!\nWhat are you up to!?")
   0()
  EndIf()
  If(0,5,0)
   ShowMessageFace("iriasu_fc4",7,0,2,27)
   ShowMessage("\\n<Ilias>Mephisto!!\nWhy do you interfere with our match!?")
   0()
  EndIf()
  PictureDisplay(6,"80_arumaeruma_st61",0,0,-150,0,100,100,0,0)
  PictureDisplay(5,"80_mefist_st01",0,0,150,0,100,100,0,0)
  PictureMove(6,null,0,0,-150,0,100,100,255,0,30,false)
  PictureMove(5,null,0,0,150,0,100,100,255,0,30,true)
  ShowMessageFace("arumaeruma_fc2",0,0,2,28)
  ShowMessage("\\n<Alma Elma>You are Grand Noah's magical advisor, are you not? It appears I've been artfully lured here.")
  ShowMessageFace("mefist_fc1",0,0,2,29)
  ShowMessage("\\n<Mephisto>We can't let a betrayer like you have free reign. As such, this is their command.")
  ShowMessageFace("arumaeruma_fc2",0,0,2,30)
  ShowMessage("\\n<Alma Elma>So this entire tournament was a trap. You even hyped up a skilled young hero...")
  ShowMessageFace("arumaeruma_fc2",0,0,2,31)
  ShowMessage("\\n<Alma Elma>But you don't even have the ability to defeat me, do you? Even if Luka-boy and his friends jump in, you still won't win.")
  ShowMessageFace("mefist_fc1",0,0,2,32)
  ShowMessage("\\n<Mephisto>On that point, you are mistaken.\nI arranged for a bit of help.")
  PictureClear(5)
  PictureClear(6)
  Wait(60)
  250(bytes(0x04,0x08,0x6f,0x3a,0x0c,0x52,0x50,0x47,0x3a,0x3a,0x53,0x45,0x08,0x3a,0x0a,0x40,0x6e,0x61,0x6d,0x65,0x49,0x22,0x0d,0x6d,0x6f,0x6e,0x5f,0x77,0x61,0x72,0x70,0x06,0x3a,0x06,0x45,0x54,0x3a,0x0b,0x40,0x70,0x69,0x74,0x63,0x68,0x69,0x69,0x3a,0x0c,0x40,0x76,0x6f,0x6c,0x75,0x6d,0x65,0x69,0x55))
  ChangeSwitch(33,33,0)
  241(bytes(0x04,0x08,0x6f,0x3a,0x0d,0x52,0x50,0x47,0x3a,0x3a,0x42,0x47,0x4d,0x08,0x3a,0x0a,0x40,0x6e,0x61,0x6d,0x65,0x49,0x22,0x0a,0x62,0x6f,0x73,0x73,0x30,0x06,0x3a,0x06,0x45,0x54,0x3a,0x0c,0x40,0x76,0x6f,0x6c,0x75,0x6d,0x65,0x69,0x69,0x3a,0x0b,0x40,0x70,0x69,0x74,0x63,0x68,0x69,0x69))
  Wait(60)
  PictureDisplay(5,"80_granberia_st61",0,0,0,0,100,100,0,0)
  PictureMove(5,null,0,0,0,0,100,100,255,0,30,true)
  ShowMessageFace("granberia_fc3",0,0,2,33)
  ShowMessage("\\n<Granberia>............")
  If(0,4,0)
   ShowMessageFace("alice_fc6",0,0,2,34)
   ShowMessage("\\n<Alice>No way... Granberia!?")
   0()
  EndIf()
  If(0,5,0)
   ShowMessageFace("iriasu_fc4",5,0,2,35)
   ShowMessage("\\n<Ilias>No way... Granberia!?")
   0()
  EndIf()
  If(4,171,0)
   ShowMessageFace("lizardboss_fc1",5,0,2,36)
   ShowMessage("\\n<Miranda>...!!")
   0()
  EndIf()
  PictureDisplay(5,"80_granberia_st65",0,0,0,0,100,100,0,0)
  ShowMessageFace("granberia_fc3",4,0,2,37)
  ShowMessage("\\n<Granberia>Answer me, Alma Elma.\nWhy did you betray the Monster Lord!?")
  PictureDisplay(5,"80_arumaeruma_st61",0,0,-150,0,100,100,255,0)
  PictureDisplay(6,"80_granberia_st65",0,0,150,0,100,100,255,0)
  ShowMessageFace("arumaeruma_fc2",0,0,2,38)
  ShowMessage("\\n<Alma Elma>I betrayed no one. The Monster Lord I agreed to obey is not the one currently on the throne. I choose to let the wind blow as it pleases.")
  ShowMessageFace("granberia_fc3",4,0,2,39)
  ShowMessage("\\n<Granberia>Then I shall cut you down where you stand!")
  ShowMessageFace("arumaeruma_fc2",0,0,2,40)
  ShowMessage("\\n<Alma Elma>So you say...\nBut this will hardly be the first time you've tried, will it, Granberry?")
  ShowMessageFace("granberia_fc3",4,0,2,41)
  ShowMessage("\\n<Granberia>A fight with our lives on the line is completely different from sparring between comrades! I'll show you that this time won't end with you playing around!")
  ShowMessageFace("arumaeruma_fc2",7,0,2,42)
  ShowMessage("\\n<Alma Elma>Aaaah, you're so serious...")
  PictureClear(5)
  PictureClear(6)
  Wait(60)
  205(83,bytes(0x04,0x08,0x6f,0x3a,0x13,0x52,0x50,0x47,0x3a,0x3a,0x4d,0x6f,0x76,0x65,0x52,0x6f,0x75,0x74,0x65,0x09,0x3a,0x0c,0x40,0x72,0x65,0x70,0x65,0x61,0x74,0x46,0x3a,0x0f,0x40,0x73,0x6b,0x69,0x70,0x70,0x61,0x62,0x6c,0x65,0x46,0x3a,0x0a,0x40,0x77,0x61,0x69,0x74,0x54,0x3a,0x0a,0x40,0x6c,0x69,0x73,0x74,0x5b,0x07,0x6f,0x3a,0x15,0x52,0x50,0x47,0x3a,0x3a,0x4d,0x6f,0x76,0x65,0x43,0x6f,0x6d,0x6d,0x61,0x6e,0x64,0x07,0x3a,0x0a,0x40,0x63,0x6f,0x64,0x65,0x69,0x16,0x3a,0x10,0x40,0x70,0x61,0x72,0x61,0x6d,0x65,0x74,0x65,0x72,0x73,0x5b,0x00,0x6f,0x3b,0x0a,0x07,0x3b,0x0b,0x69,0x00,0x3b,0x0c,0x5b,0x00))
  Wait(60)
  PictureDisplay(5,"80_arumaeruma_st61",0,0,0,0,100,100,0,0)
  PictureMove(5,null,0,0,0,0,100,100,255,0,30,true)
  ShowMessageFace("arumaeruma_fc2",0,0,2,43)
  ShowMessage("\\n<Alma Elma>You weren't told about any of this, were you Luka-boy? No, Mephisto just used you too.")
  205(-1,bytes(0x04,0x08,0x6f,0x3a,0x13,0x52,0x50,0x47,0x3a,0x3a,0x4d,0x6f,0x76,0x65,0x52,0x6f,0x75,0x74,0x65,0x09,0x3a,0x0c,0x40,0x72,0x65,0x70,0x65,0x61,0x74,0x46,0x3a,0x0f,0x40,0x73,0x6b,0x69,0x70,0x70,0x61,0x62,0x6c,0x65,0x46,0x3a,0x0a,0x40,0x77,0x61,0x69,0x74,0x54,0x3a,0x0a,0x40,0x6c,0x69,0x73,0x74,0x5b,0x07,0x6f,0x3a,0x15,0x52,0x50,0x47,0x3a,0x3a,0x4d,0x6f,0x76,0x65,0x43,0x6f,0x6d,0x6d,0x61,0x6e,0x64,0x07,0x3a,0x0a,0x40,0x63,0x6f,0x64,0x65,0x69,0x17,0x3a,0x10,0x40,0x70,0x61,0x72,0x61,0x6d,0x65,0x74,0x65,0x72,0x73,0x5b,0x00,0x6f,0x3b,0x0a,0x07,0x3b,0x0b,0x69,0x00,0x3b,0x0c,0x5b,0x00))
  ShowMessageFace("ruka_fc1",0,0,2,44)
  ShowMessage("\\n<Luka>Well, yeah but...")
  ShowMessageFace("arumaeruma_fc2",0,0,2,45)
  ShowMessage("\\n<Alma Elma>Doesn't that make you mad?\nBeing treated like a pawn, having your championship match ruined...")
  ShowMessageFace("ruka_fc1",0,0,2,46)
  ShowMessage("\\n<Luka>K-kinda...")
  If(4,202,0)
   ShowMessageFace("bonny_fc1",0,0,2,47)
   ShowMessage("\\n<Bonnie>I won't accept this!\nOur big moment for the Fishy Pirates has gone down the tubes!")
   0()
  EndIf()
  If(4,203,0)
   ShowMessageFace("tatunoko_k_fc1",2,0,2,48)
   ShowMessage("\\n<Tatsuko>This intrusion is a cowardly act!")
   0()
  EndIf()
  ShowMessageFace("arumaeruma_fc2",0,0,2,49)
  ShowMessage("\\n<Alma Elma>Then how about teaming up with me?\nLet's beat up these party crashers together. ♪")
  PictureDisplay(5,"80_arumaeruma_st61",0,0,-150,0,100,100,255,0)
  PictureDisplay(6,"80_granberia_st65",0,0,150,0,100,100,255,0)
  ShowMessageFace("granberia_fc3",4,0,2,50)
  ShowMessage("\\n<Granberia>Are you done talking!?\nGo join Alma Elma! See if I care!")
  205(-1,bytes(0x04,0x08,0x6f,0x3a,0x13,0x52,0x50,0x47,0x3a,0x3a,0x4d,0x6f,0x76,0x65,0x52,0x6f,0x75,0x74,0x65,0x09,0x3a,0x0c,0x40,0x72,0x65,0x70,0x65,0x61,0x74,0x46,0x3a,0x0f,0x40,0x73,0x6b,0x69,0x70,0x70,0x61,0x62,0x6c,0x65,0x46,0x3a,0x0a,0x40,0x77,0x61,0x69,0x74,0x54,0x3a,0x0a,0x40,0x6c,0x69,0x73,0x74,0x5b,0x07,0x6f,0x3a,0x15,0x52,0x50,0x47,0x3a,0x3a,0x4d,0x6f,0x76,0x65,0x43,0x6f,0x6d,0x6d,0x61,0x6e,0x64,0x07,0x3a,0x0a,0x40,0x63,0x6f,0x64,0x65,0x69,0x18,0x3a,0x10,0x40,0x70,0x61,0x72,0x61,0x6d,0x65,0x74,0x65,0x72,0x73,0x5b,0x00,0x6f,0x3b,0x0a,0x07,0x3b,0x0b,0x69,0x00,0x3b,0x0c,0x5b,0x00))
  205(83,bytes(0x04,0x08,0x6f,0x3a,0x13,0x52,0x50,0x47,0x3a,0x3a,0x4d,0x6f,0x76,0x65,0x52,0x6f,0x75,0x74,0x65,0x09,0x3a,0x0c,0x40,0x72,0x65,0x70,0x65,0x61,0x74,0x46,0x3a,0x0f,0x40,0x73,0x6b,0x69,0x70,0x70,0x61,0x62,0x6c,0x65,0x46,0x3a,0x0a,0x40,0x77,0x61,0x69,0x74,0x54,0x3a,0x0a,0x40,0x6c,0x69,0x73,0x74,0x5b,0x07,0x6f,0x3a,0x15,0x52,0x50,0x47,0x3a,0x3a,0x4d,0x6f,0x76,0x65,0x43,0x6f,0x6d,0x6d,0x61,0x6e,0x64,0x07,0x3a,0x0a,0x40,0x63,0x6f,0x64,0x65,0x69,0x18,0x3a,0x10,0x40,0x70,0x61,0x72,0x61,0x6d,0x65,0x74,0x65,0x72,0x73,0x5b,0x00,0x6f,0x3b,0x0a,0x07,0x3b,0x0b,0x69,0x00,0x3b,0x0c,0x5b,0x00))
  ShowMessageFace("ruka_fc1",0,0,2,51)
  ShowMessage("\\n<Luka>Hey, hold on! We haven't...!")
  If(0,4,0)
   ShowMessageFace("alice_fc6",1,0,2,52)
   ShowMessage("\\n<Alice>Tch, I guess we have to go with it! Alma Elma, fight with me!")
   ShowMessageFace("arumaeruma_fc2",1,0,2,53)
   ShowMessage("\\n<Alma Elma>As you wish, Your Monster Lordship... ♪")
   0()
  EndIf()
  If(0,5,0)
   ShowMessageFace("iriasu_fc4",7,0,2,54)
   ShowMessage("\\n<Ilias>That simple-minded lizard won't listen to a word you say! We'll have to go with it!")
   ShowMessageFace("arumaeruma_fc2",1,0,2,55)
   ShowMessage("\\n<Alma Elma>Ahaha, now this is fun. ♪")
   0()
  EndIf()
  If(4,57,0)
   ShowMessageFace("inp_fc3",0,0,2,56)
   ShowMessage("\\n<Rumi>Fight!")
   If(4,56,0)
    ShowMessageFace("inp_fc1",3,0,2,57)
    ShowMessage("\\n<Rami>I've never seen Rumi fired up before...")
    0()
   EndIf()
   0()
  EndIf()
  PictureClear(5)
  PictureClear(6)
  314(0,0)
  DefineLabel("パーティ")
  355("add_actor_ex(19)")
  If(0,1922,1)
   If(4,19,0)
    0()
   Else()
    ShowMessageFace("",0,0,2,58)
    ShowMessage("You can't remove Alma Elma from the party!")
    JumpToLabel("パーティ")
    0()
   EndIf()
   0()
  EndIf()
  249(bytes(0x04,0x08,0x6f,0x3a,0x0c,0x52,0x50,0x47,0x3a,0x3a,0x4d,0x45,0x08,0x3a,0x0a,0x40,0x6e,0x61,0x6d,0x65,0x49,0x22,0x0c,0x66,0x61,0x6e,0x66,0x61,0x6c,0x65,0x06,0x3a,0x06,0x45,0x54,0x3a,0x0b,0x40,0x70,0x69,0x74,0x63,0x68,0x69,0x69,0x3a,0x0c,0x40,0x76,0x6f,0x6c,0x75,0x6d,0x65,0x69,0x69))
  ShowMessageFace("",0,0,2,59)
  ShowMessage("Alma Elma has temporarily joined the party!")
  Wait(60)
  SetBattleBGM(bytes(0x04,0x08,0x6f,0x3a,0x0d,0x52,0x50,0x47,0x3a,0x3a,0x42,0x47,0x4d,0x08,0x3a,0x0a,0x40,0x6e,0x61,0x6d,0x65,0x49,0x22,0x11,0x62,0x6f,0x73,0x73,0x5f,0x73,0x69,0x74,0x65,0x6e,0x6e,0x6f,0x06,0x3a,0x06,0x45,0x54,0x3a,0x0c,0x40,0x76,0x6f,0x6c,0x75,0x6d,0x65,0x69,0x69,0x3a,0x0b,0x40,0x70,0x69,0x74,0x63,0x68,0x69,0x69))
  ChangeSwitch(22,22,0)
  Battle(0,610,false,false)
  ChangeSwitch(22,22,1)
  SetBattleBGM(bytes(0x04,0x08,0x6f,0x3a,0x0d,0x52,0x50,0x47,0x3a,0x3a,0x42,0x47,0x4d,0x08,0x3a,0x0a,0x40,0x6e,0x61,0x6d,0x65,0x49,0x22,0x0b,0x62,0x61,0x74,0x74,0x6c,0x65,0x06,0x3a,0x06,0x45,0x54,0x3a,0x0c,0x40,0x76,0x6f,0x6c,0x75,0x6d,0x65,0x69,0x69,0x3a,0x0b,0x40,0x70,0x69,0x74,0x63,0x68,0x69,0x69))
  314(0,0)
  If(0,1922,1)
   ChangeSwitch(1019,1019,1)
   ChangePartyMember(19,1,0)
   0()
  EndIf()
  241(bytes(0x04,0x08,0x6f,0x3a,0x0d,0x52,0x50,0x47,0x3a,0x3a,0x42,0x47,0x4d,0x08,0x3a,0x0a,0x40,0x6e,0x61,0x6d,0x65,0x49,0x22,0x0a,0x6b,0x69,0x6b,0x69,0x32,0x06,0x3a,0x06,0x45,0x54,0x3a,0x0c,0x40,0x76,0x6f,0x6c,0x75,0x6d,0x65,0x69,0x69,0x3a,0x0b,0x40,0x70,0x69,0x74,0x63,0x68,0x69,0x69))
  PictureDisplay(5,"80_arumaeruma_st61",0,0,-150,0,100,100,0,0)
  PictureDisplay(6,"80_granberia_st63",0,0,150,0,100,100,0,0)
  PictureMove(5,null,0,0,-150,0,100,100,255,0,30,false)
  PictureMove(6,null,0,0,150,0,100,100,255,0,30,true)
  ShowMessageFace("granberia_fc3",2,0,2,60)
  ShowMessage("\\n<Granberia>Kuh...!\nHow could I lose...")
  ShowMessageFace("arumaeruma_fc2",0,0,2,61)
  ShowMessage("\\n<Alma Elma>Your raw power may be equal to mine, but our strengths and weaknesses don't match up in your favor. You'll never defeat me, Granberry...")
  PictureDisplay(6,"80_arumaeruma_st61",0,0,-150,0,100,100,255,0)
  PictureDisplay(5,"80_mefist_st03",0,0,150,0,100,100,255,0)
  ShowMessageFace("mefist_fc1",2,0,2,62)
  ShowMessage("\\n<Mephisto>We couldn't win even when taking advantage of the tournament. Did we underestimate Alma Elma's power that badly?")
  ShowMessageFace("arumaeruma_fc2",0,0,2,63)
  ShowMessage("\\n<Alma Elma>What's next on the menu?\nAre you going to fight me yourself?")
  ShowMessageFace("mefist_fc1",0,0,2,64)
  ShowMessage("\\n<Mephisto>My name used to be known all over the world, but I'm no match for one of the Four Heavenly Knights.")
  ShowMessageFace("mefist_fc1",0,0,2,65)
  ShowMessage("\\n<Mephisto>Sadly, I must withdraw...")
  PictureClear(5)
  PictureClear(6)
  Wait(60)
  250(bytes(0x04,0x08,0x6f,0x3a,0x0c,0x52,0x50,0x47,0x3a,0x3a,0x53,0x45,0x08,0x3a,0x0a,0x40,0x6e,0x61,0x6d,0x65,0x49,0x22,0x0d,0x6d,0x6f,0x6e,0x5f,0x77,0x61,0x72,0x70,0x06,0x3a,0x06,0x45,0x54,0x3a,0x0b,0x40,0x70,0x69,0x74,0x63,0x68,0x69,0x69,0x3a,0x0c,0x40,0x76,0x6f,0x6c,0x75,0x6d,0x65,0x69,0x55))
  ChangeSwitch(32,32,1)
  241(bytes(0x04,0x08,0x6f,0x3a,0x0d,0x52,0x50,0x47,0x3a,0x3a,0x42,0x47,0x4d,0x08,0x3a,0x0a,0x40,0x6e,0x61,0x6d,0x65,0x49,0x22,0x14,0x73,0x63,0x65,0x6e,0x65,0x5f,0x65,0x70,0x69,0x6c,0x6f,0x67,0x75,0x65,0x32,0x06,0x3a,0x06,0x45,0x54,0x3a,0x0c,0x40,0x76,0x6f,0x6c,0x75,0x6d,0x65,0x69,0x69,0x3a,0x0b,0x40,0x70,0x69,0x74,0x63,0x68,0x69,0x69))
  Wait(60)
  PictureDisplay(5,"80_arumaeruma_st61",0,0,-150,0,100,100,0,0)
  PictureDisplay(6,"80_granberia_st63",0,0,150,0,100,100,0,0)
  PictureMove(5,null,0,0,-150,0,100,100,255,0,30,false)
  PictureMove(6,null,0,0,150,0,100,100,255,0,30,true)
  ShowMessageFace("granberia_fc3",2,0,2,66)
  ShowMessage("\\n<Granberia>Alma Elma, why won't you obey the Monster Lord? Come back to the castle and I'll even help smooth things over for you!")
  ShowMessageFace("arumaeruma_fc2",3,0,2,67)
  ShowMessage("\\n<Alma Elma>Sorry, Granberry...\nThe wind is a free and fickle thing.")
  ShowMessageFace("arumaeruma_fc2",3,0,2,68)
  ShowMessage("\\n<Alma Elma>Besides, I'm not a fan of the Monster Lord's methods. I hate to disappoint, but I won't be having anything to do with that plan.")
  ShowMessageFace("granberia_fc3",2,0,2,69)
  ShowMessage("\\n<Granberia>How long can you keep saying that? The world is already on the edge of ruin...")
  ShowMessageFace("granberia_fc3",2,0,2,70)
  ShowMessage("\\n<Granberia>You can't run, Alma Elma...\nNot from the Monster Lord, and not from your responsibilities as one of the Four Heavenly Knights.")
  PictureClear(5)
  PictureClear(6)
  Wait(60)
  250(bytes(0x04,0x08,0x6f,0x3a,0x0c,0x52,0x50,0x47,0x3a,0x3a,0x53,0x45,0x08,0x3a,0x0a,0x40,0x6e,0x61,0x6d,0x65,0x49,0x22,0x0d,0x6d,0x6f,0x6e,0x5f,0x77,0x61,0x72,0x70,0x06,0x3a,0x06,0x45,0x54,0x3a,0x0b,0x40,0x70,0x69,0x74,0x63,0x68,0x69,0x69,0x3a,0x0c,0x40,0x76,0x6f,0x6c,0x75,0x6d,0x65,0x69,0x55))
  ChangeSwitch(33,33,1)
  Wait(60)
  PictureDisplay(5,"80_arumaeruma_st61",0,0,0,0,100,100,0,0)
  PictureMove(5,null,0,0,0,0,100,100,255,0,30,true)
  ShowMessageFace("arumaeruma_fc2",3,0,2,71)
  ShowMessage("\\n<Alma Elma>...Granberry is so stern.\nI wish she'd loosen up and be more carefree...")
  205(-1,bytes(0x04,0x08,0x6f,0x3a,0x13,0x52,0x50,0x47,0x3a,0x3a,0x4d,0x6f,0x76,0x65,0x52,0x6f,0x75,0x74,0x65,0x09,0x3a,0x0c,0x40,0x72,0x65,0x70,0x65,0x61,0x74,0x46,0x3a,0x0f,0x40,0x73,0x6b,0x69,0x70,0x70,0x61,0x62,0x6c,0x65,0x46,0x3a,0x0a,0x40,0x77,0x61,0x69,0x74,0x54,0x3a,0x0a,0x40,0x6c,0x69,0x73,0x74,0x5b,0x07,0x6f,0x3a,0x15,0x52,0x50,0x47,0x3a,0x3a,0x4d,0x6f,0x76,0x65,0x43,0x6f,0x6d,0x6d,0x61,0x6e,0x64,0x07,0x3a,0x0a,0x40,0x63,0x6f,0x64,0x65,0x69,0x17,0x3a,0x10,0x40,0x70,0x61,0x72,0x61,0x6d,0x65,0x74,0x65,0x72,0x73,0x5b,0x00,0x6f,0x3b,0x0a,0x07,0x3b,0x0b,0x69,0x00,0x3b,0x0c,0x5b,0x00))
  205(83,bytes(0x04,0x08,0x6f,0x3a,0x13,0x52,0x50,0x47,0x3a,0x3a,0x4d,0x6f,0x76,0x65,0x52,0x6f,0x75,0x74,0x65,0x09,0x3a,0x0c,0x40,0x72,0x65,0x70,0x65,0x61,0x74,0x46,0x3a,0x0f,0x40,0x73,0x6b,0x69,0x70,0x70,0x61,0x62,0x6c,0x65,0x46,0x3a,0x0a,0x40,0x77,0x61,0x69,0x74,0x54,0x3a,0x0a,0x40,0x6c,0x69,0x73,0x74,0x5b,0x07,0x6f,0x3a,0x15,0x52,0x50,0x47,0x3a,0x3a,0x4d,0x6f,0x76,0x65,0x43,0x6f,0x6d,0x6d,0x61,0x6e,0x64,0x07,0x3a,0x0a,0x40,0x63,0x6f,0x64,0x65,0x69,0x16,0x3a,0x10,0x40,0x70,0x61,0x72,0x61,0x6d,0x65,0x74,0x65,0x72,0x73,0x5b,0x00,0x6f,0x3b,0x0a,0x07,0x3b,0x0b,0x69,0x00,0x3b,0x0c,0x5b,0x00))
  ShowMessageFace("arumaeruma_fc2",0,0,2,72)
  ShowMessage("\\n<Alma Elma>...Well, that sure spoiled the mood.\nYou can have the championship, Luka-boy.")
  ShowMessageFace("ruka_fc1",0,0,2,73)
  ShowMessage("\\n<Luka>Huh...? You mean you're letting us win?")
  If(0,4,0)
   ShowMessageFace("alice_fc5",0,0,2,74)
   ShowMessage("\\n<Alice>What are you going to do now, Alma Elma? From what I heard, it sounds like you're in revolt against the current Monster Lord... the 15th.")
   ShowMessageFace("arumaeruma_fc2",0,0,2,75)
   ShowMessage("\\n<Alma Elma>Nothing so grandiose as that. The wind is the wind, simply blowing as it pleases.")
   ShowMessageFace("alice_fc5",2,0,2,76)
   ShowMessage("\\n<Alice>Then how about joining--")
   ShowMessageFace("arumaeruma_fc2",0,0,2,77)
   ShowMessage("\\n<Alma Elma>I'm not in the mood right now...\nI'd prefer to act freely on my own.")
   ShowMessageFace("alice_fc5",3,0,2,78)
   ShowMessage("\\n<Alice>That's what I figured.")
   0()
  EndIf()
  If(0,5,0)
   ShowMessageFace("iriasu_fc4",7,0,2,79)
   ShowMessage("\\n<Ilias>Alma Elma...\nSo you're in revolt against the current Monster Lord?")
   ShowMessageFace("arumaeruma_fc2",0,0,2,80)
   ShowMessage("\\n<Alma Elma>Nothing so grandiose as that. The wind is the wind, simply blowing as it pleases.")
   0()
  EndIf()
  ShowMessageFace("arumaeruma_fc2",0,0,2,81)
  ShowMessage("\\n<Alma Elma>Goodbye. Perhaps we shall meet again somewhere...")
  If(4,12,0)
   ShowMessageFace("sylph_fc1",0,0,2,82)
   ShowMessage("\\n<Sylph>Bye byeee!")
   0()
  EndIf()
  PictureClear(5)
  Wait(60)
  250(bytes(0x04,0x08,0x6f,0x3a,0x0c,0x52,0x50,0x47,0x3a,0x3a,0x53,0x45,0x08,0x3a,0x0a,0x40,0x6e,0x61,0x6d,0x65,0x49,0x22,0x0e,0x6d,0x6f,0x6e,0x5f,0x77,0x69,0x6e,0x64,0x31,0x06,0x3a,0x06,0x45,0x54,0x3a,0x0b,0x40,0x70,0x69,0x74,0x63,0x68,0x69,0x69,0x3a,0x0c,0x40,0x76,0x6f,0x6c,0x75,0x6d,0x65,0x69,0x69))
  ChangeSwitch(31,31,1)
  ShowMessageFace("",0,0,2,83)
  ShowMessage("Alma Elma vanishes like the wind...")
  ShowMessageFace("",0,0,2,84)
  ShowMessage("\\n<Referee>Ummm, what just happened...\nWhat do we do now, errr...")
  ShowMessageFace("",0,0,2,85)
  ShowMessage("\\n<Referee>Well, the last one standing in the arena is Luka! So Team Luka are the champions!")
  ShowMessageFace("ruka_fc1",0,0,2,86)
  ShowMessage("\\n<Luka>We... really won?")
  If(0,6,0)
   ShowMessageFace("sonia_fc2",2,0,2,87)
   ShowMessage("\\n<Sonya>It doesn't feel like much of a victory...")
   0()
  EndIf()
  If(0,4,0)
   ShowMessageFace("alice_fc5",0,0,2,88)
   ShowMessage("\\n<Alice>What is going on with Alma Elma, and who is backing Mephisto...")
   0()
  EndIf()
  If(0,5,0)
   ShowMessageFace("iriasu_fc4",2,0,2,89)
   ShowMessage("\\n<Ilias>What is going on with Alma Elma, and who is backing Mephisto...")
   0()
  EndIf()
  ShowMessageFace("",0,0,2,90)
  ShowMessage("We leave the arena to the cheers of the crowd, feeling a sense of defeat from the victory handed to us, pondering all the mysteries that remain to be solved--")
  221()
  TeleportPlayer(0,383,22,7,8,2)
  ChangeVariable(1052,1052,0,0,6)
  ChangeVariable(1002,1002,0,0,24)
  216(0)
  222()
  355("gain_medal(33)")
  PictureDisplay(5,"80_grandnoa_st01",0,0,0,0,100,100,0,0)
  PictureMove(5,null,0,0,0,0,100,100,255,0,30,true)
  ShowMessageFace("grandnoa_fc1",0,0,2,91)
  ShowMessage("\\n<Queen of Grand Noah>Well done on winning the championship. First, let me give you this Green Orb as your prize.")
  250(bytes(0x04,0x08,0x6f,0x3a,0x0c,0x52,0x50,0x47,0x3a,0x3a,0x53,0x45,0x08,0x3a,0x0a,0x40,0x6e,0x61,0x6d,0x65,0x49,0x22,0x0a,0x49,0x74,0x65,0x6d,0x31,0x06,0x3a,0x06,0x45,0x54,0x3a,0x0b,0x40,0x70,0x69,0x74,0x63,0x68,0x69,0x69,0x3a,0x0c,0x40,0x76,0x6f,0x6c,0x75,0x6d,0x65,0x69,0x55))
  ChangeInventory_Item(539,0,0,1)
  If(0,2148,0)
   ShowMessageFace("tatunoko_k_fc1",2,0,2,92)
   ShowMessage("\\n<Tatsuko>Feels kinda like a consolation prize...")
   ShowMessageFace("umiusi_k_fc1",0,0,2,93)
   ShowMessage("\\n<Stacy>Because the win was given to us...")
   0()
  EndIf()
  If(0,2149,0)
   ShowMessageFace("bonny_fc1",0,0,2,94)
   ShowMessage("\\n<Bonnie>More booty!\n...It feels more like a consolation prize than anything, though.")
   ShowMessageFace("ashel_fc1",0,0,2,95)
   ShowMessage("\\n<Ashel>On that we can agree.\nI feel like we've been shipwrecked.")
   0()
  EndIf()
  ShowMessageFace("grandnoa_fc1",2,0,2,96)
  ShowMessage("\\n<Queen of Grand Noah>Now then, I believe the deal was that if you won the Queen's Cup, I'd allow you to join the Esta investigation team.")
  ShowMessageFace("grandnoa_fc1",2,0,2,97)
  ShowMessage("\\n<Queen of Grand Noah>............")
  241(bytes(0x04,0x08,0x6f,0x3a,0x0d,0x52,0x50,0x47,0x3a,0x3a,0x42,0x47,0x4d,0x08,0x3a,0x0a,0x40,0x6e,0x61,0x6d,0x65,0x49,0x22,0x0a,0x6b,0x69,0x6b,0x69,0x32,0x06,0x3a,0x06,0x45,0x54,0x3a,0x0c,0x40,0x76,0x6f,0x6c,0x75,0x6d,0x65,0x69,0x69,0x3a,0x0b,0x40,0x70,0x69,0x74,0x63,0x68,0x69,0x69))
  ShowMessageFace("grandnoa_fc1",0,0,2,98)
  ShowMessage("\\n<Queen of Grand Noah>...But before that, there's another matter with which I would appreciate your assistance.")
  If(0,4,0)
   ShowMessageFace("alice_fc5",2,0,2,99)
   ShowMessage("\\n<Alice>Winning the tournament was the only condition you mentioned, but now you ask another favor of us?")
   0()
  EndIf()
  If(0,5,0)
   ShowMessageFace("iriasu_fc5",0,0,2,100)
   ShowMessage("\\n<Ilias>Winning the tournament was the only condition you mentioned! I'm going to get really mad if you heap even more on us!")
   0()
  EndIf()
  If(4,79,0)
   ShowMessageFace("nuruko_fc1",0,0,2,101)
   ShowMessage("\\n<Nuruko>Kyuu! Kyu kyu!")
   0()
  EndIf()
  ShowMessageFace("grandnoa_fc1",0,0,2,102)
  ShowMessage("\\n<Queen of Grand Noah>This matter is not unrelated to you, however, as it concerns my magical advisor Mephisto.")
  ShowMessageFace("grandnoa_fc1",0,0,2,103)
  ShowMessage("\\n<Queen of Grand Noah>I've had my suspicions about her motivations for a long time, and this tournament has confirmed them.")
  If(0,4,0)
   ShowMessageFace("alice_fc5",0,0,2,104)
   ShowMessage("\\n<Alice>Well, Mephisto is certainly connected to the 15th Monster Lord. What happened at the Colosseum made that plainly obvious.")
   ShowMessageFace("alice_fc5",0,0,2,105)
   ShowMessage("\\n<Alice>Moreover, that means a pawn of the Monster Lord had infiltrated this country's government. Something fishy is definitely going on...")
   0()
  EndIf()
  If(0,5,0)
   ShowMessageFace("iriasu_fc4",7,0,2,106)
   ShowMessage("\\n<Ilias>The 15th Monster Lord appears to be the one behind Mephisto. That is plainly evident from what happened at the Colosseum.")
   ShowMessageFace("iriasu_fc4",7,0,2,107)
   ShowMessage("\\n<Ilias>So a pawn of the Monster Lord wormed her way to the center of this country... That reeks of conspiracy.")
   0()
  EndIf()
  If(4,163,0)
   ShowMessageFace("lily_fc1",3,0,2,108)
   ShowMessage("\\n<Lily>There's certainly something going on behind the scenes. I don't like this one bit...")
   0()
  EndIf()
  ShowMessageFace("grandnoa_fc1",0,0,2,109)
  ShowMessage("\\n<Queen of Grand Noah>The matter with Queen Sara involved a monster's machinations, and now I find one of the Monster Lord's henchmen in my own castle...")
  ShowMessageFace("grandnoa_fc1",0,0,2,110)
  ShowMessage("\\n<Queen of Grand Noah>Just how far does this darkness spread? I can't help but think the Monster Lord is also involved in the Great War.")
  If(0,4,0)
   ShowMessageFace("alice_fc5",3,0,2,111)
   ShowMessage("\\n<Alice>I can't deny that possibility...")
   0()
  EndIf()
  If(0,5,0)
   ShowMessageFace("iriasu_fc4",2,0,2,112)
   ShowMessage("\\n<Ilias>I am of the same opinion.\nWe can see the Monster Lord's claws poking into every country.")
   0()
  EndIf()
  ShowMessageFace("grandnoa_fc1",0,0,2,113)
  ShowMessage("\\n<Queen of Grand Noah>I'd like you to investigate Mephisto in complete secrecy. Do you think you could sneak into the Magical Academy she's using as her base of operations?")
  ShowMessageFace("ruka_fc1",0,0,2,114)
  ShowMessage("\\n<Luka>The Magical Academy? I believe that's--")
  ShowMessageFace("",0,0,2,115)
  ShowMessage("I've heard it's a school north of the palace where they train mages. Mephisto is supposedly the principal there.")
  ShowMessageFace("grandnoa_fc1",0,0,2,116)
  ShowMessage("\\n<Queen of Grand Noah>Sneak in and gather any news and incriminating evidence you can find. Due to the difficulty of the task, it's something you're the only ones I can ask.")
  If(0,4,0)
   ShowMessageFace("alice_fc5",0,0,2,117)
   ShowMessage("\\n<Alice>...Fine.\nMephisto's actions sound like something we need to investigate.")
   0()
  EndIf()
  If(0,5,0)
   ShowMessageFace("iriasu_fc4",2,0,2,118)
   ShowMessage("\\n<Ilias>...All right, I accept.\nWe'll grab Mephisto by the tail and expose the Monster Lord's plot.")
   0()
  EndIf()
  If(4,134,0)
   ShowMessageFace("chrom_fc2",0,0,2,119)
   ShowMessage("\\n<Chrome>Hah, leave it to me!")
   0()
  EndIf()
  ShowMessageFace("grandnoa_fc1",0,0,2,120)
  ShowMessage("\\n<Queen of Grand Noah>As you probably know, the Magical Academy is north of Grand Noah Palace. Please exercise the utmost caution there.")
  ShowMessageFace("grandnoa_fc1",0,0,2,121)
  ShowMessage("\\n<Queen of Grand Noah>The academy will be filled with Mephisto's students. Even though they're still in training, they're very powerful mages.")
  250(bytes(0x04,0x08,0x6f,0x3a,0x0c,0x52,0x50,0x47,0x3a,0x3a,0x53,0x45,0x08,0x3a,0x0a,0x40,0x6e,0x61,0x6d,0x65,0x49,0x22,0x0a,0x49,0x74,0x65,0x6d,0x31,0x06,0x3a,0x06,0x45,0x54,0x3a,0x0b,0x40,0x70,0x69,0x74,0x63,0x68,0x69,0x69,0x3a,0x0c,0x40,0x76,0x6f,0x6c,0x75,0x6d,0x65,0x69,0x55))
  ChangeInventory_Item(530,0,0,1)
  ShowMessageFace("grandnoa_fc1",0,0,2,122)
  ShowMessage("\\n<Queen of Grand Noah>I leave the rest to you...\nIn the meantime, I'll process the proper paperwork to have you added to the Esta investigation team.")
  If(0,4,0)
   ShowMessageFace("alice_fc5",2,0,2,123)
   ShowMessage("\\n<Alice>You better keep that promise this time.\nOkay, to the Magical Academy!")
   0()
  EndIf()
  If(0,5,0)
   ShowMessageFace("iriasu_fc4",0,0,2,124)
   ShowMessage("\\n<Ilias>If you break our agreement again, I'm sending you to hell. All right, let's go to the Magical Academy!")
   0()
  EndIf()
  PictureClear(5)
  ShowMessageFace("",0,0,2,125)
  ShowMessage("Considering that we can't stand idly by concerning a plot by the Monster Lord, we agree to investigate Mephisto's stronghold, the Magical Academy.")
  241(bytes(0x04,0x08,0x6f,0x3a,0x0d,0x52,0x50,0x47,0x3a,0x3a,0x42,0x47,0x4d,0x08,0x3a,0x0a,0x40,0x6e,0x61,0x6d,0x65,0x49,0x22,0x0c,0x63,0x61,0x73,0x74,0x6c,0x65,0x33,0x06,0x3a,0x06,0x45,0x54,0x3a,0x0c,0x40,0x76,0x6f,0x6c,0x75,0x6d,0x65,0x69,0x69,0x3a,0x0b,0x40,0x70,0x69,0x74,0x63,0x68,0x69,0x69))
  EndEventProcessing()
  0()
 PAGE   2
  // condition: variable 1052 >= 6
  0()



EVENT   87
 PAGE   1
  // condition: variable 1052 >= 3
  0()
 PAGE   2
  // condition: variable 1052 >= 4
  0()
 PAGE   3
  // condition: variable 1052 >= 5
  0()
 PAGE   4
  // condition: switch 31 is ON
  0()



EVENT   88
 PAGE   1
  // condition: variable 1052 >= 3
  0()
 PAGE   2
  // condition: variable 1052 >= 4
  0()
 PAGE   3
  // condition: variable 1052 >= 5
  0()
 PAGE   4
  // condition: switch 31 is ON
  0()



EVENT   89
 PAGE   1
  // condition: variable 1052 >= 3
  0()
 PAGE   2
  // condition: variable 1052 >= 4
  0()
 PAGE   3
  // condition: variable 1052 >= 5
  0()
 PAGE   4
  // condition: switch 31 is ON
  0()
