


EVENT   1
 PAGE   1
  0()



EVENT   2
 PAGE   1
  0()



EVENT   3
 PAGE   1
  0()



EVENT   4
 PAGE   1
  0()



EVENT   5
 PAGE   1
  241(bytes(0x04,0x08,0x6f,0x3a,0x0d,0x52,0x50,0x47,0x3a,0x3a,0x42,0x47,0x4d,0x08,0x3a,0x0a,0x40,0x6e,0x61,0x6d,0x65,0x49,0x22,0x0a,0x6b,0x69,0x6b,0x69,0x32,0x06,0x3a,0x06,0x45,0x54,0x3a,0x0c,0x40,0x76,0x6f,0x6c,0x75,0x6d,0x65,0x69,0x69,0x3a,0x0b,0x40,0x70,0x69,0x74,0x63,0x68,0x69,0x69))
  PictureDisplay(5,"80_serene_st11",0,0,0,0,100,100,0,0)
  PictureMove(5,null,0,0,0,0,100,100,255,0,30,true)
  ShowMessageFace("serene_fc1",3,0,2,1)
  ShowMessage("\\n<Selena>There it is... That's the ghost ship.")
  If(4,202,0)
   ShowMessageFace("bonny_fc1",0,0,2,2)
   ShowMessage("\\n<Bonnie>Captain Selene's pirate ship is amazing...\nIt's bigger than the MS Fish.")
   0()
  EndIf()
  ShowMessageFace("ruka_fc1",0,0,2,3)
  ShowMessage("\\n<Luka>So it's been drifting at sea for decades?\nI wonder what we'll find inside...")
  If(0,4,0)
   ShowMessageFace("alice_fc5",6,0,2,4)
   ShowMessage("\\n<Alice>...*shiver*")
   If(0,6,0)
    ShowMessageFace("sonia_fc1",3,0,2,5)
    ShowMessage("\\n<Sonya>Wait, are you seriously scared?")
    0()
   Else()
    ShowMessageFace("alice_fc5",3,0,2,6)
    ShowMessage("\\n<Alice>J-Just a cold breeze...")
    0()
   EndIf()
   0()
  EndIf()
  If(0,5,0)
   ShowMessageFace("iriasu_fc4",5,0,2,7)
   ShowMessage("\\n<Ilias>...*shiver*")
   If(0,6,0)
    ShowMessageFace("sonia_fc1",3,0,2,8)
    ShowMessage("\\n<Sonya>Wait, are you seriously scared?")
    0()
   Else()
    ShowMessageFace("iriasu_fc4",2,0,2,9)
    ShowMessage("\\n<Ilias>The ocean breeze is just cold...")
    0()
   EndIf()
   0()
  EndIf()
  ShowMessageFace("serene_fc1",3,0,2,10)
  ShowMessage("\\n<Selena>Look alive, we're getting close...\nPull alongside and we'll board her!")
  ShowMessageFace("ruka_fc1",0,0,2,11)
  ShowMessage("\\n<Luka>Okay, ready for battle!")
  If(0,4,0)
   ShowMessageFace("alice_fc5",3,0,2,12)
   ShowMessage("\\n<Alice>Brrrr....")
   0()
  EndIf()
  If(0,5,0)
   ShowMessageFace("iriasu_fc4",2,0,2,13)
   ShowMessage("\\n<Ilias>Bbbbrrrr...")
   0()
  EndIf()
  221()
  PictureClear(5)
  211(1)
  250(bytes(0x04,0x08,0x6f,0x3a,0x0c,0x52,0x50,0x47,0x3a,0x3a,0x53,0x45,0x08,0x3a,0x0a,0x40,0x6e,0x61,0x6d,0x65,0x49,0x22,0x0b,0x57,0x61,0x74,0x65,0x72,0x31,0x06,0x3a,0x06,0x45,0x54,0x3a,0x0b,0x40,0x70,0x69,0x74,0x63,0x68,0x69,0x69,0x3a,0x0c,0x40,0x76,0x6f,0x6c,0x75,0x6d,0x65,0x69,0x55))
  Wait(60)
  ChangeSwitch(251,251,0)
  ChangeSwitch(100,100,0)
  281(0)
  314(0,0)
  TeleportPlayer(0,369,5,30,6,0)
  222()
  0()
 PAGE   2
  // condition: variable 1067 >= 4
  241(bytes(0x04,0x08,0x6f,0x3a,0x0d,0x52,0x50,0x47,0x3a,0x3a,0x42,0x47,0x4d,0x08,0x3a,0x0a,0x40,0x6e,0x61,0x6d,0x65,0x49,0x22,0x14,0x73,0x63,0x65,0x6e,0x65,0x5f,0x65,0x70,0x69,0x6c,0x6f,0x67,0x75,0x65,0x32,0x06,0x3a,0x06,0x45,0x54,0x3a,0x0c,0x40,0x76,0x6f,0x6c,0x75,0x6d,0x65,0x69,0x69,0x3a,0x0b,0x40,0x70,0x69,0x74,0x63,0x68,0x69,0x69))
  PictureDisplay(5,"80_serene_st12",0,0,0,0,100,100,0,0)
  PictureMove(5,null,0,0,0,0,100,100,255,0,30,true)
  ShowMessageFace("serene_fc1",4,0,2,1)
  ShowMessage("\\n<Selena>Thank you, Hero Luka and companions.\nBecause of you, those fearsome monsters were destroyed.")
  ShowMessageFace("ruka_fc1",0,0,2,2)
  ShowMessage("\\n<Luka>Selena, what are you...")
  PictureDisplay(5,"80_serene_st11",0,0,0,0,100,100,255,0)
  ShowMessageFace("serene_fc1",3,0,2,3)
  ShowMessage("\\n<Selena>I haven't been honest with you all.\nI'm not Captain Selene's granddaughter.")
  ShowMessageFace("serene_fc1",3,0,2,4)
  ShowMessage("\\n<Selena>...I'm Captain Selene herself.")
  If(4,202,0)
   ShowMessageFace("bonny_fc1",0,0,2,5)
   ShowMessage("\\n<Bonnie>Seriously!?")
   0()
  EndIf()
  If(0,6,0)
   ShowMessageFace("sonia_fc3",7,0,2,6)
   ShowMessage("\\n<Sonya>Huh? But Captain Selene is long...")
   0()
  Else()
   ShowMessageFace("ruka_fc1",0,0,2,7)
   ShowMessage("\\n<Luka>Huh? But Captain Selene is long...")
   0()
  EndIf()
  241(bytes(0x04,0x08,0x6f,0x3a,0x0d,0x52,0x50,0x47,0x3a,0x3a,0x42,0x47,0x4d,0x08,0x3a,0x0a,0x40,0x6e,0x61,0x6d,0x65,0x49,0x22,0x14,0x73,0x63,0x65,0x6e,0x65,0x5f,0x6b,0x61,0x6e,0x61,0x73,0x69,0x6d,0x69,0x31,0x06,0x3a,0x06,0x45,0x54,0x3a,0x0c,0x40,0x76,0x6f,0x6c,0x75,0x6d,0x65,0x69,0x69,0x3a,0x0b,0x40,0x70,0x69,0x74,0x63,0x68,0x69,0x69))
  ShowMessageFace("serene_fc1",3,0,2,8)
  ShowMessage("\\n<Selena>I'm not a living human.\nFifty years ago when we opened that box, we all lost our lives on the spot.")
  ShowMessageFace("serene_fc1",3,0,2,9)
  ShowMessage("\\n<Selena>But due to the regret of having released the Fly Queen, we couldn't pass on to the next world.")
  ShowMessageFace("ruka_fc1",0,0,2,10)
  ShowMessage("\\n<Luka>I see...")
  ShowMessageFace("serene_fc1",4,0,2,11)
  ShowMessage("\\n<Selena>Now we can rest in peace with no regrets.")
  ShowMessageFace("serene_fc1",4,0,2,12)
  ShowMessage("\\n<Selena>Thank you, Luka.\nI wish you the best of luck on your travels...")
  PictureClear(5)
  Wait(60)
  212(10,501,false)
  Wait(60)
  ChangeSwitch(31,31,0)
  Wait(60)
  ShowMessageFace("ruka_fc1",0,0,2,13)
  ShowMessage("\\n<Luka>.........")
  If(0,6,0)
   ShowMessageFace("sonia_fc1",4,0,2,14)
   ShowMessage("\\n<Sonya>It looks like she passed on peacefully...")
   0()
  EndIf()
  241(bytes(0x04,0x08,0x6f,0x3a,0x0d,0x52,0x50,0x47,0x3a,0x3a,0x42,0x47,0x4d,0x08,0x3a,0x0a,0x40,0x6e,0x61,0x6d,0x65,0x49,0x22,0x14,0x73,0x63,0x65,0x6e,0x65,0x5f,0x65,0x70,0x69,0x6c,0x6f,0x67,0x75,0x65,0x32,0x06,0x3a,0x06,0x45,0x54,0x3a,0x0c,0x40,0x76,0x6f,0x6c,0x75,0x6d,0x65,0x69,0x69,0x3a,0x0b,0x40,0x70,0x69,0x74,0x63,0x68,0x69,0x69))
  ShowMessageFace("ruka_fc1",0,0,2,15)
  ShowMessage("\\n<Luka>Who would have thought that we were on a ghost ship from the very beginning?")
  If(0,4,0)
   ShowMessageFace("ruka_fc1",0,0,2,16)
   ShowMessage("\\n<Luka>I bet you're surprised, Alice...")
   ShowMessageFace("alice_fc5",4,0,2,17)
   ShowMessage("\\n<Alice>.........")
   205(8,bytes(0x04,0x08,0x6f,0x3a,0x13,0x52,0x50,0x47,0x3a,0x3a,0x4d,0x6f,0x76,0x65,0x52,0x6f,0x75,0x74,0x65,0x09,0x3a,0x0c,0x40,0x72,0x65,0x70,0x65,0x61,0x74,0x46,0x3a,0x0f,0x40,0x73,0x6b,0x69,0x70,0x70,0x61,0x62,0x6c,0x65,0x46,0x3a,0x0a,0x40,0x77,0x61,0x69,0x74,0x54,0x3a,0x0a,0x40,0x6c,0x69,0x73,0x74,0x5b,0x07,0x6f,0x3a,0x15,0x52,0x50,0x47,0x3a,0x3a,0x4d,0x6f,0x76,0x65,0x43,0x6f,0x6d,0x6d,0x61,0x6e,0x64,0x07,0x3a,0x0a,0x40,0x63,0x6f,0x64,0x65,0x69,0x16,0x3a,0x10,0x40,0x70,0x61,0x72,0x61,0x6d,0x65,0x74,0x65,0x72,0x73,0x5b,0x00,0x6f,0x3b,0x0a,0x07,0x3b,0x0b,0x69,0x00,0x3b,0x0c,0x5b,0x00))
   ShowMessageFace("ruka_fc1",0,0,2,18)
   ShowMessage("\\n<Luka>...Alice?")
   ShowMessageFace("alice_fc5",4,0,2,19)
   ShowMessage("\\n<Alice>.........")
   ShowMessageFace("",0,0,2,20)
   ShowMessage("She's passed out upright...")
   0()
  EndIf()
  If(0,5,0)
   205(8,bytes(0x04,0x08,0x6f,0x3a,0x13,0x52,0x50,0x47,0x3a,0x3a,0x4d,0x6f,0x76,0x65,0x52,0x6f,0x75,0x74,0x65,0x09,0x3a,0x0c,0x40,0x72,0x65,0x70,0x65,0x61,0x74,0x46,0x3a,0x0f,0x40,0x73,0x6b,0x69,0x70,0x70,0x61,0x62,0x6c,0x65,0x46,0x3a,0x0a,0x40,0x77,0x61,0x69,0x74,0x54,0x3a,0x0a,0x40,0x6c,0x69,0x73,0x74,0x5b,0x07,0x6f,0x3a,0x15,0x52,0x50,0x47,0x3a,0x3a,0x4d,0x6f,0x76,0x65,0x43,0x6f,0x6d,0x6d,0x61,0x6e,0x64,0x07,0x3a,0x0a,0x40,0x63,0x6f,0x64,0x65,0x69,0x16,0x3a,0x10,0x40,0x70,0x61,0x72,0x61,0x6d,0x65,0x74,0x65,0x72,0x73,0x5b,0x00,0x6f,0x3b,0x0a,0x07,0x3b,0x0b,0x69,0x00,0x3b,0x0c,0x5b,0x00))
   ShowMessageFace("ruka_fc1",0,0,2,21)
   ShowMessage("\\n<Luka>I bet you're surprised, Ilias...")
   ShowMessageFace("iriasu_fc4",4,0,2,22)
   ShowMessage("\\n<Ilias>.........")
   Wait(60)
   212(9,501,false)
   Wait(60)
   ChangeSwitch(32,32,0)
   Wait(60)
   ShowMessageFace("ruka_fc1",0,0,2,23)
   ShowMessage("\\n<Luka>Whoa! Ilias too!")
   0()
  EndIf()
  Wait(60)
  221()
  250(bytes(0x04,0x08,0x6f,0x3a,0x0c,0x52,0x50,0x47,0x3a,0x3a,0x53,0x45,0x08,0x3a,0x0a,0x40,0x6e,0x61,0x6d,0x65,0x49,0x22,0x0b,0x57,0x61,0x74,0x65,0x72,0x31,0x06,0x3a,0x06,0x45,0x54,0x3a,0x0b,0x40,0x70,0x69,0x74,0x63,0x68,0x69,0x69,0x3a,0x0c,0x40,0x76,0x6f,0x6c,0x75,0x6d,0x65,0x69,0x55))
  Wait(60)
  ChangeVariable(1067,1067,0,0,5)
  ChangeVariable(1002,1002,0,0,34)
  ChangeSwitch(100,100,1)
  ChangeSwitch(31,31,1)
  ChangeSwitch(32,32,1)
  211(1)
  281(0)
  314(0,0)
  TeleportPlayer(0,143,14,7,2,0)
  222()
  355("gain_medal(45)")
  ShowMessageFace("ruka_fc1",0,0,2,24)
  ShowMessage("\\n<Luka>Let's return to Selena's house. We should get her things together and hold a service for her.")
  If(4,202,0)
   ShowMessageFace("bonny_fc1",1,0,2,25)
   ShowMessage("\\n<Bonnie>Yeah! We have to show respect to the pirate queen who ruled her era!")
   0()
  EndIf()
  If(4,143,0)
   ShowMessageFace("eva_fc1",1,0,2,26)
   ShowMessage("\\n<Eva>You mean take her valuables and sell them off, right? You're a terrible person!")
   ShowMessageFace("ruka_fc1",0,0,2,27)
   ShowMessage("\\n<Luka>I didn't mean that at all...")
   0()
  EndIf()
  If(0,4,0)
   ShowMessageFace("alice_fc5",4,0,2,28)
   ShowMessage("\\n<Alice>I refuse. It's cursed.")
   0()
  EndIf()
  If(0,5,0)
   ShowMessageFace("iriasu_fc4",4,0,2,29)
   ShowMessage("\\n<Ilias>I'll pass.")
   0()
  EndIf()
  If(0,6,0)
   ShowMessageFace("sonia_fc1",0,0,2,30)
   ShowMessage("\\n<Sonya>Don't say that... Come on, let's go.")
   0()
  Else()
   ShowMessageFace("ruka_fc1",0,0,2,31)
   ShowMessage("\\n<Luka>Don't say that... Come on, let's go.")
   0()
  EndIf()
  0()



EVENT   6
 PAGE   1
  0()



EVENT   7
 PAGE   1
  0()



EVENT   8
 PAGE   1
  0()
 PAGE   2
  // condition: variable 1067 >= 4
  0()



EVENT   9
 PAGE   1
  // condition: switch 4 is ON
  0()
 PAGE   2
  // condition: switch 5 is ON
  0()
 PAGE   3
  // condition: switch 4 is ON
  // condition: variable 1067 >= 4
  0()
 PAGE   4
  // condition: switch 5 is ON
  // condition: variable 1067 >= 4
  0()
 PAGE   5
  // condition: switch 32 is ON
  0()

EVENT   10
 PAGE   1
  0()
 PAGE   2
  // condition: variable 1067 >= 4
  0()
 PAGE   3
  // condition: switch 31 is ON
  0()


