﻿


EVENT   3
 PAGE   1
  250(bytes(0x04,0x08,0x6f,0x3a,0x0c,0x52,0x50,0x47,0x3a,0x3a,0x53,0x45,0x08,0x3a,0x0a,0x40,0x6e,0x61,0x6d,0x65,0x49,0x22,0x09,0x4d,0x6f,0x76,0x65,0x06,0x3a,0x06,0x45,0x54,0x3a,0x0b,0x40,0x70,0x69,0x74,0x63,0x68,0x69,0x69,0x3a,0x0c,0x40,0x76,0x6f,0x6c,0x75,0x6d,0x65,0x69,0x55))
  TeleportPlayer(0,903,9,34,0,0)
  0()



EVENT   1
 PAGE   1
  ChangeSwitch(31,31,1)
  ChangeSwitch(32,32,1)
  ChangeSwitch(33,33,1)
  ChangeSwitch(34,34,1)
  250(bytes(0x04,0x08,0x6f,0x3a,0x0c,0x52,0x50,0x47,0x3a,0x3a,0x53,0x45,0x08,0x3a,0x0a,0x40,0x6e,0x61,0x6d,0x65,0x49,0x22,0x09,0x4d,0x6f,0x76,0x65,0x06,0x3a,0x06,0x45,0x54,0x3a,0x0b,0x40,0x70,0x69,0x74,0x63,0x68,0x69,0x69,0x3a,0x0c,0x40,0x76,0x6f,0x6c,0x75,0x6d,0x65,0x69,0x55))
  TeleportPlayer(0,901,17,20,0,0)
  0()



EVENT   2
 PAGE   1
  250(bytes(0x04,0x08,0x6f,0x3a,0x0c,0x52,0x50,0x47,0x3a,0x3a,0x53,0x45,0x08,0x3a,0x0a,0x40,0x6e,0x61,0x6d,0x65,0x49,0x22,0x09,0x4d,0x6f,0x76,0x65,0x06,0x3a,0x06,0x45,0x54,0x3a,0x0b,0x40,0x70,0x69,0x74,0x63,0x68,0x69,0x69,0x3a,0x0c,0x40,0x76,0x6f,0x6c,0x75,0x6d,0x65,0x69,0x55))
  TeleportPlayer(0,906,9,13,0,0)
  0()



EVENT   4
 PAGE   1
  ChangeSelfSwitch("A",0)
  205(-1,bytes(0x04,0x08,0x6f,0x3a,0x13,0x52,0x50,0x47,0x3a,0x3a,0x4d,0x6f,0x76,0x65,0x52,0x6f,0x75,0x74,0x65,0x09,0x3a,0x0c,0x40,0x72,0x65,0x70,0x65,0x61,0x74,0x46,0x3a,0x0f,0x40,0x73,0x6b,0x69,0x70,0x70,0x61,0x62,0x6c,0x65,0x46,0x3a,0x0a,0x40,0x77,0x61,0x69,0x74,0x54,0x3a,0x0a,0x40,0x6c,0x69,0x73,0x74,0x5b,0x0b,0x6f,0x3a,0x15,0x52,0x50,0x47,0x3a,0x3a,0x4d,0x6f,0x76,0x65,0x43,0x6f,0x6d,0x6d,0x61,0x6e,0x64,0x07,0x3a,0x0a,0x40,0x63,0x6f,0x64,0x65,0x69,0x08,0x3a,0x10,0x40,0x70,0x61,0x72,0x61,0x6d,0x65,0x74,0x65,0x72,0x73,0x5b,0x00,0x6f,0x3b,0x0a,0x07,0x3b,0x0b,0x69,0x08,0x3b,0x0c,0x5b,0x00,0x6f,0x3b,0x0a,0x07,0x3b,0x0b,0x69,0x08,0x3b,0x0c,0x5b,0x00,0x6f,0x3b,0x0a,0x07,0x3b,0x0b,0x69,0x08,0x3b,0x0c,0x5b,0x00,0x6f,0x3b,0x0a,0x07,0x3b,0x0b,0x69,0x15,0x3b,0x0c,0x5b,0x00,0x6f,0x3b,0x0a,0x07,0x3b,0x0b,0x69,0x00,0x3b,0x0c,0x5b,0x00))
  ShowMessageFace("lars_fc01",0,0,2,1)
  ShowMessage("\\n<Lars>")
  ShowMessage("…………！？")
  ShowMessageFace("rovissa_fc1",0,0,2,2)
  ShowMessage("\\n<Rovissa>")
  ShowMessage("ちょっと……何なのよ、これ……")
  ShowMessageFace("daimeikai_fc1",1,0,2,3)
  ShowMessage("\\n<Daimyokai>")
  ShowMessage("バケモノ同士が、まぐわいやがって……")
  ShowMessage("吐き気がするぜ。")
  ShowMessageFace("",0,0,2,4)
  ShowMessage("夢魔達は、ひらすらに魔物達を犯している。")
  ShowMessage("行為に夢中で、こちらには目もくれないようだ――")
  ShowMessageFace("rest_fc1",0,0,2,5)
  ShowMessage("\\n<Lest>")
  ShowMessage("これは……ひどいな。")
  ShowMessage("僕達も、ここで捕まってしまえばこんな目に……")
  ShowMessageFace("daimeikai_fc1",2,0,2,6)
  ShowMessage("\\n<Daimyokai>")
  ShowMessage("その時は、俺が七色の喘ぎ声を聞かせてやるよ！")
  ShowMessageFace("rovissa_fc1",0,0,2,7)
  ShowMessage("\\n<Rovissa>")
  ShowMessage("いらないわよ……")
  ShowMessageFace("tarsa_fc2",1,0,2,8)
  ShowMessage("\\n<Tarsa>")
  ShowMessage("（私は犯す側だし、正直楽しそう……）")
  EndEventProcessing()
  0()
 PAGE   2
  // condition: self-switch A is ON
  0()



EVENT   6
 PAGE   1
  250(bytes(0x04,0x08,0x6f,0x3a,0x0c,0x52,0x50,0x47,0x3a,0x3a,0x53,0x45,0x08,0x3a,0x0a,0x40,0x6e,0x61,0x6d,0x65,0x49,0x22,0x0a,0x43,0x68,0x65,0x73,0x74,0x06,0x3a,0x06,0x45,0x54,0x3a,0x0b,0x40,0x70,0x69,0x74,0x63,0x68,0x69,0x69,0x3a,0x0c,0x40,0x76,0x6f,0x6c,0x75,0x6d,0x65,0x69,0x55))
  205(0,bytes(0x04,0x08,0x6f,0x3a,0x13,0x52,0x50,0x47,0x3a,0x3a,0x4d,0x6f,0x76,0x65,0x52,0x6f,0x75,0x74,0x65,0x09,0x3a,0x0c,0x40,0x72,0x65,0x70,0x65,0x61,0x74,0x46,0x3a,0x0f,0x40,0x73,0x6b,0x69,0x70,0x70,0x61,0x62,0x6c,0x65,0x46,0x3a,0x0a,0x40,0x77,0x61,0x69,0x74,0x54,0x3a,0x0a,0x40,0x6c,0x69,0x73,0x74,0x5b,0x0b,0x6f,0x3a,0x15,0x52,0x50,0x47,0x3a,0x3a,0x4d,0x6f,0x76,0x65,0x43,0x6f,0x6d,0x6d,0x61,0x6e,0x64,0x07,0x3a,0x0a,0x40,0x63,0x6f,0x64,0x65,0x69,0x29,0x3a,0x10,0x40,0x70,0x61,0x72,0x61,0x6d,0x65,0x74,0x65,0x72,0x73,0x5b,0x00,0x6f,0x3b,0x0a,0x07,0x3b,0x0b,0x69,0x16,0x3b,0x0c,0x5b,0x00,0x6f,0x3b,0x0a,0x07,0x3b,0x0b,0x69,0x14,0x3b,0x0c,0x5b,0x06,0x69,0x08,0x6f,0x3b,0x0a,0x07,0x3b,0x0b,0x69,0x17,0x3b,0x0c,0x5b,0x00,0x6f,0x3b,0x0a,0x07,0x3b,0x0b,0x69,0x14,0x3b,0x0c,0x5b,0x06,0x69,0x08,0x6f,0x3b,0x0a,0x07,0x3b,0x0b,0x69,0x00,0x3b,0x0c,0x5b,0x00))
  ChangeSelfSwitch("A",0)
  ChangeInventoryArmor(1044,0,0,1,false)
  0()
 PAGE   2
  // condition: self-switch A is ON
  0()



EVENT   8
 PAGE   1
  ShowMessageFace("succubusm_fc1",0,0,2,1)
  ShowMessage("\\n<夢魔>")
  ShowMessage("「宝物庫の宝は石像の視線が交差する先」って書いてたけど、")
  ShowMessage("なぜか読めなくなってるわね。")
  ShowMessageFace("succubusm_fc1",0,0,2,2)
  ShowMessage("\\n<夢魔>")
  ShowMessage("お城がこの世界に転移した時に、色々と変化があったの。")
  ShowMessage("トラップが消えたし、ガーゴイルも動かなくなったし……")
  0()



EVENT   7
 PAGE   1
  250(bytes(0x04,0x08,0x6f,0x3a,0x0c,0x52,0x50,0x47,0x3a,0x3a,0x53,0x45,0x08,0x3a,0x0a,0x40,0x6e,0x61,0x6d,0x65,0x49,0x22,0x0a,0x43,0x68,0x65,0x73,0x74,0x06,0x3a,0x06,0x45,0x54,0x3a,0x0b,0x40,0x70,0x69,0x74,0x63,0x68,0x69,0x69,0x3a,0x0c,0x40,0x76,0x6f,0x6c,0x75,0x6d,0x65,0x69,0x55))
  205(0,bytes(0x04,0x08,0x6f,0x3a,0x13,0x52,0x50,0x47,0x3a,0x3a,0x4d,0x6f,0x76,0x65,0x52,0x6f,0x75,0x74,0x65,0x09,0x3a,0x0c,0x40,0x72,0x65,0x70,0x65,0x61,0x74,0x46,0x3a,0x0f,0x40,0x73,0x6b,0x69,0x70,0x70,0x61,0x62,0x6c,0x65,0x46,0x3a,0x0a,0x40,0x77,0x61,0x69,0x74,0x54,0x3a,0x0a,0x40,0x6c,0x69,0x73,0x74,0x5b,0x0b,0x6f,0x3a,0x15,0x52,0x50,0x47,0x3a,0x3a,0x4d,0x6f,0x76,0x65,0x43,0x6f,0x6d,0x6d,0x61,0x6e,0x64,0x07,0x3a,0x0a,0x40,0x63,0x6f,0x64,0x65,0x69,0x29,0x3a,0x10,0x40,0x70,0x61,0x72,0x61,0x6d,0x65,0x74,0x65,0x72,0x73,0x5b,0x00,0x6f,0x3b,0x0a,0x07,0x3b,0x0b,0x69,0x16,0x3b,0x0c,0x5b,0x00,0x6f,0x3b,0x0a,0x07,0x3b,0x0b,0x69,0x14,0x3b,0x0c,0x5b,0x06,0x69,0x08,0x6f,0x3b,0x0a,0x07,0x3b,0x0b,0x69,0x17,0x3b,0x0c,0x5b,0x00,0x6f,0x3b,0x0a,0x07,0x3b,0x0b,0x69,0x14,0x3b,0x0c,0x5b,0x06,0x69,0x08,0x6f,0x3b,0x0a,0x07,0x3b,0x0b,0x69,0x00,0x3b,0x0c,0x5b,0x00))
  ShowMessageFace("",0,0,2,1)
  ShowMessage("宝箱はミミック娘だった！")
  Battle(0,1429,false,false)
  ChangeSelfSwitch("A",0)
  0()
 PAGE   2
  // condition: self-switch A is ON
  0()



EVENT   9
 PAGE   1
  0()



EVENT   10
 PAGE   1
  0()



EVENT   11
 PAGE   1
  0()



EVENT   12
 PAGE   1
  0()



EVENT   13
 PAGE   1
  0()



EVENT   14
 PAGE   1
  0()



EVENT   15
 PAGE   1
  0()



EVENT   16
 PAGE   1
  0()



EVENT   17
 PAGE   1
  0()



EVENT   18
 PAGE   1
  0()



EVENT   22
 PAGE   1
  0()



EVENT   23
 PAGE   1
  0()



EVENT   5
 PAGE   1
  0()



EVENT   19
 PAGE   1
  0()



EVENT   20
 PAGE   1
  0()



EVENT   21
 PAGE   1
  0()



EVENT   24
 PAGE   1
  0()



EVENT   25
 PAGE   1
  0()



EVENT   26
 PAGE   1
  0()



EVENT   27
 PAGE   1
  0()



EVENT   28
 PAGE   1
  0()



EVENT   29
 PAGE   1
  0()



EVENT   30
 PAGE   1
  0()



EVENT   31
 PAGE   1
  0()



EVENT   32
 PAGE   1
  0()



EVENT   33
 PAGE   1
  0()



EVENT   34
 PAGE   1
  0()



EVENT   35
 PAGE   1
  0()



EVENT   36
 PAGE   1
  0()



EVENT   37
 PAGE   1
  0()



EVENT   38
 PAGE   1
  0()



EVENT   39
 PAGE   1
  0()



EVENT   40
 PAGE   1
  0()



EVENT   41
 PAGE   1
  0()



EVENT   42
 PAGE   1
  0()



EVENT   43
 PAGE   1
  0()



EVENT   44
 PAGE   1
  0()



EVENT   45
 PAGE   1
  0()



EVENT   46
 PAGE   1
  0()



EVENT   47
 PAGE   1
  0()



EVENT   48
 PAGE   1
  0()



EVENT   49
 PAGE   1
  0()



EVENT   50
 PAGE   1
  0()



EVENT   51
 PAGE   1
  0()



EVENT   52
 PAGE   1
  0()



EVENT   53
 PAGE   1
  0()



EVENT   54
 PAGE   1
  0()



EVENT   55
 PAGE   1
  0()



EVENT   56
 PAGE   1
  0()



EVENT   57
 PAGE   1
  0()



EVENT   58
 PAGE   1
  0()



EVENT   59
 PAGE   1
  0()



EVENT   60
 PAGE   1
  0()



EVENT   61
 PAGE   1
  0()



EVENT   62
 PAGE   1
  0()



EVENT   63
 PAGE   1
  0()



EVENT   64
 PAGE   1
  0()



EVENT   65
 PAGE   1
  0()
